filename,Exif.Photo.DateTimeOriginal,Exif.Image.Make,Exif.Image.Model
001.jpg,,,
002_032171.jpg,,,
002.jpg,,,
003_032171.jpg,,,
003.jpg,,,
004.jpg,,,
01_10_IMG_6253WEB.jpg,2013:01:22 13:51:21,Canon,Canon EOS 5D Mark II
01_11_IMG_6254WEB.jpg,2013:01:22 13:51:32,Canon,Canon EOS 5D Mark II
01_12_IMG_6255WEB.jpg,2013:01:22 13:51:44,Canon,Canon EOS 5D Mark II
01_13_IMG_6256WEB.jpg,2013:01:22 13:52:26,Canon,Canon EOS 5D Mark II
01_14_IMG_6258WEB.jpg,2013:01:22 13:52:59,Canon,Canon EOS 5D Mark II
01_15_IMG_6259WEB.jpg,2013:01:22 13:53:11,Canon,Canon EOS 5D Mark II
01_16_IMG_6260WEB.jpg,2013:01:22 13:53:25,Canon,Canon EOS 5D Mark II
01_17_IMG_6262WEB.jpg,2013:01:22 13:54:19,Canon,Canon EOS 5D Mark II
01_18_IMG_6263WEB.jpg,2013:01:22 13:54:28,Canon,Canon EOS 5D Mark II
01_19_IMG_6264WEB.jpg,2013:01:22 13:54:41,Canon,Canon EOS 5D Mark II
01_1_IMG_6241WEB.jpg,2013:01:22 13:48:46,Canon,Canon EOS 5D Mark II
01_20_IMG_6265WEB.jpg,2013:01:22 13:54:52,Canon,Canon EOS 5D Mark II
01_21_IMG_6266WEB.jpg,2013:01:22 13:55:10,Canon,Canon EOS 5D Mark II
01_22_IMG_6267WEB.jpg,2013:01:22 13:56:16,Canon,Canon EOS 5D Mark II
01_23_IMG_6268WEB.jpg,2013:01:22 13:56:31,Canon,Canon EOS 5D Mark II
01_24_IMG_6269WEB.jpg,2013:01:22 13:56:57,Canon,Canon EOS 5D Mark II
01_25_IMG_6270WEB.jpg,2013:01:22 13:57:24,Canon,Canon EOS 5D Mark II
01_26_IMG_6271WEB.jpg,2013:01:22 13:58:22,Canon,Canon EOS 5D Mark II
01_27_IMG_6272WEB.jpg,2013:01:22 13:58:41,Canon,Canon EOS 5D Mark II
01_28_IMG_6273WEB.jpg,2013:01:22 13:58:57,Canon,Canon EOS 5D Mark II
01_29_IMG_6275WEB.jpg,2013:01:22 13:59:27,Canon,Canon EOS 5D Mark II
01_2_IMG_6243WEB.jpg,2013:01:22 13:49:13,Canon,Canon EOS 5D Mark II
01_30_IMG_6277WEB.jpg,2013:01:22 14:00:34,Canon,Canon EOS 5D Mark II
01_31_IMG_6278WEB.jpg,2013:01:22 14:00:46,Canon,Canon EOS 5D Mark II
01_32_IMG_6279WEB.jpg,2013:01:22 14:01:09,Canon,Canon EOS 5D Mark II
01_33_IMG_6280WEB.jpg,2013:01:22 14:01:37,Canon,Canon EOS 5D Mark II
01_34_IMG_6281WEB.jpg,2013:01:22 14:01:49,Canon,Canon EOS 5D Mark II
01_35_IMG_6282WEB.jpg,2013:01:22 14:02:09,Canon,Canon EOS 5D Mark II
01_36_IMG_6284WEB.jpg,2013:01:22 14:05:29,Canon,Canon EOS 5D Mark II
01_37_IMG_6286WEB.jpg,2013:01:22 14:06:21,Canon,Canon EOS 5D Mark II
01_38_IMG_6287WEB.jpg,2013:01:22 14:06:29,Canon,Canon EOS 5D Mark II
01_39_IMG_6289WEB.jpg,2013:01:22 14:10:16,Canon,Canon EOS 5D Mark II
01_3_IMG_6244WEB.jpg,2013:01:22 13:49:26,Canon,Canon EOS 5D Mark II
01_40_IMG_6294WEB.jpg,2013:01:22 14:15:10,Canon,Canon EOS 5D Mark II
01_41_IMG_6299WEB.jpg,2013:01:22 14:18:14,Canon,Canon EOS 5D Mark II
01_42_IMG_6303WEB.jpg,2013:01:22 14:19:30,Canon,Canon EOS 5D Mark II
01_43_IMG_6307WEB.jpg,2013:01:22 14:19:56,Canon,Canon EOS 5D Mark II
01_44_IMG_6312WEB.jpg,2013:01:22 14:22:28,Canon,Canon EOS 5D Mark II
01_45_IMG_6313WEB 2.jpg,2013:01:22 14:22:59,Canon,Canon EOS 5D Mark II
01_45_IMG_6313WEB.jpg,2013:01:22 14:22:59,Canon,Canon EOS 5D Mark II
01_46_IMG_6317WEB 2.jpg,2013:01:22 14:24:19,Canon,Canon EOS 5D Mark II
01_46_IMG_6317WEB.jpg,2013:01:22 14:24:19,Canon,Canon EOS 5D Mark II
01_47_IMG_6319WEB 2.jpg,2013:01:22 14:25:04,Canon,Canon EOS 5D Mark II
01_47_IMG_6319WEB.jpg,2013:01:22 14:25:04,Canon,Canon EOS 5D Mark II
01_48_IMG_6322WEB 2.jpg,2013:01:22 14:25:29,Canon,Canon EOS 5D Mark II
01_48_IMG_6322WEB.jpg,2013:01:22 14:25:29,Canon,Canon EOS 5D Mark II
01_4_IMG_6245WEB.jpg,2013:01:22 13:49:37,Canon,Canon EOS 5D Mark II
01_5_IMG_6246WEB.jpg,2013:01:22 13:49:46,Canon,Canon EOS 5D Mark II
01_6_IMG_6247WEB.jpg,2013:01:22 13:49:56,Canon,Canon EOS 5D Mark II
01_7_IMG_6249WEB.jpg,2013:01:22 13:50:40,Canon,Canon EOS 5D Mark II
01_8_IMG_6250WEB.jpg,2013:01:22 13:50:50,Canon,Canon EOS 5D Mark II
01_9_IMG_6252WEB.jpg,2013:01:22 13:51:03,Canon,Canon EOS 5D Mark II
01a_IMG_7436.jpg,2013:02:13 14:59:42,Canon,Canon EOS 5D Mark II
02_1_IMG_6339WEB.jpg,2013:01:22 14:40:19,Canon,Canon EOS 5D Mark II
02_2_IMG_6344WEB.jpg,2013:01:22 14:41:45,Canon,Canon EOS 5D Mark II
02_3_IMG_6345WEB.jpg,2013:01:22 14:41:57,Canon,Canon EOS 5D Mark II
02_4_IMG_6346WEB.jpg,2013:01:22 14:42:05,Canon,Canon EOS 5D Mark II
02_5_IMG_6341WEB.jpg,2013:01:22 14:40:58,Canon,Canon EOS 5D Mark II
02a_IMG_7434.jpg,2013:02:13 14:58:07,Canon,Canon EOS 5D Mark II
03_1_IMG_6348WEB.jpg,2013:01:22 14:42:32,Canon,Canon EOS 5D Mark II
031.jpg,,,
03_2_IMG_6349WEB.jpg,2013:01:22 14:42:52,Canon,Canon EOS 5D Mark II
03_3_IMG_6351WEB.jpg,2013:01:22 14:43:09,Canon,Canon EOS 5D Mark II
03_4_IMG_6352WEB.jpg,2013:01:22 14:43:23,Canon,Canon EOS 5D Mark II
03_5_IMG_6353WEB.jpg,2013:01:22 14:43:39,Canon,Canon EOS 5D Mark II
03a_IMG_7433.jpg,2013:02:13 14:56:38,Canon,Canon EOS 5D Mark II
04_1_IMG_6357WEB.jpg,2013:01:22 14:45:11,Canon,Canon EOS 5D Mark II
04_2_IMG_6358WEB.jpg,2013:01:22 14:45:27,Canon,Canon EOS 5D Mark II
04a_IMG_7431.jpg,2013:02:13 14:54:27,Canon,Canon EOS 5D Mark II
05_10_IMG_7339WEB.jpg,2013:02:13 12:38:26,Canon,Canon EOS 5D Mark II
05_11_IMG_7341WEB.jpg,2013:02:13 12:39:27,Canon,Canon EOS 5D Mark II
05_1_IMG_6366WEB.jpg,2013:01:22 14:50:46,Canon,Canon EOS 5D Mark II
05_2_IMG_6372WEB.jpg,2013:01:22 14:51:32,Canon,Canon EOS 5D Mark II
05_3_IMG_6376WEB.jpg,2013:01:22 14:52:00,Canon,Canon EOS 5D Mark II
05_4_IMG_6377WEB.jpg,2013:01:22 14:52:16,Canon,Canon EOS 5D Mark II
05_5_IMG_6378WEB.jpg,2013:01:22 14:52:33,Canon,Canon EOS 5D Mark II
05_6_IMG_6388WEB.jpg,2013:01:22 14:54:35,Canon,Canon EOS 5D Mark II
05_7_IMG_7323WEB.jpg,2013:02:13 12:23:08,Canon,Canon EOS 5D Mark II
05_8_IMG_7336WEB.jpg,2013:02:13 12:32:55,Canon,Canon EOS 5D Mark II
05_9_IMG_7338WEB.jpg,2013:02:13 12:35:17,Canon,Canon EOS 5D Mark II
05a_IMG_7430.jpg,2013:02:13 14:53:00,Canon,Canon EOS 5D Mark II
06_1_IMG_6382WEB.jpg,2013:01:22 14:53:44,Canon,Canon EOS 5D Mark II
06_2_IMG_6387WEB.jpg,2013:01:22 14:54:07,Canon,Canon EOS 5D Mark II
06a_IMG_7429.jpg,2013:02:13 14:51:22,Canon,Canon EOS 5D Mark II
071_032171.jpg,,,
07_1_IMG_7362WEB.jpg,2013:02:13 12:57:21,Canon,Canon EOS 5D Mark II
07a_IMG_7428.jpg,2013:02:13 14:49:19,Canon,Canon EOS 5D Mark II
080_032171.jpg,,,
081_032171.jpg,,,
08_1_IMG_6403WEB.jpg,2013:01:22 14:58:37,Canon,Canon EOS 5D Mark II
082_032171.jpg,,,
083_032171.jpg,,,
084_032171.jpg,,,
085_032171.jpg,,,
08a_IMG_7417.jpg,2013:02:13 14:36:13,Canon,Canon EOS 5D Mark II
091_032171.jpg,,,
09_1_IMG_6407WEB.jpg,2013:01:22 15:00:32,Canon,Canon EOS 5D Mark II
09_1_IMG_6411WEB.jpg,2013:01:22 15:00:49,Canon,Canon EOS 5D Mark II
092_032171.jpg,,,
09a_IMG_7414.jpg,2013:02:13 14:33:53,Canon,Canon EOS 5D Mark II
10_1_IMG_6415WEB.jpg,2013:01:22 15:01:58,Canon,Canon EOS 5D Mark II
10_2_IMG_6418WEB.jpg,2013:01:22 15:02:33,Canon,Canon EOS 5D Mark II
10_3_IMG_6419WEB.jpg,2013:01:22 15:02:47,Canon,Canon EOS 5D Mark II
10_4_IMG_6420WEB.jpg,2013:01:22 15:03:29,Canon,Canon EOS 5D Mark II
10a_IMG_0308Web.jpg,2012:09:12 14:40:10,Canon,Canon EOS 5D Mark II
10a_IMG_2277WEB.jpg,2012:10:24 12:16:30,Canon,Canon EOS 5D Mark II
10a_IMG_2854WEB.jpg,2012:10:30 15:17:01,Canon,Canon EOS 5D Mark II
10a_IMG_2985WEB.jpg,2012:11:01 13:55:37,Canon,Canon EOS 5D Mark II
10a_IMG_4076WEB.jpg,2012:11:09 15:56:03,Canon,Canon EOS 5D Mark II
10a_IMG_7409.jpg,2013:02:13 14:29:32,Canon,Canon EOS 5D Mark II
10a_IMG_7668WEB.jpg,2013:02:21 12:36:11,Canon,Canon EOS 5D Mark II
10a_MG_8310WEB.jpg,2013:03:04 11:06:40,Canon,Canon EOS 5D Mark II
10b_IMG_0309Web.jpg,2012:09:12 14:42:57,Canon,Canon EOS 5D Mark II
10b_IMG_2281WEB.jpg,2012:10:24 12:17:33,Canon,Canon EOS 5D Mark II
10b_IMG_2855WEB.jpg,2012:10:30 15:19:02,Canon,Canon EOS 5D Mark II
10b_IMG_4080WEB.jpg,2012:11:09 15:56:30,Canon,Canon EOS 5D Mark II
10b_IMG_7413.jpg,2013:02:13 14:32:32,Canon,Canon EOS 5D Mark II
10b_MG_8309WEB.jpg,2013:03:04 11:06:11,Canon,Canon EOS 5D Mark II
10c_IMG_0312Web.jpg,2012:09:12 14:49:28,Canon,Canon EOS 5D Mark II
10c_IMG_2857WEB.jpg,2012:10:30 15:21:11,Canon,Canon EOS 5D Mark II
10c_IMG_4081WEB.jpg,2012:11:09 15:56:45,Canon,Canon EOS 5D Mark II
10c_MG_8304WEB.jpg,2013:03:04 11:05:19,Canon,Canon EOS 5D Mark II
10d_IMG_2858WEB.jpg,2012:10:30 15:22:56,Canon,Canon EOS 5D Mark II
10e_IMG_2859WEB.jpg,2012:10:30 15:24:03,Canon,Canon EOS 5D Mark II
10_IMG_2397WEB.jpg,2012:10:24 15:32:55,Canon,Canon EOS 5D Mark II
11_1_IMG_6425WEB.jpg,2013:01:22 15:05:37,Canon,Canon EOS 5D Mark II
11_2_IMG_6427WEB.jpg,2013:01:22 15:06:26,Canon,Canon EOS 5D Mark II
11a_IMG_0852Web.jpg,2012:09:20 13:28:34,Canon,Canon EOS 5D Mark II
11a_IMG_2243WEB.jpg,2012:10:24 11:53:14,Canon,Canon EOS 5D Mark II
11a_IMG_2879WEB.jpg,2012:10:30 16:30:03,Canon,Canon EOS 5D Mark II
11a_IMG_4061WEB.jpg,2012:11:09 15:51:27,Canon,Canon EOS 5D Mark II
11a_IMG_4500WEB.jpg,2012:11:14 12:05:55,Canon,Canon EOS 5D Mark II
11a_IMG_7384.jpg,2013:02:13 14:00:04,Canon,Canon EOS 5D Mark II
11a_IMG_7671WEB.jpg,2013:02:21 13:36:20,Canon,Canon EOS 5D Mark II
11a_MG_8317WEB.jpg,2013:03:04 11:08:28,Canon,Canon EOS 5D Mark II
11b_IMG_0854Web.jpg,2012:09:20 13:29:45,Canon,Canon EOS 5D Mark II
11b_IMG_2253WEB.jpg,2012:10:24 11:56:25,Canon,Canon EOS 5D Mark II
11b_IMG_2888WEB.jpg,2012:10:30 16:32:04,Canon,Canon EOS 5D Mark II
11b_IMG_4064WEB.jpg,2012:11:09 15:51:51,Canon,Canon EOS 5D Mark II
11b_IMG_7382.jpg,2013:02:13 13:59:29,Canon,Canon EOS 5D Mark II
11b_MG_8314WEB.jpg,2013:03:04 11:08:02,Canon,Canon EOS 5D Mark II
11c_IMG_0856Web.jpg,2012:09:20 13:31:48,Canon,Canon EOS 5D Mark II
11c_IMG_2896WEB.jpg,2012:10:30 16:36:08,Canon,Canon EOS 5D Mark II
11c_IMG_4066WEB.jpg,2012:11:09 15:52:32,Canon,Canon EOS 5D Mark II
11c_IMG_7378.jpg,2013:02:13 13:56:37,Canon,Canon EOS 5D Mark II
11d_IMG_4070WEB.jpg,2012:11:09 15:53:07,Canon,Canon EOS 5D Mark II
11d_IMG_7377.jpg,2013:02:13 13:55:50,Canon,Canon EOS 5D Mark II
11_IMG_2401WEB.jpg,2012:10:24 15:34:04,Canon,Canon EOS 5D Mark II
12a_IMG_0864Web.jpg,2012:09:20 13:48:48,Canon,Canon EOS 5D Mark II
12a_IMG_2228WEB.jpg,2012:10:24 11:42:08,Canon,Canon EOS 5D Mark II
12a_IMG_2995WEB.jpg,2012:11:01 14:19:42,Canon,Canon EOS 5D Mark II
12a_IMG_5512WEB.jpg,2013:01:09 13:24:49,Canon,Canon EOS 5D Mark II
12a_IMG_7374.jpg,2013:02:13 13:52:03,Canon,Canon EOS 5D Mark II
12a_IMG_7674WEB.jpg,2013:02:21 13:39:10,Canon,Canon EOS 5D Mark II
12a_MG_8322WEB.jpg,2013:03:04 11:09:46,Canon,Canon EOS 5D Mark II
12b_IMG_0862Web.jpg,2012:09:20 13:47:45,Canon,Canon EOS 5D Mark II
12b_IMG_5524WEB.jpg,2013:01:09 13:28:30,Canon,Canon EOS 5D Mark II
12b_IMG_7373.jpg,2013:02:13 13:50:38,Canon,Canon EOS 5D Mark II
12b_MG_8321WEB.jpg,2013:03:04 11:09:32,Canon,Canon EOS 5D Mark II
12c_IMG_0872Web.jpg,2012:09:20 13:55:42,Canon,Canon EOS 5D Mark II
12c_IMG_5525WEB.jpg,2013:01:09 13:28:55,Canon,Canon EOS 5D Mark II
12d_IMG_5527WEB.jpg,2013:01:09 13:29:14,Canon,Canon EOS 5D Mark II
12e_IMG_5737WEB.jpg,2013:01:10 11:41:53,Canon,Canon EOS 5D Mark II
12f_IMG_5728WEB.jpg,2013:01:10 11:39:32,Canon,Canon EOS 5D Mark II
12g_IMG_5714WEB.jpg,2013:01:10 11:36:00,Canon,Canon EOS 5D Mark II
12_IMG_2406WEB.jpg,2012:10:24 15:35:48,Canon,Canon EOS 5D Mark II
13_1_IMG_6432WEB.jpg,2013:01:22 15:08:47,Canon,Canon EOS 5D Mark II
13_2_IMG_6435WEB.jpg,2013:01:22 15:09:01,Canon,Canon EOS 5D Mark II
13_3_IMG_6436WEB.jpg,2013:01:22 15:09:10,Canon,Canon EOS 5D Mark II
13_4_IMG_6439WEB.jpg,2013:01:22 15:09:48,Canon,Canon EOS 5D Mark II
13a_IMG_0337Web.jpg,2012:09:12 15:27:34,Canon,Canon EOS 5D Mark II
13a_IMG_2208WEB.jpg,2012:10:24 11:33:06,Canon,Canon EOS 5D Mark II
13a_IMG_2918WEB.jpg,2012:11:01 12:12:49,Canon,Canon EOS 5D Mark II
13a_IMG_5538WEB.jpg,2013:01:09 13:31:17,Canon,Canon EOS 5D Mark II
13a_IMG_7693WEB.jpg,2013:02:21 13:44:03,Canon,Canon EOS 5D Mark II
13a_IMG_7810.jpg,2013:02:21 14:58:32,Canon,Canon EOS 5D Mark II
13a_MG_8326WEB.jpg,2013:03:04 11:10:42,Canon,Canon EOS 5D Mark II
13b_IMG_0338Web.jpg,2012:09:12 15:30:48,Canon,Canon EOS 5D Mark II
13b_IMG_2199WEB.jpg,2012:10:24 11:27:10,Canon,Canon EOS 5D Mark II
13b_IMG_5540WEB.jpg,2013:01:09 13:31:36,Canon,Canon EOS 5D Mark II
13b_MG_8330WEB.jpg,2013:03:04 11:11:19,Canon,Canon EOS 5D Mark II
13c_IMG_2222WEB.jpg,2012:10:24 11:38:24,Canon,Canon EOS 5D Mark II
13c_IMG_5546WEB.jpg,2013:01:09 13:32:37,Canon,Canon EOS 5D Mark II
13c_MG_8329WEB.jpg,2013:03:04 11:11:08,Canon,Canon EOS 5D Mark II
13d_IMG_5549WEB.jpg,2013:01:09 13:33:29,Canon,Canon EOS 5D Mark II
13e_IMG_5708WEB.jpg,2013:01:10 11:34:52,Canon,Canon EOS 5D Mark II
13f_IMG_5702WEB.jpg,2013:01:10 11:34:00,Canon,Canon EOS 5D Mark II
13g_IMG_5696WEB.jpg,2013:01:10 11:32:36,Canon,Canon EOS 5D Mark II
13h_IMG_5693WEB.jpg,2013:01:10 11:31:58,Canon,Canon EOS 5D Mark II
13_IMG_2410WEB.jpg,2012:10:24 15:37:57,Canon,Canon EOS 5D Mark II
14_1_IMG_6445WEB.jpg,2013:01:22 15:20:10,Canon,Canon EOS 5D Mark II
14_1_IMG_7343WEB.jpg,2013:02:13 12:44:56,Canon,Canon EOS 5D Mark II
14_2_IMG_6447WEB.jpg,2013:01:22 15:22:53,Canon,Canon EOS 5D Mark II
14_2_IMG_7344WEB.jpg,2013:02:13 12:45:12,Canon,Canon EOS 5D Mark II
14_3_IMG_6448WEB.jpg,2013:01:22 15:23:07,Canon,Canon EOS 5D Mark II
14_4_IMG_6449WEB.jpg,2013:01:22 15:23:23,Canon,Canon EOS 5D Mark II
14_5_IMG_6451WEB.jpg,2013:01:22 15:24:38,Canon,Canon EOS 5D Mark II
14a_IMG_0340Web.jpg,2012:09:12 15:40:59,Canon,Canon EOS 5D Mark II
14a_IMG_3007WEB.jpg,2012:11:01 14:26:59,Canon,Canon EOS 5D Mark II
14a_IMG_7705WEB.jpg,2013:02:21 13:54:55,Canon,Canon EOS 5D Mark II
14a_IMG_7808.jpg,2013:02:21 14:57:12,Canon,Canon EOS 5D Mark II
14a_MG_8337WEB.jpg,2013:03:04 11:13:13,Canon,Canon EOS 5D Mark II
14b_IMG_0342Web.jpg,2012:09:12 15:45:30,Canon,Canon EOS 5D Mark II
14b_MG_8334WEB.jpg,2013:03:04 11:12:49,Canon,Canon EOS 5D Mark II
14c_MG_8333WEB.jpg,2013:03:04 11:12:36,Canon,Canon EOS 5D Mark II
14_IMG_2414WEB.jpg,2012:10:24 15:40:08,Canon,Canon EOS 5D Mark II
15_1_IMG_7352WEB.jpg,2013:02:13 12:50:03,Canon,Canon EOS 5D Mark II
15_2_IMG_7347WEB.jpg,2013:02:13 12:46:42,Canon,Canon EOS 5D Mark II
15_3_IMG_7346WEB.jpg,2013:02:13 12:46:03,Canon,Canon EOS 5D Mark II
15a_IMG_0877Web.jpg,2012:09:20 14:07:49,Canon,Canon EOS 5D Mark II
15a_IMG_1632WEB.jpg,2012:10:15 14:14:53,Canon,Canon EOS 5D Mark II
15a_IMG_5154WEB.jpg,2012:11:21 11:28:19,Canon,Canon EOS 5D Mark II
15a_IMG_7715WEB.jpg,2013:02:21 14:04:22,Canon,Canon EOS 5D Mark II
15a_IMG_7804.jpg,2013:02:21 14:52:51,Canon,Canon EOS 5D Mark II
15a_MG_8345WEB.jpg,2013:03:04 11:15:57,Canon,Canon EOS 5D Mark II
15b_IMG_0876Web.jpg,2012:09:20 14:06:55,Canon,Canon EOS 5D Mark II
15b_IMG_5157WEB.jpg,2012:11:21 11:28:38,Canon,Canon EOS 5D Mark II
15b_MG_8342WEB.jpg,2013:03:04 11:15:23,Canon,Canon EOS 5D Mark II
15c_IMG_5160WEB.jpg,2012:11:21 11:28:58,Canon,Canon EOS 5D Mark II
15c_MG_8338WEB.jpg,2013:03:04 11:14:49,Canon,Canon EOS 5D Mark II
15d_IMG_5164WEB.jpg,2012:11:21 11:31:16,Canon,Canon EOS 5D Mark II
15e_IMG_5167WEB.jpg,2012:11:21 11:32:56,Canon,Canon EOS 5D Mark II
15_IMG_2418WEB.jpg,2012:10:24 15:41:51,Canon,Canon EOS 5D Mark II
16_1_IMG_7357WEB.jpg,2013:02:13 12:54:40,Canon,Canon EOS 5D Mark II
16a_IMG_0880Web.jpg,2012:09:20 14:20:43,Canon,Canon EOS 5D Mark II
16a_IMG_2905WEB.jpg,2012:11:01 11:59:07,Canon,Canon EOS 5D Mark II
16a_IMG_4557WEB.jpg,2012:11:14 14:44:09,Canon,Canon EOS 5D Mark II
16a_IMG_5170WEB.jpg,2012:11:21 11:36:41,Canon,Canon EOS 5D Mark II
16a_IMG_7721WEB.jpg,2013:02:21 14:08:49,Canon,Canon EOS 5D Mark II
16a_MG_8350WEB.jpg,2013:03:04 11:18:26,Canon,Canon EOS 5D Mark II
16b_IMG_0879Web.jpg,2012:09:20 14:20:16,Canon,Canon EOS 5D Mark II
16b_IMG_4563WEB.jpg,2012:11:14 14:44:41,Canon,Canon EOS 5D Mark II
16b_IMG_5173WEB.jpg,2012:11:21 11:37:58,Canon,Canon EOS 5D Mark II
16b_IMG_7722WEB.jpg,2013:02:21 14:09:29,Canon,Canon EOS 5D Mark II
16b_MG_8346WEB.jpg,2013:03:04 11:17:23,Canon,Canon EOS 5D Mark II
16c_IMG_0389Web.jpg,2012:09:12 16:22:01,Canon,Canon EOS 5D Mark II
16c_IMG_4569WEB.jpg,2012:11:14 14:45:45,Canon,Canon EOS 5D Mark II
16c_IMG_5179WEB.jpg,2012:11:21 11:38:56,Canon,Canon EOS 5D Mark II
16c_IMG_7723WEB.jpg,2013:02:21 14:09:53,Canon,Canon EOS 5D Mark II
16d_IMG_5185WEB.jpg,2012:11:21 11:39:44,Canon,Canon EOS 5D Mark II
16d_IMG_7724WEB.jpg,2013:02:21 14:10:27,Canon,Canon EOS 5D Mark II
16_IMG_2422WEB.jpg,2012:10:24 15:43:06,Canon,Canon EOS 5D Mark II
17_1_IMG_7366WEB.jpg,2013:02:13 13:00:16,Canon,Canon EOS 5D Mark II
17_2_IMG_7365WEB.jpg,2013:02:13 12:59:50,Canon,Canon EOS 5D Mark II
17a_IMG_0391Web.jpg,2012:09:13 09:59:04,Canon,Canon EOS 5D Mark II
17a_IMG_1289WEB.jpg,2012:10:15 10:38:49,Canon,Canon EOS 5D Mark II
17a_IMG_2909WEB.jpg,2012:11:01 12:04:58,Canon,Canon EOS 5D Mark II
17a_IMG_4572WEB.jpg,2012:11:14 14:47:05,Canon,Canon EOS 5D Mark II
17a_IMG_5197WEB.jpg,2012:11:21 11:44:00,Canon,Canon EOS 5D Mark II
17a_IMG_7725WEB.jpg,2013:02:21 14:12:04,Canon,Canon EOS 5D Mark II
17a_MG_8361WEB.jpg,2013:03:04 11:22:01,Canon,Canon EOS 5D Mark II
17b_IMG_0401Web.jpg,2012:09:13 10:06:02,Canon,Canon EOS 5D Mark II
17b_IMG_1291WEB.jpg,2012:10:15 10:39:15,Canon,Canon EOS 5D Mark II
17b_IMG_4578WEB.jpg,2012:11:14 14:47:35,Canon,Canon EOS 5D Mark II
17b_IMG_5203WEB.jpg,2012:11:21 11:54:44,Canon,Canon EOS 5D Mark II
17b_IMG_7726WEB.jpg,2013:02:21 14:12:40,Canon,Canon EOS 5D Mark II
17b_MG_8358WEB.jpg,2013:03:04 11:21:10,Canon,Canon EOS 5D Mark II
17cd_IMG_5213WEB.jpg,2012:11:21 11:56:44,Canon,Canon EOS 5D Mark II
17c_IMG_1296WEB.jpg,2012:10:15 10:40:33,Canon,Canon EOS 5D Mark II
17c_IMG_5210WEB.jpg,2012:11:21 11:55:52,Canon,Canon EOS 5D Mark II
17c_IMG_7727WEB.jpg,2013:02:21 14:13:23,Canon,Canon EOS 5D Mark II
17c_MG_8353WEB.jpg,2013:03:04 11:20:07,Canon,Canon EOS 5D Mark II
17d_IMG_7728WEB.jpg,2013:02:21 14:13:48,Canon,Canon EOS 5D Mark II
17e_IMG_5219WEB.jpg,2012:11:21 11:57:28,Canon,Canon EOS 5D Mark II
17e_IMG_7730WEB.jpg,2013:02:21 14:14:34,Canon,Canon EOS 5D Mark II
17_IMG_2426WEB.jpg,2012:10:24 15:48:48,Canon,Canon EOS 5D Mark II
18_1_IMG_7368WEB.jpg,2013:02:13 13:01:17,Canon,Canon EOS 5D Mark II
18_2_IMG_7367WEB.jpg,2013:02:13 13:00:49,Canon,Canon EOS 5D Mark II
187_032171.jpg,,,
188_032171.jpg,,,
189_032171.jpg,,,
18a_IMG_0405Web.jpg,2012:09:13 10:13:02,Canon,Canon EOS 5D Mark II
18a_IMG_2927WEB.jpg,2012:11:01 12:17:03,Canon,Canon EOS 5D Mark II
18a_IMG_5225WEB.jpg,2012:11:21 11:59:20,Canon,Canon EOS 5D Mark II
18a_IMG_7731WEB.jpg,2013:02:21 14:15:18,Canon,Canon EOS 5D Mark II
18a_MG_8366WEB.jpg,2013:03:04 11:26:27,Canon,Canon EOS 5D Mark II
18b_IMG_0407Web.jpg,2012:09:13 10:18:01,Canon,Canon EOS 5D Mark II
18b_IMG_5231WEB.jpg,2012:11:21 12:00:14,Canon,Canon EOS 5D Mark II
18b_IMG_7732WEB.jpg,2013:02:21 14:15:47,Canon,Canon EOS 5D Mark II
18b_MG_8365WEB.jpg,2013:03:04 11:25:59,Canon,Canon EOS 5D Mark II
18c_IMG_0416Web.jpg,2012:09:13 10:29:04,Canon,Canon EOS 5D Mark II
18c_IMG_5237WEB.jpg,2012:11:21 12:01:46,Canon,Canon EOS 5D Mark II
18c_IMG_7733WEB.jpg,2013:02:21 14:18:01,Canon,Canon EOS 5D Mark II
18c_MG_8362WEB.jpg,2013:03:04 11:25:23,Canon,Canon EOS 5D Mark II
18d_IMG_5243WEB.jpg,2012:11:21 12:03:53,Canon,Canon EOS 5D Mark II
18d_IMG_7734WEB.jpg,2013:02:21 14:18:21,Canon,Canon EOS 5D Mark II
18e_IMG_7735WEB.jpg,2013:02:21 14:18:42,Canon,Canon EOS 5D Mark II
18_IMG_2430WEB.jpg,2012:10:24 15:52:18,Canon,Canon EOS 5D Mark II
190_032171.jpg,,,
191_032171.jpg,,,
19_1_IMG_7374WEB.jpg,2013:02:13 13:52:03,Canon,Canon EOS 5D Mark II
19_2__IMG_7373WEB.jpg,2013:02:13 13:50:38,Canon,Canon EOS 5D Mark II
19a_IMG_0424Web.jpg,2012:09:13 10:37:27,Canon,Canon EOS 5D Mark II
19a_IMG_2937WEB.jpg,2012:11:01 12:23:34,Canon,Canon EOS 5D Mark II
19a_IMG_5249WEB.jpg,2012:11:21 12:06:41,Canon,Canon EOS 5D Mark II
19a_IMG_7736WEB.jpg,2013:02:21 14:19:19,Canon,Canon EOS 5D Mark II
19a_MG_8369WEB.jpg,2013:03:04 11:26:51,Canon,Canon EOS 5D Mark II
19b_IMG_0429Web.jpg,2012:09:13 10:42:59,Canon,Canon EOS 5D Mark II
19b_IMG_5252WEB.jpg,2012:11:21 12:07:45,Canon,Canon EOS 5D Mark II
19b_IMG_7738WEB.jpg,2013:02:21 14:20:38,Canon,Canon EOS 5D Mark II
19b_MG_8373WEB.jpg,2013:03:04 11:27:20,Canon,Canon EOS 5D Mark II
19c_IMG_0434Web.jpg,2012:09:13 10:48:14,Canon,Canon EOS 5D Mark II
19c_IMG_5258WEB.jpg,2012:11:21 12:08:56,Canon,Canon EOS 5D Mark II
19c_IMG_7739WEB.jpg,2013:02:21 14:21:46,Canon,Canon EOS 5D Mark II
19c_MG_8374WEB.jpg,2013:03:04 11:27:58,Canon,Canon EOS 5D Mark II
19d_IMG_5264WEB.jpg,2012:11:21 12:09:53,Canon,Canon EOS 5D Mark II
19d_IMG_7740WEB.jpg,2013:02:21 14:22:25,Canon,Canon EOS 5D Mark II
19d_MG_8370WEB.jpg,2013:03:04 11:27:02,Canon,Canon EOS 5D Mark II
19_IMG_2434WEB.jpg,2012:10:24 15:53:49,Canon,Canon EOS 5D Mark II
1a_IMG_0147WEB.jpg,2012:10:09 14:35:21,Canon,Canon EOS 5D Mark II
1a_IMG_0793Web.jpg,2012:09:19 13:41:42,Canon,Canon EOS 5D Mark II
1a_IMG_1556WEB.jpg,2012:10:15 13:46:40,Canon,Canon EOS 5D Mark II
1a_IMG_1642WEB.jpg,2012:10:15 15:06:24,Canon,Canon EOS 5D Mark II
1a_IMG_2830WEB.jpg,2012:10:30 12:06:17,Canon,Canon EOS 5D Mark II
1a_IMG_2864WEB.jpg,2012:10:30 15:31:20,Canon,Canon EOS 5D Mark II
1a_IMG_4020WEB.jpg,2012:11:09 13:33:16,Canon,Canon EOS 5D Mark II
1a_IMG_4357WEB.jpg,2012:11:13 13:25:38,Canon,Canon EOS 5D Mark II
1a_IMG_7594WEB.jpg,2013:02:21 11:39:25,Canon,Canon EOS 5D Mark II
1a__MG_8230WEB.jpg,2013:02:28 15:00:06,Canon,Canon EOS 5D Mark II
1b_IMG_0151WEB.jpg,2012:10:09 14:38:02,Canon,Canon EOS 5D Mark II
1b_IMG_0242WEB.jpg,2012:10:10 13:48:49,Canon,Canon EOS 5D Mark II
1b_IMG_0274WEB.jpg,2012:10:10 14:04:05,Canon,Canon EOS 5D Mark II
1b_IMG_1514WEB.jpg,2012:10:15 13:33:19,Canon,Canon EOS 5D Mark II
1b_IMG_4011WEB.jpg,2012:11:09 13:31:38,Canon,Canon EOS 5D Mark II
1b_IMG_4362WEB.jpg,2012:11:13 13:26:03,Canon,Canon EOS 5D Mark II
1b__MG_8231WEB.jpg,2013:02:28 15:00:23,Canon,Canon EOS 5D Mark II
1c_IMG_1526WEB.jpg,2012:10:15 13:40:35,Canon,Canon EOS 5D Mark II
1c_IMG_4014WEB.jpg,2012:11:09 13:32:37,Canon,Canon EOS 5D Mark II
1c_IMG_4363WEB.jpg,2012:11:13 13:26:28,Canon,Canon EOS 5D Mark II
1c__MG_8236WEB.jpg,2013:02:28 15:00:57,Canon,Canon EOS 5D Mark II
1d_IMG_1547WEB.jpg,2012:10:15 13:45:23,Canon,Canon EOS 5D Mark II
1e_IMG_1533WEB.jpg,2012:10:15 13:42:13,Canon,Canon EOS 5D Mark II
1_IMG_2341WEB.jpg,2012:10:24 15:08:38,Canon,Canon EOS 5D Mark II
20a_IMG_0435Web.jpg,2012:09:13 10:54:01,Canon,Canon EOS 5D Mark II
20a_IMG_3014WEB.jpg,2012:11:01 14:31:55,Canon,Canon EOS 5D Mark II
20a_IMG_5270WEB.jpg,2012:11:21 12:11:29,Canon,Canon EOS 5D Mark II
20a_IMG_7741WEB.jpg,2013:02:21 14:22:55,Canon,Canon EOS 5D Mark II
20a__MG_8377WEB.jpg,2013:03:04 11:28:24,Canon,Canon EOS 5D Mark II
20b_IMG_0438Web.jpg,2012:09:13 10:58:12,Canon,Canon EOS 5D Mark II
20b_IMG_5273WEB.jpg,2012:11:21 12:11:49,Canon,Canon EOS 5D Mark II
20b_IMG_7743-2WEB.jpg,2013:02:21 14:23:29,Canon,Canon EOS 5D Mark II
20b_MG_8378WEB.jpg,2013:03:04 11:28:38,Canon,Canon EOS 5D Mark II
20c_IMG_5279WEB.jpg,2012:11:21 12:13:05,Canon,Canon EOS 5D Mark II
20c_IMG_7744WEB.jpg,2013:02:21 14:23:45,Canon,Canon EOS 5D Mark II
20c_MG_8381WEB.jpg,2013:03:04 11:29:11,Canon,Canon EOS 5D Mark II
20d_IMG_5285WEB.jpg,2012:11:21 12:14:33,Canon,Canon EOS 5D Mark II
20d_IMG_7745WEB.jpg,2013:02:21 14:24:12,Canon,Canon EOS 5D Mark II
20_IMG_2437WEB.jpg,2012:10:24 15:55:46,Canon,Canon EOS 5D Mark II
21a_IMG_0442Web.jpg,2012:09:13 11:07:53,Canon,Canon EOS 5D Mark II
21a_IMG_3024WEB.jpg,2012:11:01 14:34:05,Canon,Canon EOS 5D Mark II
21a_IMG_5291WEB.jpg,2012:11:21 12:16:17,Canon,Canon EOS 5D Mark II
21a_IMG_7746WEB.jpg,2013:02:21 14:24:32,Canon,Canon EOS 5D Mark II
21a__MG_8652WEB.jpg,2013:03:13 14:54:45,Canon,Canon EOS 5D Mark II
21b_IMG_0444Web.jpg,2012:09:13 11:10:59,Canon,Canon EOS 5D Mark II
21b_IMG_5294WEB.jpg,2012:11:21 12:16:57,Canon,Canon EOS 5D Mark II
21b_IMG_7747WEB.jpg,2013:02:21 14:25:09,Canon,Canon EOS 5D Mark II
21b__MG_8654WEB.jpg,2013:03:13 14:55:22,Canon,Canon EOS 5D Mark II
21c_IMG_5300WEB.jpg,2012:11:21 12:17:47,Canon,Canon EOS 5D Mark II
21c_IMG_7748WEB.jpg,2013:02:21 14:26:03,Canon,Canon EOS 5D Mark II
21c_MG_8659WEB.jpg,2013:03:13 14:56:36,Canon,Canon EOS 5D Mark II
21d_IMG_5306WEB.jpg,2012:11:21 12:18:33,Canon,Canon EOS 5D Mark II
21_IMG_2786WEB.jpg,2012:10:30 11:52:00,Canon,Canon EOS 5D Mark II
22a_IMG_0447Web.jpg,2012:09:13 11:17:07,Canon,Canon EOS 5D Mark II
22a_IMG_1448WEB.jpg,2012:10:15 13:13:51,Canon,Canon EOS 5D Mark II
22a_IMG_3033WEB.jpg,2012:11:01 14:36:53,Canon,Canon EOS 5D Mark II
22a_IMG_5312WEB.jpg,2012:11:21 12:19:29,Canon,Canon EOS 5D Mark II
22a_IMG_7749WEB.jpg,2013:02:21 14:26:30,Canon,Canon EOS 5D Mark II
22a_MG_8664WEB.jpg,2013:03:13 14:58:11,Canon,Canon EOS 5D Mark II
22b_IMG_0450Web.jpg,2012:09:13 11:21:46,Canon,Canon EOS 5D Mark II
22b_IMG_1454WEB.jpg,2012:10:15 13:15:12,Canon,Canon EOS 5D Mark II
22b_IMG_5315WEB.jpg,2012:11:21 12:20:06,Canon,Canon EOS 5D Mark II
22b_IMG_5333WEB.jpg,2012:11:21 12:25:40,Canon,Canon EOS 5D Mark II
22b_IMG_7751WEB.jpg,2013:02:21 14:27:14,Canon,Canon EOS 5D Mark II
22b_MG_8667WEB.jpg,2013:03:13 14:58:40,Canon,Canon EOS 5D Mark II
22c_IMG_0451Web.jpg,2012:09:13 11:27:56,Canon,Canon EOS 5D Mark II
22c_IMG_5318WEB.jpg,2012:11:21 12:21:17,Canon,Canon EOS 5D Mark II
22c_IMG_7752WEB.jpg,2013:02:21 14:27:23,Canon,Canon EOS 5D Mark II
22c_MG_8670WEB.jpg,2013:03:13 14:59:27,Canon,Canon EOS 5D Mark II
22d_IMG_5324WEB.jpg,2012:11:21 12:22:33,Canon,Canon EOS 5D Mark II
22d_IMG_7753WEB.jpg,2013:02:21 14:27:34,Canon,Canon EOS 5D Mark II
22e_IMG_7754WEB.jpg,2013:02:21 14:27:47,Canon,Canon EOS 5D Mark II
22f_IMG_7755WEB.jpg,2013:02:21 14:28:29,Canon,Canon EOS 5D Mark II
22g_IMG_7756WEB.jpg,2013:02:21 14:28:37,Canon,Canon EOS 5D Mark II
22h_IMG_7757WEB.jpg,2013:02:21 14:28:58,Canon,Canon EOS 5D Mark II
22i_IMG_7758WEB.jpg,2013:02:21 14:29:08,Canon,Canon EOS 5D Mark II
22_IMG_2791WEB.jpg,2012:10:30 11:54:36,Canon,Canon EOS 5D Mark II
22j_IMG_7759WEB.jpg,2013:02:21 14:29:34,Canon,Canon EOS 5D Mark II
22k_IMG_7761WEB.jpg,2013:02:21 14:31:02,Canon,Canon EOS 5D Mark II
23a_IMG_0452Web.jpg,2012:09:13 11:32:21,Canon,Canon EOS 5D Mark II
23a_IMG_1460WEB.jpg,2012:10:15 13:17:20,Canon,Canon EOS 5D Mark II
23a_IMG_3038WEB.jpg,2012:11:01 14:41:16,Canon,Canon EOS 5D Mark II
23a_IMG_5330WEB.jpg,2012:11:21 12:25:09,Canon,Canon EOS 5D Mark II
23a_IMG_7762WEB.jpg,2013:02:21 14:31:35,Canon,Canon EOS 5D Mark II
23a_MG_8679WEB.jpg,2013:03:13 15:04:43,Canon,Canon EOS 5D Mark II
23b_IMG_0461Web.jpg,2012:09:13 11:42:21,Canon,Canon EOS 5D Mark II
23b_IMG_1466WEB.jpg,2012:10:15 13:18:42,Canon,Canon EOS 5D Mark II
23b_IMG_5339WEB.jpg,2012:11:21 12:26:43,Canon,Canon EOS 5D Mark II
23b_IMG_7764WEB.jpg,2013:02:21 14:32:09,Canon,Canon EOS 5D Mark II
23b_MG_8682WEB.jpg,2013:03:13 15:05:32,Canon,Canon EOS 5D Mark II
23c_IMG_0463Web.jpg,2012:09:13 11:48:44,Canon,Canon EOS 5D Mark II
23c_IMG_1463WEB.jpg,2012:10:15 13:17:58,Canon,Canon EOS 5D Mark II
23c_IMG_5345WEB.jpg,2012:11:21 12:27:39,Canon,Canon EOS 5D Mark II
23c_IMG_7765WEB.jpg,2013:02:21 14:33:19,Canon,Canon EOS 5D Mark II
23c_MG_8686WEB.jpg,2013:03:13 15:06:32,Canon,Canon EOS 5D Mark II
23d_IMG_0466Web.jpg,2012:09:13 11:55:00,Canon,Canon EOS 5D Mark II
23d_IMG_5354WEB.jpg,2012:11:21 12:30:09,Canon,Canon EOS 5D Mark II
23d_IMG_7766WEB.jpg,2013:02:21 14:33:43,Canon,Canon EOS 5D Mark II
23_IMG_2794WEB.jpg,2012:10:30 11:56:10,Canon,Canon EOS 5D Mark II
24a_IMG_0881Web.jpg,2012:09:20 14:41:33,Canon,Canon EOS 5D Mark II
24a_IMG_1479WEB.jpg,2012:10:15 13:22:28,Canon,Canon EOS 5D Mark II
24a_IMG_3041WEB.jpg,2012:11:01 14:42:52,Canon,Canon EOS 5D Mark II
24a_IMG_5357WEB.jpg,2012:11:21 14:06:35,Canon,Canon EOS 5D Mark II
24a_IMG_7767WEB.jpg,2013:02:21 14:34:37,Canon,Canon EOS 5D Mark II
24a_MG_8687WEB.jpg,2013:03:13 15:58:56,Canon,Canon EOS 5D Mark II
24b_IMG_0885Web.jpg,2012:09:20 14:46:53,Canon,Canon EOS 5D Mark II
24b_IMG_1482WEB.jpg,2012:10:15 13:22:53,Canon,Canon EOS 5D Mark II
24b_IMG_5360WEB.jpg,2012:11:21 14:07:06,Canon,Canon EOS 5D Mark II
24b_IMG_7769WEB.jpg,2013:02:21 14:35:14,Canon,Canon EOS 5D Mark II
24b_MG_8690WEB.jpg,2013:03:13 15:59:27,Canon,Canon EOS 5D Mark II
24c_IMG_0474Web.jpg,2012:09:13 12:09:30,Canon,Canon EOS 5D Mark II
24c_IMG_5367WEB.jpg,2012:11:21 14:07:48,Canon,Canon EOS 5D Mark II
24c_IMG_7771WEB.jpg,2013:02:21 14:35:35,Canon,Canon EOS 5D Mark II
24c_MG_8694WEB.jpg,2013:03:13 16:00:10,Canon,Canon EOS 5D Mark II
24d_IMG_5374WEB.jpg,2012:11:21 14:08:55,Canon,Canon EOS 5D Mark II
24d_IMG_7772WEB.jpg,2013:02:21 14:35:43,Canon,Canon EOS 5D Mark II
24e_IMG_7773WEB.jpg,2013:02:21 14:35:59,Canon,Canon EOS 5D Mark II
24f_WEB.jpg,2013:02:21 14:36:17,Canon,Canon EOS 5D Mark II
24g_IMG_7775WEB.jpg,2013:02:21 14:36:56,Canon,Canon EOS 5D Mark II
24h_IMG_7776WEB.jpg,2013:02:21 14:37:12,Canon,Canon EOS 5D Mark II
24i_IMG_7777WEB.jpg,2013:02:21 14:37:34,Canon,Canon EOS 5D Mark II
24_IMG_2797WEB.jpg,2012:10:30 11:57:22,Canon,Canon EOS 5D Mark II
24j_IMG_7778WEB.jpg,2013:02:21 14:37:59,Canon,Canon EOS 5D Mark II
24k_IMG_7779WEB.jpg,2013:02:21 14:39:14,Canon,Canon EOS 5D Mark II
24l_IMG_7780WEB.jpg,2013:02:21 14:39:34,Canon,Canon EOS 5D Mark II
24m_IMG_7781WEB.jpg,2013:02:21 14:40:00,Canon,Canon EOS 5D Mark II
25a_IMG_0476Web.jpg,2012:09:13 12:14:13,Canon,Canon EOS 5D Mark II
25a_IMG_1486WEB.jpg,2012:10:15 13:26:12,Canon,Canon EOS 5D Mark II
25a_IMG_3063WEB.jpg,2012:11:01 14:53:32,Canon,Canon EOS 5D Mark II
25a_IMG_5483WEB.jpg,2012:12:04 11:03:14,Canon,Canon EOS 5D Mark II
25a_IMG_7783WEB.jpg,2013:02:21 14:41:05,Canon,Canon EOS 5D Mark II
25a_MG_8698WEB.jpg,2013:03:13 16:01:12,Canon,Canon EOS 5D Mark II
25b_IMG_0479Web.jpg,2012:09:13 12:58:00,Canon,Canon EOS 5D Mark II
25b_IMG_1498WEB.jpg,2012:10:15 13:27:49,Canon,Canon EOS 5D Mark II
25b_IMG_7784WEB.jpg,2013:02:21 14:41:16,Canon,Canon EOS 5D Mark II
25b_MG_8699WEB.jpg,2013:03:13 16:01:40,Canon,Canon EOS 5D Mark II
25c_IMG_7785WEB.jpg,2013:02:21 14:41:38,Canon,Canon EOS 5D Mark II
25c_MG_8700WEB.jpg,2013:03:13 16:03:46,Canon,Canon EOS 5D Mark II
25_IMG_2801WEB.jpg,2012:10:30 11:58:54,Canon,Canon EOS 5D Mark II
26a_IMG_0482Web.jpg,2012:09:13 13:02:14,Canon,Canon EOS 5D Mark II
26a_IMG_2094WEB.jpg,2012:10:24 10:27:59,Canon,Canon EOS 5D Mark II
26a_IMG_3051WEB.jpg,2012:11:01 14:46:38,Canon,Canon EOS 5D Mark II
26a_IMG_7787WEB.jpg,2013:02:21 14:44:16,Canon,Canon EOS 5D Mark II
26a_MG_8706WEB.jpg,2013:03:13 16:05:09,Canon,Canon EOS 5D Mark II
26b_IMG_0484Web.jpg,2012:09:13 13:06:27,Canon,Canon EOS 5D Mark II
26b_IMG_2098WEB.jpg,2012:10:24 10:28:56,Canon,Canon EOS 5D Mark II
26b_IMG_7788WEB.jpg,2013:02:21 14:44:41,Canon,Canon EOS 5D Mark II
26b__MG_8708WEB.jpg,2013:03:13 16:05:32,Canon,Canon EOS 5D Mark II
26c_IMG_0488Web.jpg,2012:09:13 13:10:17,Canon,Canon EOS 5D Mark II
26c_IMG_7789WEB.jpg,2013:02:21 14:44:50,Canon,Canon EOS 5D Mark II
26c_MG_8709WEB.jpg,2013:03:13 16:05:50,Canon,Canon EOS 5D Mark II
26d_IMG_7790WEB.jpg,2013:02:21 14:45:00,Canon,Canon EOS 5D Mark II
26d_MG_8712WEB.jpg,2013:03:13 16:06:12,Canon,Canon EOS 5D Mark II
26e_IMG_7791WEB.jpg,2013:02:21 14:45:23,Canon,Canon EOS 5D Mark II
26f_IMG_7792WEB.jpg,2013:02:21 14:46:07,Canon,Canon EOS 5D Mark II
26g_IMG_7793WEB.jpg,2013:02:21 14:47:51,Canon,Canon EOS 5D Mark II
26h_IMG_7795WEB.jpg,2013:02:21 14:48:19,Canon,Canon EOS 5D Mark II
26_IMG_2805WEB.jpg,2012:10:30 12:00:15,Canon,Canon EOS 5D Mark II
27a_IMG_0492Web.jpg,2012:09:13 13:14:32,Canon,Canon EOS 5D Mark II
27a_IMG_2102WEB.jpg,2012:10:24 10:30:20,Canon,Canon EOS 5D Mark II
27a_IMG_3060WEB.jpg,2012:11:01 14:51:16,Canon,Canon EOS 5D Mark II
27a_IMG_7801WEB.jpg,2013:02:21 14:49:54,Canon,Canon EOS 5D Mark II
27a_MG_8715WEB.jpg,2013:03:13 16:20:22,Canon,Canon EOS 5D Mark II
27b_IMG_0888Web.jpg,2012:09:20 15:31:25,Canon,Canon EOS 5D Mark II
27b_IMG_2106WEB.jpg,2012:10:24 10:31:38,Canon,Canon EOS 5D Mark II
27b_MG_8718WEB.jpg,2013:03:13 16:20:45,Canon,Canon EOS 5D Mark II
27c_MG_8719WEB.jpg,2013:03:13 16:21:24,Canon,Canon EOS 5D Mark II
27d_MG_8723WEB.jpg,2013:03:13 16:21:51,Canon,Canon EOS 5D Mark II
27_IMG_2820WEB.jpg,2012:10:30 12:03:25,Canon,Canon EOS 5D Mark II
28a_IMG_0891Web.jpg,2012:09:20 15:34:31,Canon,Canon EOS 5D Mark II
28a_IMG_2112WEB.jpg,2012:10:24 11:00:45,Canon,Canon EOS 5D Mark II
28a_IMG_2970WEB.jpg,2012:11:01 13:48:44,Canon,Canon EOS 5D Mark II
28a__IMG_7573WEB.jpg,2013:02:19 14:09:01,Canon,Canon EOS 5D Mark II
28a_MG_8724WEB.jpg,2013:03:13 16:22:21,Canon,Canon EOS 5D Mark II
28b_IMG_0893Web.jpg,2012:09:20 15:35:02,Canon,Canon EOS 5D Mark II
28b_IMG_2116WEB.jpg,2012:10:24 11:01:14,Canon,Canon EOS 5D Mark II
28b_MG_8727WEB.jpg,2013:03:13 16:22:44,Canon,Canon EOS 5D Mark II
28c_MG_8732WEB.jpg,2013:03:13 16:23:44,Canon,Canon EOS 5D Mark II
28_IMG_7527WEB.jpg,2013:02:19 11:30:26,Canon,Canon EOS 5D Mark II
29a_IMG_0498Web.jpg,2012:09:13 13:37:49,Canon,Canon EOS 5D Mark II
29a_IMG_2123WEB.jpg,2012:10:24 11:03:48,Canon,Canon EOS 5D Mark II
29a_IMG_2976WEB.jpg,2012:11:01 13:52:23,Canon,Canon EOS 5D Mark II
29a_MG_8736WEB.jpg,2013:03:13 16:24:38,Canon,Canon EOS 5D Mark II
29a_MG_9317WEB.jpg,2013:04:09 13:57:14,Canon,Canon EOS 5D Mark II
29b_IMG_0499Web.jpg,2012:09:13 13:40:49,Canon,Canon EOS 5D Mark II
29b_IMG_2129WEB.jpg,2012:10:24 11:05:27,Canon,Canon EOS 5D Mark II
29b_MG_8737WEB.jpg,2013:03:13 16:24:52,Canon,Canon EOS 5D Mark II
29c_IMG_0500Web.jpg,2012:09:13 13:48:17,Canon,Canon EOS 5D Mark II
29c_MG_8740WEB.jpg,2013:03:13 16:25:05,Canon,Canon EOS 5D Mark II
29d_IMG_0512Web.jpg,2012:09:13 14:06:07,Canon,Canon EOS 5D Mark II
29_IMG_7534WEB.jpg,2013:02:19 11:33:20,Canon,Canon EOS 5D Mark II
2a_IMG_0155WEB.jpg,2012:10:09 14:40:51,Canon,Canon EOS 5D Mark II
2a_IMG_0284WEB.jpg,2012:10:10 14:15:08,Canon,Canon EOS 5D Mark II
2a_IMG_0797Web.jpg,2012:09:19 13:47:26,Canon,Canon EOS 5D Mark II
2a_IMG_1316WEB.jpg,2012:10:15 10:52:38,Canon,Canon EOS 5D Mark II
2a_IMG_1422WEB.jpg,2012:10:15 13:07:00,Canon,Canon EOS 5D Mark II
2a_IMG_1561WEB.jpg,2012:10:15 13:49:36,Canon,Canon EOS 5D Mark II
2a_IMG_1643WEB.jpg,2012:10:15 15:07:40,Canon,Canon EOS 5D Mark II
2a_IMG_3909WEB.jpg,2012:11:09 12:31:25,Canon,Canon EOS 5D Mark II
2a_IMG_4452WEB.jpg,2012:11:14 11:49:15,Canon,Canon EOS 5D Mark II
2a_IMG_7603WEB.jpg,2013:02:21 11:49:59,Canon,Canon EOS 5D Mark II
2a__MG_8248WEB.jpg,2013:02:28 15:04:22,Canon,Canon EOS 5D Mark II
2b_IMG_0164WEB.jpg,2012:10:09 14:46:31,Canon,Canon EOS 5D Mark II
2b_IMG_0289WEB.jpg,2012:10:10 14:16:24,Canon,Canon EOS 5D Mark II
2b_IMG_0799Web.jpg,2012:09:19 13:56:19,Canon,Canon EOS 5D Mark II
2b_IMG_1324WEB.jpg,2012:10:15 10:53:45,Canon,Canon EOS 5D Mark II
2b_IMG_1427WEB.jpg,2012:10:15 13:07:32,Canon,Canon EOS 5D Mark II
2b_IMG_1573WEB.jpg,2012:10:15 13:51:41,Canon,Canon EOS 5D Mark II
2b_IMG_3922WEB.jpg,2012:11:09 12:33:25,Canon,Canon EOS 5D Mark II
2b_IMG_4455WEB.jpg,2012:11:14 11:49:36,Canon,Canon EOS 5D Mark II
2b_MG_8247WEB.jpg,2013:02:28 15:04:05,Canon,Canon EOS 5D Mark II
2c_IMG_0801Web.jpg,2012:09:19 14:03:31,Canon,Canon EOS 5D Mark II
2c_IMG_1327WEB.jpg,2012:10:15 10:54:14,Canon,Canon EOS 5D Mark II
2c_IMG_1435WEB.jpg,2012:10:15 13:09:15,Canon,Canon EOS 5D Mark II
2c_IMG_3916WEB.jpg,2012:11:09 12:32:27,Canon,Canon EOS 5D Mark II
2c_MG_8244WEB.jpg,2013:02:28 15:03:44,Canon,Canon EOS 5D Mark II
2d_IMG_0806Web.jpg,2012:09:19 14:15:05,Canon,Canon EOS 5D Mark II
2d_MG_8242WEB.jpg,2013:02:28 15:03:12,Canon,Canon EOS 5D Mark II
2_IMG_2345WEB.jpg,2012:10:24 15:10:36,Canon,Canon EOS 5D Mark II
30a_IMG_0505Web.jpg,2012:09:13 13:52:24,Canon,Canon EOS 5D Mark II
30a_IMG_2134WEB.jpg,2012:10:24 11:07:15,Canon,Canon EOS 5D Mark II
30a_IMG_2990WEB.jpg,2012:11:01 13:58:44,Canon,Canon EOS 5D Mark II
30a_MG_9318WEB.jpg,2013:04:09 13:58:31,Canon,Canon EOS 5D Mark II
30b_IMG_0897Web.jpg,2012:09:20 15:42:34,Canon,Canon EOS 5D Mark II
30b_IMG_2138WEB.jpg,2012:10:24 11:08:06,Canon,Canon EOS 5D Mark II
30b_MG_8744WEB.jpg,2013:03:13 16:42:36,Canon,Canon EOS 5D Mark II
30c_IMG_0511Web.jpg,2012:09:13 14:01:12,Canon,Canon EOS 5D Mark II
30c_IMG_2143WEB.jpg,2012:10:24 11:09:42,Canon,Canon EOS 5D Mark II
30c_MG_8745WEB.jpg,2013:03:13 16:42:54,Canon,Canon EOS 5D Mark II
30_IMG_7535WEB.jpg,2013:02:19 11:34:44,Canon,Canon EOS 5D Mark II
30_MG_8741WEB.jpg,2013:03:13 16:42:13,Canon,Canon EOS 5D Mark II
31a_IMG_0898Web.jpg,2012:09:20 15:52:27,Canon,Canon EOS 5D Mark II
31a_IMG_2147WEB.jpg,2012:10:24 11:13:32,Canon,Canon EOS 5D Mark II
31a_MG_8746WEB.jpg,2013:03:13 16:43:24,Canon,Canon EOS 5D Mark II
31a_MG_9322WEB.jpg,2013:04:09 13:59:13,Canon,Canon EOS 5D Mark II
31b_IMG_0899Web.jpg,2012:09:20 15:55:35,Canon,Canon EOS 5D Mark II
31b_IMG_2152WEB.jpg,2012:10:24 11:14:37,Canon,Canon EOS 5D Mark II
31b_MG_8882WEB.jpg,2013:03:19 11:40:31,Canon,Canon EOS 5D Mark II
31c_IMG_2156WEB.jpg,2012:10:24 11:15:04,Canon,Canon EOS 5D Mark II
31c_MG_8886WEB.jpg,2013:03:19 11:41:30,Canon,Canon EOS 5D Mark II
32a_IMG_0902Web.jpg,2012:09:21 10:53:28,Canon,Canon EOS 5D Mark II
32a_IMG_2160WEB.jpg,2012:10:24 11:16:00,Canon,Canon EOS 5D Mark II
32a_MG_8889WEB.jpg,2013:03:19 11:43:02,Canon,Canon EOS 5D Mark II
32b_IMG_0903Web.jpg,2012:09:21 10:54:31,Canon,Canon EOS 5D Mark II
32b_IMG_2164WEB.jpg,2012:10:24 11:16:25,Canon,Canon EOS 5D Mark II
32b_MG_8890WEB.jpg,2013:03:19 11:43:26,Canon,Canon EOS 5D Mark II
32c_MG_8893WEB.jpg,2013:03:19 11:43:40,Canon,Canon EOS 5D Mark II
33a_IMG_0905Web.jpg,2012:09:21 11:09:07,Canon,Canon EOS 5D Mark II
33a_IMG_2168WEB.jpg,2012:10:24 11:17:20,Canon,Canon EOS 5D Mark II
33a_MG_8897WEB.jpg,2013:03:19 11:45:10,Canon,Canon EOS 5D Mark II
33b_IMG_0906Web.jpg,2012:09:21 11:09:41,Canon,Canon EOS 5D Mark II
33b_IMG_2172WEB.jpg,2012:10:24 11:17:57,Canon,Canon EOS 5D Mark II
33b__MG_8898WEB.jpg,2013:03:19 11:45:27,Canon,Canon EOS 5D Mark II
33c_IMG_2176WEB.jpg,2012:10:24 11:18:19,Canon,Canon EOS 5D Mark II
33c_MG_8904WEB.jpg,2013:03:19 11:46:33,Canon,Canon EOS 5D Mark II
34a_IMG_0544Web.jpg,2012:09:14 10:14:53,Canon,Canon EOS 5D Mark II
34a_IMG_2180WEB.jpg,2012:10:24 11:18:58,Canon,Canon EOS 5D Mark II
34a_MG_8910WEB.jpg,2013:03:19 11:49:16,Canon,Canon EOS 5D Mark II
34b_IMG_0546Web.jpg,2012:09:14 10:19:31,Canon,Canon EOS 5D Mark II
34b_IMG_2184WEB.jpg,2012:10:24 11:19:23,Canon,Canon EOS 5D Mark II
34b_MG_8913WEB.jpg,2013:03:19 11:49:39,Canon,Canon EOS 5D Mark II
34c_IMG_0551Web.jpg,2012:09:14 10:32:53,Canon,Canon EOS 5D Mark II
34c_MG_8917WEB.jpg,2013:03:19 11:50:07,Canon,Canon EOS 5D Mark II
35a_IMG_0559Web.jpg,2012:09:14 10:37:25,Canon,Canon EOS 5D Mark II
35a_IMG_2188WEB.jpg,2012:10:24 11:20:31,Canon,Canon EOS 5D Mark II
35a_MG_8922WEB.jpg,2013:03:19 11:51:45,Canon,Canon EOS 5D Mark II
35b_IMG_0561Web.jpg,2012:09:14 10:41:29,Canon,Canon EOS 5D Mark II
35b_IMG_2192WEB.jpg,2012:10:24 11:20:54,Canon,Canon EOS 5D Mark II
35b_MG_8925WEB.jpg,2013:03:19 11:52:06,Canon,Canon EOS 5D Mark II
35c_MG_8926WEB.jpg,2013:03:19 11:52:29,Canon,Canon EOS 5D Mark II
36a_IMG_0308WEB.jpg,2012:10:10 14:37:10,Canon,Canon EOS 5D Mark II
36a_IMG_0565Web.jpg,2012:09:14 10:46:50,Canon,Canon EOS 5D Mark II
36a_MG_8931WEB.jpg,2013:03:19 11:54:16,Canon,Canon EOS 5D Mark II
36b_IMG_0312WEB.jpg,2012:10:10 14:39:41,Canon,Canon EOS 5D Mark II
36b_IMG_0567Web.jpg,2012:09:14 10:52:13,Canon,Canon EOS 5D Mark II
36b_MG_8934WEB.jpg,2013:03:19 11:54:52,Canon,Canon EOS 5D Mark II
36c_IMG_0569Web.jpg,2012:09:14 11:00:07,Canon,Canon EOS 5D Mark II
36c_MG_8939WEB.jpg,2013:03:19 11:55:51,Canon,Canon EOS 5D Mark II
37a_IMG_0322WEB.jpg,2012:10:10 14:42:55,Canon,Canon EOS 5D Mark II
37a_IMG_0907Web.jpg,2012:09:21 11:22:34,Canon,Canon EOS 5D Mark II
37a_MG_8942WEB.jpg,2013:03:19 11:56:17,Canon,Canon EOS 5D Mark II
37b_IMG_0324WEB.jpg,2012:10:10 14:43:26,Canon,Canon EOS 5D Mark II
37b_IMG_0909Web.jpg,2012:09:21 11:23:41,Canon,Canon EOS 5D Mark II
37b_MG_8943WEB.jpg,2013:03:19 11:56:31,Canon,Canon EOS 5D Mark II
37c_MG_8947WEB.jpg,2013:03:19 11:56:54,Canon,Canon EOS 5D Mark II
38a_IMG_0326WEB.jpg,2012:10:10 14:44:39,Canon,Canon EOS 5D Mark II
38a_IMG_0916Web.jpg,2012:09:21 11:35:12,Canon,Canon EOS 5D Mark II
38a_MG_8953WEB.jpg,2013:03:19 11:57:55,Canon,Canon EOS 5D Mark II
38b_IMG_0332WEB.jpg,2012:10:10 14:45:35,Canon,Canon EOS 5D Mark II
38b_IMG_0918Web.jpg,2012:09:21 11:36:37,Canon,Canon EOS 5D Mark II
38b_MG_8954WEB.jpg,2013:03:19 11:58:07,Canon,Canon EOS 5D Mark II
38c_MG_8960WEB.jpg,2013:03:19 11:58:45,Canon,Canon EOS 5D Mark II
39a_IMG_0334WEB.jpg,2012:10:10 15:01:05,Canon,Canon EOS 5D Mark II
39a_IMG_0609Web.jpg,2012:09:18 10:46:25,Canon,Canon EOS 5D Mark II
39a_MG_8963WEB.jpg,2013:03:19 11:59:13,Canon,Canon EOS 5D Mark II
39b_IMG_0339WEB.jpg,2012:10:10 15:01:53,Canon,Canon EOS 5D Mark II
39b_IMG_0920Web.jpg,2012:09:21 11:50:01,Canon,Canon EOS 5D Mark II
39b_MG_8964WEB.jpg,2013:03:19 11:59:28,Canon,Canon EOS 5D Mark II
39c_MG_8967WEB.jpg,2013:03:19 11:59:41,Canon,Canon EOS 5D Mark II
3a_IMG_0166WEB.jpg,2012:10:09 14:48:54,Canon,Canon EOS 5D Mark II
3a_IMG_0298WEB.jpg,2012:10:10 14:29:31,Canon,Canon EOS 5D Mark II
3a_IMG_0808Web.jpg,2012:09:19 14:25:01,Canon,Canon EOS 5D Mark II
3a_IMG_1176WEB.jpg,2012:10:15 09:53:57,Canon,Canon EOS 5D Mark II
3a_IMG_1577WEB.jpg,2012:10:15 13:52:37,Canon,Canon EOS 5D Mark II
3a_IMG_1650WEB.jpg,2012:10:15 15:10:04,Canon,Canon EOS 5D Mark II
3a_IMG_3991WEB.jpg,2012:11:09 13:29:16,Canon,Canon EOS 5D Mark II
3a_IMG_4460WEB.jpg,2012:11:14 11:50:58,Canon,Canon EOS 5D Mark II
3a_IMG_7631WEB.jpg,2013:02:21 12:13:51,Canon,Canon EOS 5D Mark II
3a_MG_8255WEB.jpg,2013:02:28 15:06:30,Canon,Canon EOS 5D Mark II
3b_IMG_0171WEB.jpg,2012:10:09 14:50:51,Canon,Canon EOS 5D Mark II
3b_IMG_0810Web.jpg,2012:09:19 14:34:50,Canon,Canon EOS 5D Mark II
3b_IMG_1187WEB.jpg,2012:10:15 09:59:14,Canon,Canon EOS 5D Mark II
3b_IMG_1581WEB.jpg,2012:10:15 13:53:26,Canon,Canon EOS 5D Mark II
3b_IMG_3998WEB.jpg,2012:11:09 13:30:19,Canon,Canon EOS 5D Mark II
3b_MG_8252WEB.jpg,2013:02:28 15:06:09,Canon,Canon EOS 5D Mark II
3c_MG_8251WEB.jpg,2013:02:28 15:05:51,Canon,Canon EOS 5D Mark II
3_IMG_2348WEB.jpg,2012:10:24 15:13:39,Canon,Canon EOS 5D Mark II
40a_IMG_0342WEB.jpg,2012:10:10 15:03:16,Canon,Canon EOS 5D Mark II
40a_IMG_0612Web.jpg,2012:09:18 10:55:14,Canon,Canon EOS 5D Mark II
40a_MG_8971WEB.jpg,2013:03:19 12:06:02,Canon,Canon EOS 5D Mark II
40b_IMG_0347WEB.jpg,2012:10:10 15:03:54,Canon,Canon EOS 5D Mark II
40b_IMG_0613Web.jpg,2012:09:18 10:59:25,Canon,Canon EOS 5D Mark II
40b_MG_8972WEB.jpg,2013:03:19 12:06:25,Canon,Canon EOS 5D Mark II
40c_MG_8976WEB.jpg,2013:03:19 12:07:09,Canon,Canon EOS 5D Mark II
40d_MG_8979WEB.jpg,2013:03:19 12:07:28,Canon,Canon EOS 5D Mark II
41a_IMG_0350WEB.jpg,2012:10:10 15:07:45,Canon,Canon EOS 5D Mark II
41a_IMG_0923Web.jpg,2012:09:21 11:58:05,Canon,Canon EOS 5D Mark II
41a_MG_8983WEB.jpg,2013:03:19 12:09:06,Canon,Canon EOS 5D Mark II
41b_IMG_0358WEB.jpg,2012:10:10 15:10:10,Canon,Canon EOS 5D Mark II
41b_IMG_0925Web.jpg,2012:09:21 11:58:58,Canon,Canon EOS 5D Mark II
41b_MG_8984WEB.jpg,2013:03:19 12:09:25,Canon,Canon EOS 5D Mark II
41c_MG_8987WEB.jpg,2013:03:19 12:09:41,Canon,Canon EOS 5D Mark II
42a_IMG_0363WEB.jpg,2012:10:10 15:18:02,Canon,Canon EOS 5D Mark II
42a_IMG_0642Web.jpg,2012:09:18 11:15:47,Canon,Canon EOS 5D Mark II
42a_MG_8991WEB.jpg,2013:03:19 12:11:38,Canon,Canon EOS 5D Mark II
42b_IMG_0643Web.jpg,2012:09:18 11:17:29,Canon,Canon EOS 5D Mark II
42b__MG_8992WEB.jpg,2013:03:19 12:11:48,Canon,Canon EOS 5D Mark II
42c_IMG_0646Web.jpg,2012:09:18 11:20:45,Canon,Canon EOS 5D Mark II
42c_MG_8995WEB.jpg,2013:03:19 12:12:05,Canon,Canon EOS 5D Mark II
42d_MG_8996WEB.jpg,2013:03:19 12:12:15,Canon,Canon EOS 5D Mark II
43a_IMG_0367WEB.jpg,2012:10:10 15:20:22,Canon,Canon EOS 5D Mark II
43a_IMG_0649Web.jpg,2012:09:18 11:24:17,Canon,Canon EOS 5D Mark II
43a_MG_8999WEB.jpg,2013:03:19 12:13:11,Canon,Canon EOS 5D Mark II
43b_IMG_0368WEB.jpg,2012:10:10 15:20:40,Canon,Canon EOS 5D Mark II
43b_IMG_0655Web.jpg,2012:09:18 11:30:09,Canon,Canon EOS 5D Mark II
43b_MG_9000WEB.jpg,2013:03:19 12:13:27,Canon,Canon EOS 5D Mark II
43c_IMG_0370WEB.jpg,2012:10:10 15:21:36,Canon,Canon EOS 5D Mark II
43c_MG_9008WEB.jpg,2013:03:19 12:14:26,Canon,Canon EOS 5D Mark II
43d_IMG_0371WEB.jpg,2012:10:10 15:21:50,Canon,Canon EOS 5D Mark II
44a_IMG_0383WEB.jpg,2012:10:10 15:26:31,Canon,Canon EOS 5D Mark II
44a_IMG_0659Web.jpg,2012:09:18 11:34:21,Canon,Canon EOS 5D Mark II
44a_MG_9011WEB.jpg,2013:03:19 12:15:21,Canon,Canon EOS 5D Mark II
44b_IMG_0388WEB.jpg,2012:10:10 15:27:06,Canon,Canon EOS 5D Mark II
44b_MG_9012WEB.jpg,2013:03:19 12:15:36,Canon,Canon EOS 5D Mark II
44c_MG_9016WEB.jpg,2013:03:19 12:16:18,Canon,Canon EOS 5D Mark II
45a_IMG_0389WEB.jpg,2012:10:10 15:28:15,Canon,Canon EOS 5D Mark II
45a_IMG_0663Web.jpg,2012:09:18 11:38:56,Canon,Canon EOS 5D Mark II
45a_MG_9019WEB.jpg,2013:03:19 12:18:59,Canon,Canon EOS 5D Mark II
45b_IMG_0394WEB.jpg,2012:10:10 15:29:06,Canon,Canon EOS 5D Mark II
45b_IMG_0665Web.jpg,2012:09:18 11:41:17,Canon,Canon EOS 5D Mark II
45b_MG_9020WEB.jpg,2013:03:19 12:19:13,Canon,Canon EOS 5D Mark II
45c_MG_9024WEB.jpg,2013:03:19 12:19:43,Canon,Canon EOS 5D Mark II
45d_MG_9031WEB.jpg,2013:03:19 12:20:51,Canon,Canon EOS 5D Mark II
46a_IMG_0396WEB.jpg,2012:10:10 15:31:36,Canon,Canon EOS 5D Mark II
46a_IMG_0670Web.jpg,2012:09:18 11:44:02,Canon,Canon EOS 5D Mark II
46a_MG_9032WEB.jpg,2013:03:19 12:22:01,Canon,Canon EOS 5D Mark II
46b_IMG_0401WEB.jpg,2012:10:10 15:32:18,Canon,Canon EOS 5D Mark II
46b_MG_9035WEB.jpg,2013:03:19 12:22:31,Canon,Canon EOS 5D Mark II
46c_IMG_0406WEB.jpg,2012:10:10 15:33:15,Canon,Canon EOS 5D Mark II
46c_MG_9039WEB.jpg,2013:03:19 12:23:04,Canon,Canon EOS 5D Mark II
47a_IMG_0407WEB.jpg,2012:10:10 15:36:13,Canon,Canon EOS 5D Mark II
47a_IMG_0927Web.jpg,2012:09:21 13:09:15,Canon,Canon EOS 5D Mark II
47a_MG_9040WEB.jpg,2013:03:19 12:52:33,Canon,Canon EOS 5D Mark II
47b_IMG_0411WEB.jpg,2012:10:10 15:36:39,Canon,Canon EOS 5D Mark II
47b_IMG_0928Web.jpg,2012:09:21 13:09:48,Canon,Canon EOS 5D Mark II
47b_MG_9043WEB.jpg,2013:03:19 12:53:02,Canon,Canon EOS 5D Mark II
47c_IMG_0680Web.jpg,2012:09:18 11:53:08,Canon,Canon EOS 5D Mark II
47c_MG_9052WEB.jpg,2013:03:19 12:58:59,Canon,Canon EOS 5D Mark II
48a_IMG_0416WEB.jpg,2012:10:10 15:41:05,Canon,Canon EOS 5D Mark II
48a_IMG_0933Web.jpg,2012:09:21 13:36:17,Canon,Canon EOS 5D Mark II
48a_MG_9057WEB.jpg,2013:03:19 13:00:01,Canon,Canon EOS 5D Mark II
48b_IMG_0934Web.jpg,2012:09:21 13:36:49,Canon,Canon EOS 5D Mark II
48b_MG_9060WEB.jpg,2013:03:19 13:00:18,Canon,Canon EOS 5D Mark II
48c_MG_9061WEB.jpg,2013:03:19 13:00:29,Canon,Canon EOS 5D Mark II
49a_IMG_0688Web.jpg,2012:09:18 12:43:09,Canon,Canon EOS 5D Mark II
49a_IMG_5488WEB.jpg,2012:12:04 13:50:52,Canon,Canon EOS 5D Mark II
49a_MG_9064WEB.jpg,2013:03:19 13:00:56,Canon,Canon EOS 5D Mark II
49b_IMG_5490WEB.jpg,2012:12:04 13:51:21,Canon,Canon EOS 5D Mark II
49b_MG_9065WEB.jpg,2013:03:19 13:01:09,Canon,Canon EOS 5D Mark II
49c_IMG_5493WEB.jpg,2012:12:04 13:52:21,Canon,Canon EOS 5D Mark II
49c_MG_9068WEB.jpg,2013:03:19 13:01:30,Canon,Canon EOS 5D Mark II
49d_IMG_5497WEB.jpg,2012:12:04 13:52:45,Canon,Canon EOS 5D Mark II
4a_IMG_0176WEB.jpg,2012:10:09 14:53:51,Canon,Canon EOS 5D Mark II
4a_IMG_0822Web.jpg,2012:09:20 11:26:06,Canon,Canon EOS 5D Mark II
4a_IMG_1198WEB.jpg,2012:10:15 10:06:44,Canon,Canon EOS 5D Mark II
4a_IMG_1591WEB.jpg,2012:10:15 13:55:03,Canon,Canon EOS 5D Mark II
4a_IMG_2837WEB.jpg,2012:10:30 12:26:24,Canon,Canon EOS 5D Mark II
4aIMG_3955WEB.jpg,2012:11:09 12:44:52,Canon,Canon EOS 5D Mark II
4a_IMG_4347WEB.jpg,2012:11:13 13:22:50,Canon,Canon EOS 5D Mark II
4a_IMG_4468WEB.jpg,2012:11:14 11:53:29,Canon,Canon EOS 5D Mark II
4a_IMG_7633WEB.jpg,2013:02:21 12:16:27,Canon,Canon EOS 5D Mark II
4a_MG_8263WEB.jpg,2013:02:28 15:09:45,Canon,Canon EOS 5D Mark II
4b_IMG_0181WEB.jpg,2012:10:09 14:55:18,Canon,Canon EOS 5D Mark II
4b_IMG_0825Web.jpg,2012:09:20 11:38:58,Canon,Canon EOS 5D Mark II
4b_IMG_1200WEB.jpg,2012:10:15 10:07:44,Canon,Canon EOS 5D Mark II
4b_IMG_3948WEB.jpg,2012:11:09 12:43:57,Canon,Canon EOS 5D Mark II
4b_IMG_4351WEB.jpg,2012:11:13 13:24:07,Canon,Canon EOS 5D Mark II
4b_MG_8260WEB.jpg,2013:02:28 15:09:27,Canon,Canon EOS 5D Mark II
4c_IMG_0828Web.jpg,2012:09:20 11:46:42,Canon,Canon EOS 5D Mark II
4c_IMG_1205WEB.jpg,2012:10:15 10:08:45,Canon,Canon EOS 5D Mark II
4c_IMG_3962WEB.jpg,2012:11:09 12:45:36,Canon,Canon EOS 5D Mark II
4c_IMG_4356WEB.jpg,2012:11:13 13:24:49,Canon,Canon EOS 5D Mark II
4c_MG_8259WEB.jpg,2013:02:28 15:09:16,Canon,Canon EOS 5D Mark II
4d_IMG_0832Web.jpg,2012:09:20 11:52:51,Canon,Canon EOS 5D Mark II
4d_MG_8256WEB.jpg,2013:02:28 15:09:03,Canon,Canon EOS 5D Mark II
4_IMG_2351WEB.jpg,2012:10:24 15:14:57,Canon,Canon EOS 5D Mark II
50a_IMG_0698Web.jpg,2012:09:18 12:51:12,Canon,Canon EOS 5D Mark II
50a_IMG_5757WEB.jpg,2013:01:10 11:57:01,Canon,Canon EOS 5D Mark II
50a_MG_9072WEB.jpg,2013:03:19 13:05:53,Canon,Canon EOS 5D Mark II
50b_IMG_0699Web.jpg,2012:09:18 12:57:45,Canon,Canon EOS 5D Mark II
50b_IMG_5756WEB.jpg,2013:01:10 11:56:14,Canon,Canon EOS 5D Mark II
50c_MG_9073WEB.jpg,2013:03:19 13:06:13,Canon,Canon EOS 5D Mark II
50c_MG_9080WEB.jpg,2013:03:19 13:07:09,Canon,Canon EOS 5D Mark II
51a_IMG_0701Web.jpg,2012:09:18 13:03:56,Canon,Canon EOS 5D Mark II
51a_IMG_5652WEB.jpg,2013:01:10 11:09:39,Canon,Canon EOS 5D Mark II
51a_MG_9327WEB.jpg,2013:04:10 10:19:01,Canon,Canon EOS 5D Mark II
51b_IMG_0702Web.jpg,2012:09:18 13:05:32,Canon,Canon EOS 5D Mark II
51b_MG_9331WEB.jpg,2013:04:10 10:19:56,Canon,Canon EOS 5D Mark II
51c_MG_9335WEB.jpg,2013:04:10 10:20:40,Canon,Canon EOS 5D Mark II
52a_IMG_0703Web.jpg,2012:09:18 13:08:16,Canon,Canon EOS 5D Mark II
52a_IMG_5626WEB.jpg,2013:01:10 11:04:47,Canon,Canon EOS 5D Mark II
52a_MG_9344WEB.jpg,2013:04:10 10:23:52,Canon,Canon EOS 5D Mark II
52b_IMG_0704Web.jpg,2012:09:18 13:10:27,Canon,Canon EOS 5D Mark II
52b_IMG_5631WEB.jpg,2013:01:10 11:05:34,Canon,Canon EOS 5D Mark II
52b_MG_9348WEB.jpg,2013:04:10 10:25:48,Canon,Canon EOS 5D Mark II
52c_IMG_5632WEB.jpg,2013:01:10 11:06:00,Canon,Canon EOS 5D Mark II
52c_MG_9357WEB.jpg,2013:04:10 10:27:59,Canon,Canon EOS 5D Mark II
52d_MG_9362WEB.jpg,2013:04:10 10:28:54,Canon,Canon EOS 5D Mark II
52e_MG_9365WEB.jpg,2013:04:10 10:29:17,Canon,Canon EOS 5D Mark II
53a_IMG_0705Web.jpg,2012:09:18 13:16:58,Canon,Canon EOS 5D Mark II
53a_IMG_5573WEB.jpg,2013:01:10 10:51:01,Canon,Canon EOS 5D Mark II
53a_MG_9369WEB.jpg,2013:04:10 10:32:43,Canon,Canon EOS 5D Mark II
53b_IMG_0706Web.jpg,2012:09:18 13:20:06,Canon,Canon EOS 5D Mark II
53b_IMG_5608WEB.jpg,2013:01:10 10:58:59,Canon,Canon EOS 5D Mark II
53b_MG_9374WEB.jpg,2013:04:10 10:33:40,Canon,Canon EOS 5D Mark II
53c_IMG_5609WEB.jpg,2013:01:10 10:59:15,Canon,Canon EOS 5D Mark II
53c_MG_9390WEB.jpg,2013:04:10 10:37:16,Canon,Canon EOS 5D Mark II
53d_IMG_5615WEB.jpg,2013:01:10 10:59:37,Canon,Canon EOS 5D Mark II
54a_IMG_0930Web.jpg,2012:09:21 13:27:44,Canon,Canon EOS 5D Mark II
54a_IMG_5582WEB.jpg,2013:01:10 10:52:55,Canon,Canon EOS 5D Mark II
54a_MG_9395WEB.jpg,2013:04:10 10:39:13,Canon,Canon EOS 5D Mark II
54b_IMG_0931Web.jpg,2012:09:21 13:28:12,Canon,Canon EOS 5D Mark II
54b_IMG_5596WEB.jpg,2013:01:10 10:57:11,Canon,Canon EOS 5D Mark II
54b_MG_9399WEB.jpg,2013:04:10 10:39:42,Canon,Canon EOS 5D Mark II
54c_IMG_5601WEB.jpg,2013:01:10 10:57:46,Canon,Canon EOS 5D Mark II
54c_MG_9402WEB.jpg,2013:04:10 10:40:11,Canon,Canon EOS 5D Mark II
54d_MG_9406WEB.jpg,2013:04:10 10:40:50,Canon,Canon EOS 5D Mark II
55a_IMG_0935Web.jpg,2012:09:21 13:48:05,Canon,Canon EOS 5D Mark II
55a_IMG_1600WEB.jpg,2012:10:15 14:00:15,Canon,Canon EOS 5D Mark II
55a_MG_9414WEB.jpg,2013:04:10 10:43:41,Canon,Canon EOS 5D Mark II
55b_IMG_0940Web.jpg,2012:09:21 13:49:24,Canon,Canon EOS 5D Mark II
55b_IMG_1603WEB.jpg,2012:10:15 14:00:54,Canon,Canon EOS 5D Mark II
55b_MG_9418WEB.jpg,2013:04:10 10:44:42,Canon,Canon EOS 5D Mark II
55c_IMG_1607WEB.jpg,2012:10:15 14:01:38,Canon,Canon EOS 5D Mark II
56a_IMG_0714Web.jpg,2012:09:18 13:32:05,Canon,Canon EOS 5D Mark II
56a_IMG_5776WEB.jpg,2013:01:10 16:36:35,Canon,Canon EOS 5D Mark II
56a_MG_9422WEB.jpg,2013:04:10 10:46:37,Canon,Canon EOS 5D Mark II
56b_IMG_0715Web.jpg,2012:09:18 13:33:34,Canon,Canon EOS 5D Mark II
56b_MG_9425WEB.jpg,2013:04:10 10:46:58,Canon,Canon EOS 5D Mark II
56c_IMG_0719Web.jpg,2012:09:18 13:41:41,Canon,Canon EOS 5D Mark II
57a_IMG_0727Web.jpg,2012:09:18 14:01:13,Canon,Canon EOS 5D Mark II
57a_IMG_5826WEB.jpg,2013:01:15 10:49:06,Canon,Canon EOS 5D Mark II
57a_MG_9429WEB.jpg,2013:04:10 10:50:02,Canon,Canon EOS 5D Mark II
57b_IMG_0725Web.jpg,2012:09:18 13:55:19,Canon,Canon EOS 5D Mark II
57b_IMG_5830WEB.jpg,2013:01:15 10:49:25,Canon,Canon EOS 5D Mark II
57b_MG_9433WEB.jpg,2013:04:10 10:52:51,Canon,Canon EOS 5D Mark II
57c_IMG_5833WEB.jpg,2013:01:15 10:49:47,Canon,Canon EOS 5D Mark II
57d_IMG_5836WEB.jpg,2013:01:15 10:50:07,Canon,Canon EOS 5D Mark II
57e_IMG_5839WEB.jpg,2013:01:15 10:50:19,Canon,Canon EOS 5D Mark II
57f_IMG_5842WEB.jpg,2013:01:15 10:51:03,Canon,Canon EOS 5D Mark II
57g_IMG_5845WEB.jpg,2013:01:15 10:51:56,Canon,Canon EOS 5D Mark II
58a_IMG_0728Web.jpg,2012:09:18 14:03:21,Canon,Canon EOS 5D Mark II
58a_IMG_5851WEB.jpg,2013:01:15 10:53:54,Canon,Canon EOS 5D Mark II
58a_MG_9434WEB.jpg,2013:04:10 11:00:05,Canon,Canon EOS 5D Mark II
58b_IMG_0729Web.jpg,2012:09:18 14:04:41,Canon,Canon EOS 5D Mark II
58b_IMG_5857WEB.jpg,2013:01:15 10:54:56,Canon,Canon EOS 5D Mark II
58b_MG_9438WEB.jpg,2013:04:10 11:01:10,Canon,Canon EOS 5D Mark II
58c_IMG_5862WEB.jpg,2013:01:15 10:55:36,Canon,Canon EOS 5D Mark II
58d_IMG_5865WEB.jpg,2013:01:15 10:55:56,Canon,Canon EOS 5D Mark II
59a_IMG_0732Web.jpg,2012:09:18 14:10:12,Canon,Canon EOS 5D Mark II
59a_IMG_5871WEB.jpg,2013:01:15 10:59:02,Canon,Canon EOS 5D Mark II
59a_MG_9442WEB.jpg,2013:04:10 11:05:07,Canon,Canon EOS 5D Mark II
59b_IMG_0733Web.jpg,2012:09:18 14:12:15,Canon,Canon EOS 5D Mark II
59b_IMG_5871WEB.jpg,2013:01:15 10:59:02,Canon,Canon EOS 5D Mark II
59b_MG_9445WEB.jpg,2013:04:10 11:05:38,Canon,Canon EOS 5D Mark II
59c_IMG_0734Web.jpg,2012:09:18 14:17:20,Canon,Canon EOS 5D Mark II
5a_IMG_0186WEB.jpg,2012:10:09 14:56:33,Canon,Canon EOS 5D Mark II
5a_IMG_0812Web.jpg,2012:09:19 14:45:20,Canon,Canon EOS 5D Mark II
5a_IMG_2838WEB.jpg,2012:10:30 12:27:13,Canon,Canon EOS 5D Mark II
5a_IMG_3936WEB.jpg,2012:11:09 12:37:10,Canon,Canon EOS 5D Mark II
5a_IMG_4144WEB.jpg,2012:11:09 16:12:46,Canon,Canon EOS 5D Mark II
5a_IMG_4393WEB.jpg,2012:11:13 16:30:24,Canon,Canon EOS 5D Mark II
5a_IMG_4471WEB.jpg,2012:11:14 11:54:29,Canon,Canon EOS 5D Mark II
5a_IMG_7644WEB.jpg,2013:02:21 12:23:06,Canon,Canon EOS 5D Mark II
5a_MG_8267WEB.jpg,2013:02:28 15:14:15,Canon,Canon EOS 5D Mark II
5b_IMG_0191WEB.jpg,2012:10:09 14:57:40,Canon,Canon EOS 5D Mark II
5b_IMG_0816Web.jpg,2012:09:19 14:48:08,Canon,Canon EOS 5D Mark II
5b_IMG_3946WEB.jpg,2012:11:09 12:43:11,Canon,Canon EOS 5D Mark II
5b_IMG_4149WEB.jpg,2012:11:09 16:13:07,Canon,Canon EOS 5D Mark II
5b_IMG_4399WEB.jpg,2012:11:13 16:32:17,Canon,Canon EOS 5D Mark II
5b_MG_8264WEB.jpg,2013:02:28 15:13:53,Canon,Canon EOS 5D Mark II
5c_IMG_4126WEB.jpg,2012:11:09 16:10:18,Canon,Canon EOS 5D Mark II
5_IMG_2357WEB.jpg,2012:10:24 15:16:39,Canon,Canon EOS 5D Mark II
60a_IMG_0739Web.jpg,2012:09:18 14:26:22,Canon,Canon EOS 5D Mark II
60a_IMG_5886WEB.jpg,2013:01:15 11:02:58,Canon,Canon EOS 5D Mark II
60a_MG_9446WEB.jpg,2013:04:10 11:06:47,Canon,Canon EOS 5D Mark II
60b_IMG_0740Web.jpg,2012:09:18 14:27:49,Canon,Canon EOS 5D Mark II
60b_IMG_5916WEB.jpg,2013:01:15 15:21:43,Canon,Canon EOS 5D Mark II
60b_MG_9450WEB.jpg,2013:04:10 11:07:22,Canon,Canon EOS 5D Mark II
60c_IMG_5889WEB.jpg,2013:01:15 11:03:08,Canon,Canon EOS 5D Mark II
60d_IMG_5892WEB.jpg,2013:01:15 11:03:25,Canon,Canon EOS 5D Mark II
61a_IMG_0744Web.jpg,2012:09:18 14:36:34,Canon,Canon EOS 5D Mark II
61a_IMG_5795WEB.jpg,2013:01:10 16:44:11,Canon,Canon EOS 5D Mark II
61a_MG_9453WEB.jpg,2013:04:10 11:08:32,Canon,Canon EOS 5D Mark II
61b_IMG_0746Web.jpg,2012:09:18 14:38:32,Canon,Canon EOS 5D Mark II
61b_IMG_5808WEB.jpg,2013:01:10 16:46:50,Canon,Canon EOS 5D Mark II
61b_MG_9454WEB.jpg,2013:04:10 11:08:47,Canon,Canon EOS 5D Mark II
61c_IMG_5812WEB.jpg,2013:01:10 16:48:25,Canon,Canon EOS 5D Mark II
61c_MG_9457WEB.jpg,2013:04:10 11:09:06,Canon,Canon EOS 5D Mark II
61d_IMG_5910WEB.jpg,2013:01:15 15:20:28,Canon,Canon EOS 5D Mark II
61d_MG_9458WEB.jpg,2013:04:10 11:09:18,Canon,Canon EOS 5D Mark II
62a_IMG_0750Web.jpg,2012:09:19 10:10:45,Canon,Canon EOS 5D Mark II
62a_IMG_1261WEB.jpg,2012:10:15 10:28:30,Canon,Canon EOS 5D Mark II
62a_MG_9464WEB.jpg,2013:04:10 14:17:29,Canon,Canon EOS 5D Mark II
62b_IMG_0751Web.jpg,2012:09:19 10:18:46,Canon,Canon EOS 5D Mark II
62b_MG_9472WEB.jpg,2013:04:10 14:18:13,Canon,Canon EOS 5D Mark II
62c__MG_9480WEB.jpg,2013:04:10 14:19:15,Canon,Canon EOS 5D Mark II
63a_IMG_0753Web.jpg,2012:09:19 11:02:47,Canon,Canon EOS 5D Mark II
63a_IMG_3868WEB.jpg,2012:11:09 12:15:02,Canon,Canon EOS 5D Mark II
63b_IMG_0754Web.jpg,2012:09:19 11:08:03,Canon,Canon EOS 5D Mark II
63b_IMG_3872WEB.jpg,2012:11:09 12:15:30,Canon,Canon EOS 5D Mark II
63c_IMG_3873WEB.jpg,2012:11:09 12:16:06,Canon,Canon EOS 5D Mark II
64a_IMG_0755Web.jpg,2012:09:19 11:19:27,Canon,Canon EOS 5D Mark II
64a_IMG_6210WEB.jpg,2013:01:17 14:35:17,Canon,Canon EOS 5D Mark II
64b_IMG_6200WEB.jpg,2013:01:17 14:31:51,Canon,Canon EOS 5D Mark II
64c_IMG_6201WEB.jpg,2013:01:17 14:32:34,Canon,Canon EOS 5D Mark II
65a_IMG_0760Web.jpg,2012:09:19 11:35:27,Canon,Canon EOS 5D Mark II
65a_IMG_6190WEB.jpg,2013:01:17 14:27:45,Canon,Canon EOS 5D Mark II
65b_IMG_0763Web.jpg,2012:09:19 11:45:14,Canon,Canon EOS 5D Mark II
65c_IMG_0768Web.jpg,2012:09:19 11:51:28,Canon,Canon EOS 5D Mark II
66a_IMG_0770Web.jpg,2012:09:19 12:03:43,Canon,Canon EOS 5D Mark II
66a_IMG_6166WEB.jpg,2013:01:17 14:17:23,Canon,Canon EOS 5D Mark II
66b_IMG_0772Web.jpg,2012:09:19 12:06:55,Canon,Canon EOS 5D Mark II
66b_IMG_6147WEB.jpg,2013:01:17 13:54:05,Canon,Canon EOS 5D Mark II
66c_IMG_0778Web.jpg,2012:09:19 12:11:38,Canon,Canon EOS 5D Mark II
67a_IMG_0781Web.jpg,2012:09:19 12:23:42,Canon,Canon EOS 5D Mark II
67a_IMG_6139WEB.jpg,2013:01:17 13:52:09,Canon,Canon EOS 5D Mark II
67b_IMG_6116WEB.jpg,2013:01:17 13:46:00,Canon,Canon EOS 5D Mark II
68a_IMG_0783Web.jpg,2012:09:19 12:51:34,Canon,Canon EOS 5D Mark II
68a_IMG_6098WEB.jpg,2013:01:17 13:30:25,Canon,Canon EOS 5D Mark II
68b_IMG_0784Web.jpg,2012:09:19 12:55:47,Canon,Canon EOS 5D Mark II
68b_IMG_6092WEB.jpg,2013:01:17 13:27:30,Canon,Canon EOS 5D Mark II
69a_IMG_0788Web.jpg,2012:09:19 13:11:11,Canon,Canon EOS 5D Mark II
69a_IMG_6079WEB.jpg,2013:01:17 12:44:34,Canon,Canon EOS 5D Mark II
69b_IMG_0789Web.jpg,2012:09:19 13:14:28,Canon,Canon EOS 5D Mark II
69b_IMG_6078WEB.jpg,2013:01:17 12:44:07,Canon,Canon EOS 5D Mark II
69c_IMG_6075WEB.jpg,2013:01:17 12:42:37,Canon,Canon EOS 5D Mark II
6a_IMG_0196WEB.jpg,2012:10:09 15:05:43,Canon,Canon EOS 5D Mark II
6a_IMG_0836Web.jpg,2012:09:20 12:04:52,Canon,Canon EOS 5D Mark II
6a_IMG_1613WEB.jpg,2012:10:15 14:07:23,Canon,Canon EOS 5D Mark II
6a_IMG_2840WEB.jpg,2012:10:30 12:28:45,Canon,Canon EOS 5D Mark II
6a_IMG_3975WEB.jpg,2012:11:09 12:48:31,Canon,Canon EOS 5D Mark II
6a_IMG_4403WEB.jpg,2012:11:13 16:45:00,Canon,Canon EOS 5D Mark II
6a_IMG_4476WEB.jpg,2012:11:14 11:57:24,Canon,Canon EOS 5D Mark II
6a_IMG_7651WEB.jpg,2013:02:21 12:26:45,Canon,Canon EOS 5D Mark II
6a_MG_8278WEB.jpg,2013:02:28 15:17:59,Canon,Canon EOS 5D Mark II
6b_IMG_0202WEB.jpg,2012:10:09 15:09:59,Canon,Canon EOS 5D Mark II
6b_IMG_0838Web.jpg,2012:09:20 12:10:42,Canon,Canon EOS 5D Mark II
6b_IMG_1627WEB.jpg,2012:10:15 14:11:55,Canon,Canon EOS 5D Mark II
6b_IMG_4406WEB.jpg,2012:11:13 16:46:09,Canon,Canon EOS 5D Mark II
6b_IMG_7645WEB.jpg,2013:02:21 12:24:16,Canon,Canon EOS 5D Mark II
6b_MG_8277WEB.jpg,2013:02:28 15:17:34,Canon,Canon EOS 5D Mark II
6c_IMG_4409WEB.jpg,2012:11:13 16:46:41,Canon,Canon EOS 5D Mark II
6c_MG_8271WEB.jpg,2013:02:28 15:16:45,Canon,Canon EOS 5D Mark II
6e_IMG_4412WEB.jpg,2012:11:13 16:48:06,Canon,Canon EOS 5D Mark II
6f_IMG_4427WEB.jpg,2012:11:13 16:53:58,Canon,Canon EOS 5D Mark II
6g_IMG_4430WEB.jpg,2012:11:13 16:55:33,Canon,Canon EOS 5D Mark II
6h_IMG_4433WEB.jpg,2012:11:13 16:55:55,Canon,Canon EOS 5D Mark II
6_IMG_2384WEB.jpg,2012:10:24 15:26:13,Canon,Canon EOS 5D Mark II
70a_IMG_6042WEB.jpg,2013:01:17 11:30:07,Canon,Canon EOS 5D Mark II
71a_IMG_6035WEB.jpg,2013:01:17 11:27:21,Canon,Canon EOS 5D Mark II
72a_IMG_5979WEB.jpg,2013:01:17 11:10:59,Canon,Canon EOS 5D Mark II
72b_IMG_5982WEB.jpg,2013:01:17 11:11:31,Canon,Canon EOS 5D Mark II
72c_IMG_5993WEB.jpg,2013:01:17 11:15:14,Canon,Canon EOS 5D Mark II
7a_IMG_0206WEB.jpg,2012:10:09 15:15:19,Canon,Canon EOS 5D Mark II
7a_IMG_0841Web.jpg,2012:09:20 12:36:15,Canon,Canon EOS 5D Mark II
7a_IMG_2273WEB.jpg,2012:10:24 12:12:44,Canon,Canon EOS 5D Mark II
7a_IMG_2843WEB.jpg,2012:10:30 12:31:37,Canon,Canon EOS 5D Mark II
7a_IMG_3887WEB.jpg,2012:11:09 12:23:05,Canon,Canon EOS 5D Mark II
7a_IMG_4090WEB.jpg,2012:11:09 16:02:39,Canon,Canon EOS 5D Mark II
7a_IMG_4479WEB.jpg,2012:11:14 12:00:06,Canon,Canon EOS 5D Mark II
7a_IMG_7652WEB.jpg,2013:02:21 12:28:08,Canon,Canon EOS 5D Mark II
7a_MG_8288WEB.jpg,2013:02:28 15:31:33,Canon,Canon EOS 5D Mark II
7b_IMG_0212WEB.jpg,2012:10:09 15:17:29,Canon,Canon EOS 5D Mark II
7b_IMG_0842Web.jpg,2012:09:20 12:43:26,Canon,Canon EOS 5D Mark II
7b_IMG_2269WEB.jpg,2012:10:24 12:10:31,Canon,Canon EOS 5D Mark II
7b_IMG_3894WEB.jpg,2012:11:09 12:24:02,Canon,Canon EOS 5D Mark II
7b_IMG_4105WEB.jpg,2012:11:09 16:04:47,Canon,Canon EOS 5D Mark II
7b_IMG_4484WEB.jpg,2012:11:14 12:01:06,Canon,Canon EOS 5D Mark II
7b_MG_8284WEB.jpg,2013:02:28 15:30:50,Canon,Canon EOS 5D Mark II
7c_IMG_0845Web.jpg,2012:09:20 12:49:45,Canon,Canon EOS 5D Mark II
7d_IMG_0847Web.jpg,2012:09:20 12:54:17,Canon,Canon EOS 5D Mark II
7_IMG_2388WEB.jpg,2012:10:24 15:27:31,Canon,Canon EOS 5D Mark II
8a_IMG_0226Web.jpg,2012:09:12 11:21:44,Canon,Canon EOS 5D Mark II
8a_IMG_2263WEB.jpg,2012:10:24 12:00:20,Canon,Canon EOS 5D Mark II
8a_IMG_2845WEB.jpg,2012:10:30 14:30:30,Canon,Canon EOS 5D Mark II
8a_IMG_4037WEB.jpg,2012:11:09 13:37:39,Canon,Canon EOS 5D Mark II
8a_IMG_4374WEB.jpg,2012:11:13 13:32:26,Canon,Canon EOS 5D Mark II
8a_IMG_7655WEB.jpg,2013:02:21 12:29:20,Canon,Canon EOS 5D Mark II
8a_MG_8295WEB.jpg,2013:02:28 15:33:48,Canon,Canon EOS 5D Mark II
8b_IMG_0238Web.jpg,2012:09:12 11:28:17,Canon,Canon EOS 5D Mark II
8b_IMG_2258WEB.jpg,2012:10:24 11:58:13,Canon,Canon EOS 5D Mark II
8b_IMG_4028WEB.jpg,2012:11:09 13:36:35,Canon,Canon EOS 5D Mark II
8b_IMG_4381WEB.jpg,2012:11:13 13:33:05,Canon,Canon EOS 5D Mark II
8b_MG_8292WEB.jpg,2013:02:28 15:33:23,Canon,Canon EOS 5D Mark II
8c_MG_8291WEB.jpg,2013:02:28 15:33:04,Canon,Canon EOS 5D Mark II
8_IMG_2391WEB.jpg,2012:10:24 15:29:26,Canon,Canon EOS 5D Mark II
9a_IMG_0230WEB.jpg,2012:10:10 13:40:45,Canon,Canon EOS 5D Mark II
9a_IMG_0849Web.jpg,2012:09:20 13:05:25,Canon,Canon EOS 5D Mark II
9a_IMG_2288WEB.jpg,2012:10:24 12:21:46,Canon,Canon EOS 5D Mark II
9a_IMG_2863WEB.jpg,2012:10:30 15:29:57,Canon,Canon EOS 5D Mark II
9a_IMG_4040WEB.jpg,2012:11:09 15:48:28,Canon,Canon EOS 5D Mark II
9a_IMG_7665WEB.jpg,2013:02:21 12:34:23,Canon,Canon EOS 5D Mark II
9a_MG_8303WEB.jpg,2013:02:28 15:35:56,Canon,Canon EOS 5D Mark II
9b_IMG_0235WEB.jpg,2012:10:10 13:42:01,Canon,Canon EOS 5D Mark II
9b_IMG_0850Web.jpg,2012:09:20 13:10:00,Canon,Canon EOS 5D Mark II
9b_IMG_2297WEB.jpg,2012:10:24 13:10:34,Canon,Canon EOS 5D Mark II
9b_IMG_4049WEB.jpg,2012:11:09 15:49:39,Canon,Canon EOS 5D Mark II
9b_MG_8300WEB.jpg,2013:02:28 15:35:37,Canon,Canon EOS 5D Mark II
9c_IMG_2301WEB.jpg,2012:10:24 13:12:25,Canon,Canon EOS 5D Mark II
9c_IMG_4052WEB.jpg,2012:11:09 15:49:58,Canon,Canon EOS 5D Mark II
9c_MG_8299WEB.jpg,2013:02:28 15:35:11,Canon,Canon EOS 5D Mark II
9d_MG_8296WEB.jpg,2013:02:28 15:34:49,Canon,Canon EOS 5D Mark II
9_IMG_2393WEB.jpg,2012:10:24 15:31:45,Canon,Canon EOS 5D Mark II
alminnelig1.jpg,2006:09:27 16:38:12,NIKON CORPORATION,NIKON D70
arkiv_rygg.jpg,2009:12:18 12:54:32,NIKON CORPORATION,NIKON D80
_D3X5589.jpg,2010:08:13 16:36:20,NIKON CORPORATION,NIKON D3X
dsc_0001.jpg,2008:08:14 09:37:20,NIKON CORPORATION,NIKON D80
dsc_0004.jpg,2008:08:14 09:38:25,NIKON CORPORATION,NIKON D80
dsc_0006.jpg,2008:08:14 09:38:54,NIKON CORPORATION,NIKON D80
dsc_0009.jpg,2008:08:14 09:39:53,NIKON CORPORATION,NIKON D80
DSC_0015b.jpg,2009:08:06 14:55:40,NIKON CORPORATION,NIKON D80
DSC_0016.jpg,2007:02:07 14:36:35,NIKON CORPORATION,NIKON D80
DSC_0021_3.jpg,2007:07:31 10:51:02,NIKON CORPORATION,NIKON D80
DSC_0025.jpg,2007:02:07 14:51:39,NIKON CORPORATION,NIKON D80
dsc_0030.jpg,2008:08:14 10:03:08,NIKON CORPORATION,NIKON D80
dsc_0041.jpg,2008:05:31 12:34:54,NIKON CORPORATION,NIKON D80
dsc_0069b.jpg,2008:05:31 13:24:20,NIKON CORPORATION,NIKON D80
dsc_0087.jpg,2008:05:31 13:45:31,NIKON CORPORATION,NIKON D80
dsc_0091.jpg,2008:09:25 12:24:04,NIKON CORPORATION,NIKON D80
dsc_0101.jpg,2008:09:25 14:34:52,NIKON CORPORATION,NIKON D80
dsc_0139.jpg,2008:10:06 13:26:29,NIKON CORPORATION,NIKON D80
dsc_0142.jpg,2008:10:06 13:28:24,NIKON CORPORATION,NIKON D80
dsc_0301_kopib.jpg,2009:12:18 12:52:11,NIKON CORPORATION,NIKON D80
dsc_0308b.jpg,2009:12:18 12:59:29,NIKON CORPORATION,NIKON D80
dsc_0311b.jpg,2009:12:18 13:03:37,NIKON CORPORATION,NIKON D80
DSC_0352.jpg,2011:03:06 18:12:31,NIKON CORPORATION,NIKON D300S
DSC_0353.jpg,2011:03:06 18:13:14,NIKON CORPORATION,NIKON D300S
DSC_0356.jpg,2011:03:06 20:49:38,NIKON CORPORATION,NIKON D300S
DSC_0357.jpg,2011:03:06 20:50:04,NIKON CORPORATION,NIKON D300S
DSC_0358.jpg,2011:03:06 20:50:14,NIKON CORPORATION,NIKON D300S
DSC_0359.jpg,2011:03:06 20:50:28,NIKON CORPORATION,NIKON D300S
DSC_0360.jpg,2011:03:06 20:50:38,NIKON CORPORATION,NIKON D300S
DSC_0361.jpg,2011:03:06 20:50:49,NIKON CORPORATION,NIKON D300S
DSC_0362.jpg,2011:03:06 20:51:07,NIKON CORPORATION,NIKON D300S
DSC_0363.jpg,2011:03:06 20:51:29,NIKON CORPORATION,NIKON D300S
DSC_0364.jpg,2011:03:06 20:52:14,NIKON CORPORATION,NIKON D300S
DSC_0366.jpg,2011:03:06 20:52:54,NIKON CORPORATION,NIKON D300S
DSC_0367.jpg,2011:03:06 20:53:12,NIKON CORPORATION,NIKON D300S
DSC_0368.jpg,2011:03:06 20:53:55,NIKON CORPORATION,NIKON D300S
DSC_0369.jpg,2011:03:06 20:54:15,NIKON CORPORATION,NIKON D300S
DSC_0370.jpg,2011:03:06 20:54:38,NIKON CORPORATION,NIKON D300S
DSC_0371.jpg,2011:03:06 20:54:52,NIKON CORPORATION,NIKON D300S
DSC_0372.jpg,2011:03:06 20:55:13,NIKON CORPORATION,NIKON D300S
DSC_0373.jpg,2011:03:06 20:55:34,NIKON CORPORATION,NIKON D300S
DSC_0374.jpg,2011:03:06 20:55:48,NIKON CORPORATION,NIKON D300S
DSC_0376.jpg,2011:03:06 20:57:49,NIKON CORPORATION,NIKON D300S
DSC_0382.jpg,2011:03:06 21:02:41,NIKON CORPORATION,NIKON D300S
DSC_0384.jpg,2011:03:06 21:04:24,NIKON CORPORATION,NIKON D300S
DSC_0386.jpg,2011:03:06 21:11:53,NIKON CORPORATION,NIKON D300S
DSC_0389.jpg,2011:03:06 21:13:59,NIKON CORPORATION,NIKON D300S
DSC_0391.jpg,2011:03:06 21:14:48,NIKON CORPORATION,NIKON D300S
DSC_0392.jpg,2011:03:06 21:15:28,NIKON CORPORATION,NIKON D300S
DSC_0393.jpg,2011:03:06 21:15:41,NIKON CORPORATION,NIKON D300S
DSC_0394.jpg,2011:03:06 21:16:46,NIKON CORPORATION,NIKON D300S
DSC_0395.jpg,2011:03:06 21:17:31,NIKON CORPORATION,NIKON D300S
DSC_0396.jpg,2011:03:06 21:17:52,NIKON CORPORATION,NIKON D300S
DSC_0397.jpg,2011:03:06 21:18:05,NIKON CORPORATION,NIKON D300S
DSC_0398.jpg,2011:03:06 21:18:20,NIKON CORPORATION,NIKON D300S
DSC_0399.jpg,2011:03:06 21:18:39,NIKON CORPORATION,NIKON D300S
DSC_0400.jpg,2011:03:06 21:18:51,NIKON CORPORATION,NIKON D300S
DSC_0402.jpg,2011:03:06 21:22:05,NIKON CORPORATION,NIKON D300S
DSC_0404.jpg,2011:03:06 21:23:31,NIKON CORPORATION,NIKON D300S
DSC_0405.jpg,2011:03:06 21:24:06,NIKON CORPORATION,NIKON D300S
DSC_0406.jpg,2011:03:06 21:25:15,NIKON CORPORATION,NIKON D300S
DSC_0408.jpg,2011:03:06 21:29:58,NIKON CORPORATION,NIKON D300S
DSC_0440_kopi.jpg,2006:06:07 13:29:13,NIKON CORPORATION,NIKON D70
DSC_1130c.jpg,2006:08:09 11:55:54,NIKON CORPORATION,NIKON D70
_DSC1190.jpg,2009:08:30 13:04:17,NIKON CORPORATION,NIKON D3X
_DSC1194.jpg,2009:08:30 13:08:28,NIKON CORPORATION,NIKON D3X
_DSC1195.jpg,2009:08:30 13:08:52,NIKON CORPORATION,NIKON D3X
_DSC1203.jpg,2009:08:30 13:13:59,NIKON CORPORATION,NIKON D3X
_DSC1264b.jpg,2009:08:30 15:52:25,NIKON CORPORATION,NIKON D3X
_DSC1275.jpg,2009:08:30 16:02:50,NIKON CORPORATION,NIKON D3X
_DSC1279.jpg,2009:08:30 16:04:03,NIKON CORPORATION,NIKON D3X
_DSC1288.jpg,2009:08:30 16:06:46,NIKON CORPORATION,NIKON D3X
_DSC1347b.jpg,2009:08:30 16:36:51,NIKON CORPORATION,NIKON D3X
fjelloverganger9_b.jpg,,,
fjelloverganger9.jpg,,,
GA_000007_2.jpg,,,
GA_000007_3.jpg,,,
GA_000009_A_17.jpg,,,
GA_000009_A_9WEB.jpg,2007:11:09 20:50:20,Leaf,Aptus 22
GA_000009_A_WEB11.jpg,,,
GA_000009_A_WEB1.jpg,,,
GA_000009_A_WEB5.jpg,,,
GA_000009_A_WEB6.jpg,,,
GA_000010_WEB2.jpg,,,
GA_000307_S1.jpg,2012:11:20 12:03:18,Canon,Canon EOS 5D Mark II
GA_000307_S2.jpg,2012:11:20 12:04:16,Canon,Canon EOS 5D Mark II
GA_000307_S3.jpg,2012:11:20 12:05:14,Canon,Canon EOS 5D Mark II
GA_000307_S4.jpg,2012:11:20 12:05:37,Canon,Canon EOS 5D Mark II
GA_000307_S5.jpg,2012:11:20 12:06:08,Canon,Canon EOS 5D Mark II
GA_000343_S1.jpg,2012:11:20 11:59:28,Canon,Canon EOS 5D Mark II
GA_000343_S2.jpg,2012:11:20 12:01:10,Canon,Canon EOS 5D Mark II
GA_000343_S3.jpg,2012:11:20 12:01:40,Canon,Canon EOS 5D Mark II
GA_000344_S1.jpg,2012:11:20 12:07:26,Canon,Canon EOS 5D Mark II
GA_000344_S2.jpg,2012:11:20 12:08:06,Canon,Canon EOS 5D Mark II
GA_000344_S3.jpg,2012:11:20 12:08:46,Canon,Canon EOS 5D Mark II
GA_000344_S4.jpg,2012:11:20 12:09:29,Canon,Canon EOS 5D Mark II
GA_000344_S5.jpg,2012:11:20 12:10:36,Canon,Canon EOS 5D Mark II
GA_000344_S6.jpg,2012:11:20 12:11:07,Canon,Canon EOS 5D Mark II
GA_000345_S1.jpg,2012:11:20 12:13:40,Canon,Canon EOS 5D Mark II
GA_000345_S2.jpg,2012:11:20 12:15:05,Canon,Canon EOS 5D Mark II
GA_000346_S1.jpg,2012:11:20 12:15:54,Canon,Canon EOS 5D Mark II
GA_000346_S2.jpg,2012:11:20 12:17:07,Canon,Canon EOS 5D Mark II
GA_000346_S3.jpg,2012:11:20 12:17:44,Canon,Canon EOS 5D Mark II
GA_000346_S4.jpg,2012:11:20 12:18:51,Canon,Canon EOS 5D Mark II
GA_000346_S5.jpg,2012:11:20 12:20:05,Canon,Canon EOS 5D Mark II
GA_000347_S1.jpg,2012:11:20 12:21:52,Canon,Canon EOS 5D Mark II
GA_000347_S2.jpg,2012:11:20 12:24:12,Canon,Canon EOS 5D Mark II
GA_000347_S3.jpg,2012:11:20 12:22:57,Canon,Canon EOS 5D Mark II
GA_000347_S4.jpg,2012:11:20 12:24:37,Canon,Canon EOS 5D Mark II
GA_000354_S1.jpg,2012:11:20 12:26:44,Canon,Canon EOS 5D Mark II
GA_000354_S2.jpg,2012:11:20 12:27:15,Canon,Canon EOS 5D Mark II
GA_000354_S3.jpg,2012:11:20 12:29:23,Canon,Canon EOS 5D Mark II
GA_000355_S1.jpg,2012:11:20 12:30:17,Canon,Canon EOS 5D Mark II
GA_000355_S2.jpg,2012:11:20 12:31:00,Canon,Canon EOS 5D Mark II
GA_000355_S3.jpg,2012:11:20 12:31:39,Canon,Canon EOS 5D Mark II
GA_000355_S4.jpg,2012:11:20 12:32:27,Canon,Canon EOS 5D Mark II
GA_000355_S5.jpg,2012:11:20 12:33:49,Canon,Canon EOS 5D Mark II
GA_000355_S6.jpg,2012:11:20 16:27:09,Canon,Canon EOS 5D Mark II
GA_000355_S7.jpg,2012:11:20 12:38:25,Canon,Canon EOS 5D Mark II
GA_000356_S1.jpg,2012:11:20 12:35:04,Canon,Canon EOS 5D Mark II
GA_000356_S2.jpg,2012:11:20 12:36:09,Canon,Canon EOS 5D Mark II
GA_000356_S3.jpg,2012:11:20 12:37:14,Canon,Canon EOS 5D Mark II
GA_000357_S1.jpg,2012:11:20 12:39:52,Canon,Canon EOS 5D Mark II
GA_000357_S2.jpg,2012:11:20 12:41:12,Canon,Canon EOS 5D Mark II
GA_000357_S3.jpg,2012:11:20 12:42:15,Canon,Canon EOS 5D Mark II
GA_000358_S1.jpg,2012:11:20 12:43:55,Canon,Canon EOS 5D Mark II
GA_000358_S2.jpg,2012:11:20 12:44:35,Canon,Canon EOS 5D Mark II
GA_000358_S3.jpg,2012:11:20 12:45:42,Canon,Canon EOS 5D Mark II
GA_000358_S4.jpg,2012:11:20 12:46:39,Canon,Canon EOS 5D Mark II
GA_000358_S5.jpg,2012:11:20 12:47:33,Canon,Canon EOS 5D Mark II
GA_000359_S1.jpg,2012:11:20 12:48:44,Canon,Canon EOS 5D Mark II
GA_000359_S2.jpg,2012:11:20 12:49:24,Canon,Canon EOS 5D Mark II
GA_000359_S3.jpg,2012:11:20 12:50:00,Canon,Canon EOS 5D Mark II
GA_000360_S1.jpg,2012:11:20 12:50:56,Canon,Canon EOS 5D Mark II
GA_000360_S2.jpg,2012:11:20 12:51:13,Canon,Canon EOS 5D Mark II
GA_000360_S3.jpg,2012:11:20 12:52:05,Canon,Canon EOS 5D Mark II
GA_000360_S4.jpg,2012:11:20 12:52:51,Canon,Canon EOS 5D Mark II
GA_000361_S1.jpg,2012:11:20 12:54:36,Canon,Canon EOS 5D Mark II
GA_000361_S2.jpg,2012:11:20 12:55:36,Canon,Canon EOS 5D Mark II
GA_LH_000003_WEB2.jpg,,,
GA_LH_000004_WEB2.jpg,,,
GA_LH_000004_WEB.jpg,,,
GA_LH_000005_W1.jpg,,,
GA_LH_000006_WEB1.jpg,,,
GA_LH_000007_WEB3.jpg,,,
GA_LH_000008_W2.jpg,,,
GA_LH_000010_WEB1.jpg,,,
GA_LH_000011_WEB1.jpg,,,
GA_LH_000011_WEB2.jpg,,,
GA_LH_000011_WEB3.jpg,,,
GA_LH_000012_WEB1.jpg,,,
GA_LH_000013_WEB3.jpg,,,
GA_LH_000013_WEB4.jpg,,,
GA_LH_000013_WEB5.jpg,,,
GA_LH_000013_WEB6.jpg,,,
GA_LH_000013_WEB7.jpg,,,
GA_LH_000014_A_WEB4.jpg,2008:05:13 16:36:16,NIKON CORPORATION,NIKON D80
GA_LH_000014_A_WEB6.jpg,2008:05:13 16:33:40,NIKON CORPORATION,NIKON D80
GA_LH_000014_B_W1.jpg,,,
GA_LH_000014_C_WEB1.jpg,,,
GA_LH_000014_D_WEB1.jpg,,,
GA_LH_000014_E_WEB1.jpg,,,
GA_LH_000015_WEB1.jpg,,,
GA_LH_000019_WEB1.jpg,,,
GA_LH_000019_WEB2.jpg,,,
GA_LH_000019_WEB3.jpg,,,
GA_LH_000020_WEB1.jpg,,,
GA_LH_000022_WEB1.jpg,,,
GA_LH_000024_WEB1.jpg,,,
GA_LH_000025_W1.jpg,,,
GA_LH_000025_W3.jpg,,,
GA_LH_000026_W1.jpg,,,
GA_LH_000027_W1.jpg,,,
GA_LH_000027_W2a.jpg,,,
GA_LH_000028_W1.jpg,,,
GA_LH_000028_W2a.jpg,,,
GA_LH_000028_W2b.jpg,,,
GA_LH_000028_W2c.jpg,,,
GA_LH_000028_W2d.jpg,,,
GA_LH_000029_W1.jpg,,,
GA_LH_000030_7a.jpg,2008:02:09 17:29:43,Leaf,Aptus 22
GA_LH_000030_9b.jpg,2008:02:09 17:30:14,Leaf,Aptus 22
GA_LH_000030_W1.jpg,,,
GA_LH_000031_W1.jpg,,,
GA_LH_000032_W1.jpg,,,
GA_LH_000033_1.jpg,2007:11:09 21:38:37,Leaf,Aptus 22
GA_LH_000033_7.jpg,2007:11:09 21:39:32,Leaf,Aptus 22
GA_LH_000033_W1.jpg,,,
GA_LH_000034_3.jpg,2007:11:09 21:40:58,Leaf,Aptus 22
GA_LH_000034_4b.jpg,2007:11:09 21:41:27,Leaf,Aptus 22
GA_LH_000035_10.jpg,2008:03:20 16:48:33,Leaf,Aptus 22
GA_LH_000035_11b_1.jpg,2008:03:20 16:37:57,Leaf,Aptus 22
GA_LH_000035_4.jpg,2008:03:20 16:46:56,Leaf,Aptus 22
GA_LH_000035_6.jpg,2008:03:20 16:48:04,Leaf,Aptus 22
GA_LH_000035_8.jpg,2008:03:20 16:48:19,Leaf,Aptus 22
GA_LH_000036_1.jpg,2007:07:24 20:54:31,Leaf,Aptus 22
GA_LH_000036_3.jpg,2007:07:24 20:53:57,Leaf,Aptus 22
GA_LH_000036_4.jpg,2007:07:24 20:53:50,Leaf,Aptus 22
GA_LH_000036_5.jpg,2007:07:24 20:53:24,Leaf,Aptus 22
GA_LH_000037_2.jpg,2008:03:20 17:11:14,Leaf,Aptus 22
GA_LH_000037_3b.jpg,2008:03:20 17:11:49,Leaf,Aptus 22
GA_LH_000038_1.jpg,2008:03:20 16:48:48,Leaf,Aptus 22
GA_LH_000038_2.jpg,2008:03:20 16:48:58,Leaf,Aptus 22
GA_LH_000038_3.jpg,2008:03:20 16:49:15,Leaf,Aptus 22
GA_LH_000039_A_1b.jpg,2008:03:20 18:53:16,Leaf,Aptus 22
GA_LH_000039_B_W1b.jpg,,,
GA_LH_000039_B_W1c.jpg,,,
GA_LH_000040_W1b.jpg,,,
GA_LH_000040_W2b.jpg,,,
GA_LH_000041_2.jpg,2008:03:20 16:49:30,Leaf,Aptus 22
GA_LH_000041_3b.jpg,2008:03:20 16:49:43,Leaf,Aptus 22
GA_LH_000041_G2.jpg,2006:11:02 14:13:34,Leaf,Aptus 22
GA_LH_000042_W2.jpg,,,
GA_LH_000043_10.jpg,2008:03:20 17:17:05,Leaf,Aptus 22
GA_LH_000043_11.jpg,2008:03:20 17:17:48,Leaf,Aptus 22
GA_LH_000043_12.jpg,2008:03:20 17:17:19,Leaf,Aptus 22
GA_LH_000043_13.jpg,2008:03:20 17:17:32,Leaf,Aptus 22
GA_LH_000043_2.jpg,2008:03:20 17:15:42,Leaf,Aptus 22
GA_LH_000043_3.jpg,2008:03:20 17:16:10,Leaf,Aptus 22
GA_LH_000043_4.jpg,2008:03:20 17:18:30,Leaf,Aptus 22
GA_LH_000043_5.jpg,2008:03:20 17:16:24,Leaf,Aptus 22
GA_LH_000043_6.jpg,2008:03:20 17:18:00,Leaf,Aptus 22
GA_LH_000043_7.jpg,2008:03:20 17:16:39,Leaf,Aptus 22
GA_LH_000043_8.jpg,2008:03:20 17:16:52,Leaf,Aptus 22
GA_LH_000044_W1.jpg,,,
GA_LH_000045_W1b.jpg,,,
GA_LH_000046_W1.jpg,,,
GA_LH_000047_W2.jpg,,,
GA_LH_000049_A_W1.jpg,,,
GA_LH_000049_B_W1.jpg,,,
GA_LH_000050_W4c.jpg,,,
GA_LH_000050_W5.jpg,,,
GA_LH_000051_1.jpg,2006:08:25 14:06:14,NIKON CORPORATION,NIKON D70
GA_LH_000052_W1b.jpg,,,
GA_LH_000053_W1.jpg,,,
GA_LH_000054_W1.jpg,,,
GA_LH_000055_W2.jpg,,,
GA_LH_000055_W3.jpg,,,
GA_LH_000056_W1.jpg,,,
GA_LH_000056_W2.jpg,,,
GA_LH_000058_W1.jpg,,,
GA_LH_000058_W2.jpg,,,
GA_LH_000058_W3.jpg,,,
GA_LH_000059_W3b.jpg,,,
GA_LH_000059_W4b.jpg,,,
GA_LH_000060_W1.jpg,,,
GA_LH_000062_W1.jpg,,,
GA_LH_000063_W1.jpg,,,
GA_LH_000064_W2.jpg,,,
GA_LH_000065_1.jpg,2008:02:09 16:48:19,Leaf,Aptus 22
GA_LH_000065_2.jpg,2008:02:09 16:48:54,Leaf,Aptus 22
GA_LH_000065_W1.jpg,,,
GA_LH_000066_W1b.jpg,,,
GA_LH_000067_W3b.jpg,,,
GA_LH_000067_W4.jpg,,,
GA_LH_000068_W1b.jpg,,,
GA_LH_000069_W1b.jpg,,,
GA_LH_000070_W1.jpg,,,
GA_LH_000071_W2c.jpg,,,
GA_LH_000072_1b.jpg,,,
GA_LH_000072_W1.jpg,,,
GA_LH_000073_W3b.jpg,,,
GA_LH_000074_W1.jpg,,,
GA_LH_000075_W2b.jpg,,,
GA_LH_000076_W2.jpg,,,
GA_LH_000077_W2b.jpg,,,
GA_LH_000078_B_W1.jpg,,,
GA_LH_000079_W1b.jpg,,,
GA_LH_000080_2b.jpg,2007:02:07 14:58:29,NIKON CORPORATION,NIKON D80
GA_LH_000081_W1.jpg,,,
GA_LH_000082_W1.jpg,,,
GA_LH_000083_W1b.jpg,,,
GA_LH_000084_W1b.jpg,,,
GA_LH_000084_W2b.jpg,,,
GA_LH_000085_W2.jpg,,,
GA_LH_000086_1.jpg,2008:03:20 16:51:08,Leaf,Aptus 22
GA_LH_000086_2.jpg,2008:03:20 16:51:22,Leaf,Aptus 22
GA_LH_000086_3.jpg,2008:03:20 16:51:39,Leaf,Aptus 22
GA_LH_000086_4.jpg,2008:03:20 16:51:53,Leaf,Aptus 22
GA_LH_000087_1b.jpg,2007:11:09 21:17:43,Leaf,Aptus 22
GA_LH_000087_2.jpg,2007:11:09 21:18:29,Leaf,Aptus 22
GA_LH_000088_W1b.jpg,,,
GA_LH_000088_W2b.jpg,,,
GA_LH_000089_W1.jpg,,,
GA_LH_000090_W1.jpg,,,
GA_LH_000091_W1.jpg,,,
GA_LH_000092_W2.jpg,,,
GA_LH_000093_W3b.jpg,,,
GA_LH_000093_W4b.jpg,,,
GA_LH_000094_W1b.jpg,,,
GA_LH_000095_W1.jpg,,,
GA_LH_000096_W1.jpg,,,
GA_LH_000097_W1.jpg,,,
GA_LH_000098_W3b.jpg,,,
GA_LH_000099_W1.jpg,,,
GA_LH_000100_W5.jpg,,,
GA_LH_000100_W6.jpg,,,
GA_LH_000101_W1.jpg,,,
GA_LH_000102_W1b.jpg,,,
GA_LH_000103_W2b.jpg,,,
GA_LH_000104_W1.jpg,,,
GA_LH_000105_W1.jpg,,,
GA_LH_000106_2.jpg,2008:03:20 18:50:58,Leaf,Aptus 22
GA_LH_000106_W1b.jpg,,,
GA_LH_000107_W1.jpg,,,
GA_LH_000107_W2.jpg,,,
GA_LH_000107_W3.jpg,,,
GA_LH_000108_B_1b.jpg,,,
GA_LH_000108_B_4b.jpg,,,
GA_LH_000108_B_5b.jpg,,,
GA_LH_000108_B_6.jpg,,,
GA_LH_000109_W1.jpg,,,
GA_LH_000110_W1.jpg,,,
GA_LH_000111_W1b.jpg,,,
GA_LH_000112_W1b.jpg,,,
GA_LH_000113_W1.jpg,,,
GA_LH_000114_W1.jpg,,,
GA_LH_000114_W2.jpg,,,
GA_LH_000114_W3.jpg,,,
GA_LH_000115_W2b.jpg,,,
GA_LH_000116_W1.jpg,,,
GA_LH_000116_W2b.jpg,,,
GA_LH_000116_W3b.jpg,,,
GA_LH_000117_W1b.jpg,,,
GA_LH_000117_W2.jpg,,,
GA_LH_000117_W3b.jpg,,,
GA_LH_000117_W5b.jpg,,,
GA_LH_000118_W1b.jpg,,,
GA_LH_000118_W2b.jpg,,,
GA_LH_000119_W1.jpg,,,
GA_LH_000120_W2.jpg,,,
GA_LH_000121_W1b.jpg,,,
GA_LH_000122_W1b.jpg,,,
GA_LH_000123_W1.jpg,,,
GA_LH_000124_W1.jpg,,,
GA_LH_000124_W2.jpg,,,
GA_LH_000124_W3b.jpg,,,
GA_LH_000125_W2c.jpg,,,
GA_LH_000126_3.jpg,2007:11:09 19:01:20,Leaf,Aptus 22
GA_LH_000127_3b.jpg,,,
GA_LH_000127_W1b.jpg,,,
GA_LH_000128_W1b.jpg,,,
GA_LH_000129_W3b.jpg,,,
GA_LH_000129_W4b.jpg,,,
GA_LH_000130_W1.jpg,,,
GA_LH_000131_1b.jpg,,,
GA_LH_000132_W1.jpg,,,
GA_LH_000133_W1.jpg,,,
GA_LH_000134_1b.jpg,,,
GA_LH_000135_W1.jpg,,,
GA_LH_000135_W2.jpg,,,
GA_LH_000136_W1.jpg,,,
gg0610a_000024_2.jpg,2006:10:30 21:27:08,Leaf,Aptus 22
gg0610a_000052_1b copy.jpg,2006:10:30 22:16:07,Leaf,Aptus 22
gg0610a_000172b.jpg,2006:10:31 14:34:26,Leaf,Aptus 22
gg0610a_000175.jpg,2006:10:31 14:36:21,Leaf,Aptus 22
gg0610a_000189b.jpg,2006:10:31 14:43:40,Leaf,Aptus 22
gg0610a_000257.jpg,2006:10:31 17:05:52,Leaf,Aptus 22
gg0610a_000283_kopi.jpg,2006:10:31 17:12:14,Leaf,Aptus 22
gg0610a_000314b.jpg,2006:10:31 17:41:36,Leaf,Aptus 22
gg0610a_000325.jpg,2006:10:31 17:43:59,Leaf,Aptus 22
gg0610a_000336.jpg,2006:10:31 17:46:58,Leaf,Aptus 22
gg0610a_000342b.jpg,2006:10:31 17:48:24,Leaf,Aptus 22
gg0610a_000364b.jpg,2006:10:31 17:53:59,Leaf,Aptus 22
gg0610a_000415.jpg,2006:10:31 20:41:22,Leaf,Aptus 22
gg0610a_000426.jpg,2006:10:31 21:05:00,Leaf,Aptus 22
gg0610a_000442.jpg,2006:10:31 21:09:58,Leaf,Aptus 22
gg0610b_000007.jpg,2006:11:01 16:58:53,Leaf,Aptus 22
gg0610b_000022.jpg,2006:11:01 17:02:57,Leaf,Aptus 22
gg0610b_000034.jpg,2006:11:01 17:06:44,Leaf,Aptus 22
gg0610b_000039.jpg,2006:11:01 17:08:08,Leaf,Aptus 22
gg0610b_000119.jpg,2006:11:01 18:59:06,Leaf,Aptus 22
gg0610b_000120.jpg,2006:11:01 18:59:19,Leaf,Aptus 22
gg0610b_000139.jpg,2006:11:01 21:09:21,Leaf,Aptus 22
gg0610b_000141.jpg,2006:11:01 21:10:04,Leaf,Aptus 22
gg0610b_000148_kopi.jpg,2006:11:01 21:13:18,Leaf,Aptus 22
gg0610b_000163.jpg,2006:11:01 21:19:09,Leaf,Aptus 22
gg0610b_000191.jpg,2006:11:01 21:34:47,Leaf,Aptus 22
gg0610b_000194_1.jpg,2006:11:01 21:36:21,Leaf,Aptus 22
gg0610b_000209 2.jpg,2006:11:01 21:43:27,Leaf,Aptus 22
gg0610b_000246c.jpg,2006:11:01 22:02:22,Leaf,Aptus 22
gg0610b_000297b.jpg,2006:11:02 12:57:06,Leaf,Aptus 22
gg0610b_000304.jpg,2006:11:02 13:01:17,Leaf,Aptus 22
gg0610b_000306.jpg,2006:11:02 13:02:37,Leaf,Aptus 22
gg0610b_000311.jpg,2006:11:02 13:05:08,Leaf,Aptus 22
gg0610b_000312b.jpg,2006:11:02 13:05:24,Leaf,Aptus 22
gg0610b_000313_1_dyp.jpg,2006:11:02 13:06:29,Leaf,Aptus 22
gg0610b_000334.jpg,2006:11:02 13:18:34,Leaf,Aptus 22
gg0610b_000338c.jpg,2006:11:02 13:19:32,Leaf,Aptus 22
gg0610b_000487.jpg,2006:11:02 17:50:17,Leaf,Aptus 22
gg0610b_000488.jpg,2006:11:02 17:50:26,Leaf,Aptus 22
gg0610b_000495b.jpg,2006:11:02 17:53:26,Leaf,Aptus 22
gg0610b_000502.jpg,2006:11:02 17:57:22,Leaf,Aptus 22
gg0610b_000507.jpg,2006:11:02 17:59:56,Leaf,Aptus 22
gg0701x_000030.jpg,2007:01:23 14:58:48,Leaf,Aptus 22
gg0701x_000106.jpg,2007:01:23 18:17:42,Leaf,Aptus 22
gg0701x_000249.jpg,2007:01:23 19:55:44,Leaf,Aptus 22
gg0703a_000196.jpg,2007:03:19 16:48:31,Leaf,Aptus 22
gg0703a_000213v.jpg,2007:03:19 16:55:06,Leaf,Aptus 22
gg0703a_000281.jpg,2007:03:19 19:49:34,Leaf,Aptus 22
gg0703a_000283b.jpg,2007:03:19 19:50:17,Leaf,Aptus 22
gg0703a_000354.jpg,2007:03:19 20:22:11,Leaf,Aptus 22
gg070724_002127.jpg,2007:07:24 20:49:04,Leaf,Aptus 22
gg070724_002128_1.jpg,2007:07:24 20:49:19,Leaf,Aptus 22
gg070724_002129.jpg,2007:07:24 20:49:46,Leaf,Aptus 22
gg070724_002149.jpg,2007:07:24 21:00:08,Leaf,Aptus 22
gg070724_002151.jpg,2007:07:24 21:00:37,Leaf,Aptus 22
GG0711a_000025.jpg,2007:11:09 17:45:34,Leaf,Aptus 22
GG0711a_000027.jpg,2007:11:09 17:46:25,Leaf,Aptus 22
GG0711a_000030.jpg,2007:11:09 17:47:26,Leaf,Aptus 22
GG0711a_000031.jpg,2007:11:09 17:47:50,Leaf,Aptus 22
GG0711a_000058.jpg,2007:11:09 18:16:14,Leaf,Aptus 22
GG0711a_000080.jpg,2007:11:09 18:26:59,Leaf,Aptus 22
GG0711a_000083.jpg,2007:11:09 18:28:51,Leaf,Aptus 22
GG0711a_000099.jpg,2007:11:09 19:04:28,Leaf,Aptus 22
GG0711a_000101.jpg,2007:11:09 19:05:22,Leaf,Aptus 22
GG0711a_000103.jpg,2007:11:09 19:06:21,Leaf,Aptus 22
GG0711a_000105.jpg,2007:11:09 19:07:06,Leaf,Aptus 22
GG0711a_000311_1.jpg,2007:11:10 13:42:39,Leaf,Aptus 22
GG0711a_000325_1.jpg,2007:11:10 13:49:29,Leaf,Aptus 22
GG0711a_000356_1.jpg,2007:11:10 14:05:37,Leaf,Aptus 22
gg0711a_000468.jpg,2007:11:10 18:08:40,Leaf,Aptus 22
GG0711a_000495.jpg,2007:11:10 18:13:55,Leaf,Aptus 22
GG0711a_000509.jpg,2007:11:10 18:39:50,Leaf,Aptus 22
gg0711a_000513.jpg,2007:11:10 18:41:27,Leaf,Aptus 22
GG0711a_000524 2.jpg,2007:11:10 18:45:37,Leaf,Aptus 22
gg0801_000619.jpg,2008:01:25 19:05:58,Leaf,Aptus 22
gg0801_000633.jpg,2008:01:25 19:09:13,Leaf,Aptus 22
gg0801_000647.jpg,2008:01:25 19:13:15,Leaf,Aptus 22
gg0802_000120.jpg,2008:02:09 16:57:46,Leaf,Aptus 22
gg0802_000128b.jpg,2008:02:09 17:26:03,Leaf,Aptus 22
gg0802_000139_1.jpg,2008:02:09 17:31:23,Leaf,Aptus 22
gg0802_000159.jpg,2008:02:09 17:44:50,Leaf,Aptus 22
gg0802_000225.jpg,2008:02:09 18:09:03,Leaf,Aptus 22
gg0803_000034.jpg,2008:03:20 15:13:52,Leaf,Aptus 22
gg0803_000040.jpg,2008:03:20 15:15:43,Leaf,Aptus 22
gg0803_000050.jpg,2008:03:20 15:29:16,Leaf,Aptus 22
gg0803_000060_1b.jpg,2008:03:20 15:34:38,Leaf,Aptus 22
gg0803_000063_1b.jpg,2008:03:20 15:35:21,Leaf,Aptus 22
gg0803_000092.jpg,2008:03:20 16:09:16,Leaf,Aptus 22
gg0803_000099_utsnitt.jpg,2008:03:20 16:11:25,Leaf,Aptus 22
gg0803_000107b.jpg,2008:03:20 16:13:55,Leaf,Aptus 22
gg0803_000125.jpg,2008:03:20 16:35:31,Leaf,Aptus 22
gg0803_000192.jpg,2008:03:20 17:18:56,Leaf,Aptus 22
gg0803_000207.jpg,2008:03:20 18:54:12,Leaf,Aptus 22
gg0803_000221.jpg,2008:03:20 19:15:46,Leaf,Aptus 22
gg0803_000255a_2.jpg,2008:03:20 19:35:21,Leaf,Aptus 22
gg0803_000255a.jpg,2008:03:20 19:35:21,Leaf,Aptus 22
i1653599-1.jpg,2007:09:10 20:56:18,PENTAX Corporation ,PENTAX K100D Super 
IMG_0596_kopi2.jpg,2006:06:22 07:46:03,Canon,Canon EOS DIGITAL REBEL XT
måling.jpg,,,
Matak3.jpg,,,
Matak.jpg,,,
strikk.jpg,2009:12:18 13:26:52,NIKON CORPORATION,NIKON D80
Untitled-1.jpg,,,
