filename,folders,filesize
gg0803_000255a_2.jpg,Resten,197433
4a_IMG_2837WEB.jpg,Bilder Silje,470459
40b_MG_8972WEB.jpg,Bilder Silje,516438
11b_IMG_7382.jpg,Bilder Silje,524216
57b_MG_9433WEB.jpg,Bilder Silje,529918
26c_MG_8709WEB.jpg,Bilder Silje,549727
58a_MG_9434WEB.jpg,Bilder Silje,569325
26d_MG_8712WEB.jpg,Bilder Silje,571034
36b_MG_8934WEB.jpg,Bilder Silje,572119
8b_IMG_4381WEB.jpg,Bilder Silje,578111
17b_MG_8358WEB.jpg,Bilder Silje,580181
strikk.jpg,Resten,588470
59a_MG_9442WEB.jpg,Bilder Silje,588935
7a_IMG_2843WEB.jpg,Bilder Silje,590102
33c_MG_8904WEB.jpg,Bilder Silje,592656
3a_IMG_0298WEB.jpg,Bilder Silje,592888
56a_IMG_5776WEB.jpg,Bilder Silje,595347
24c_MG_8694WEB.jpg,Bilder Silje,598735
55a_MG_9414WEB.jpg,Bilder Silje,602585
39b_MG_8964WEB.jpg,Bilder Silje,603279
59a_IMG_5871WEB.jpg,Bilder Silje,605780
13c_MG_8329WEB.jpg,Bilder Silje,606633
19c_MG_8374WEB.jpg,Bilder Silje,607538
31c_MG_8886WEB.jpg,Bilder Silje,609497
57a_MG_9429WEB.jpg,Bilder Silje,614411
3a_IMG_3991WEB.jpg,Bilder Silje,620720
45d_MG_9031WEB.jpg,Bilder Silje,627687
23c_MG_8686WEB.jpg,Bilder Silje,630369
25b_MG_8699WEB.jpg,Bilder Silje,630822
26a_MG_8706WEB.jpg,Bilder Silje,631227
60a_MG_9446WEB.jpg,Bilder Silje,634838
32b_MG_8890WEB.jpg,Bilder Silje,636642
6c_MG_8271WEB.jpg,Bilder Silje,637974
12d_IMG_5527WEB.jpg,Bilder Silje,642262
21b__MG_8654WEB.jpg,Bilder Silje,643264
2a_IMG_3909WEB.jpg,Bilder Silje,643937
6h_IMG_4433WEB.jpg,Bilder Silje,644326
3b_IMG_1581WEB.jpg,Bilder Silje,645355
41b_MG_8984WEB.jpg,Bilder Silje,646096
56a_MG_9422WEB.jpg,Bilder Silje,647178
18b_MG_8365WEB.jpg,Bilder Silje,647535
24b_MG_8690WEB.jpg,Bilder Silje,648699
2b_IMG_1573WEB.jpg,Bilder Silje,651824
1b_IMG_4011WEB.jpg,Bilder Silje,653723
35b_MG_8925WEB.jpg,Bilder Silje,656559
25a_MG_8698WEB.jpg,Bilder Silje,661833
12a_MG_8322WEB.jpg,Bilder Silje,663257
37c_MG_8947WEB.jpg,Bilder Silje,666422
34b_MG_8913WEB.jpg,Bilder Silje,666653
46b_MG_9035WEB.jpg,Bilder Silje,667959
19b_MG_8373WEB.jpg,Bilder Silje,669125
18c_MG_8362WEB.jpg,Bilder Silje,672424
59b_MG_9445WEB.jpg,Bilder Silje,672649
13c_IMG_5546WEB.jpg,Bilder Silje,672761
49b_MG_9065WEB.jpg,Bilder Silje,675132
38b_MG_8954WEB.jpg,Bilder Silje,677894
53c_IMG_5609WEB.jpg,Bilder Silje,680453
21c_MG_8659WEB.jpg,Bilder Silje,680702
52b_IMG_5631WEB.jpg,Bilder Silje,682497
20b_MG_8378WEB.jpg,Bilder Silje,683075
29b_MG_8737WEB.jpg,Bilder Silje,684800
28b_MG_8727WEB.jpg,Bilder Silje,686156
27_IMG_2820WEB.jpg,Bilder Silje,686193
37b_MG_8943WEB.jpg,Bilder Silje,687764
10a_MG_8310WEB.jpg,Bilder Silje,694760
16b_MG_8346WEB.jpg,Bilder Silje,696214
52c_IMG_5632WEB.jpg,Bilder Silje,697416
8b_MG_8292WEB.jpg,Bilder Silje,699622
53a_IMG_5573WEB.jpg,Bilder Silje,700474
64c_IMG_6201WEB.jpg,Bilder Silje,702391
13h_IMG_5693WEB.jpg,Bilder Silje,704272
03_3_IMG_6351WEB.jpg,Bilder Silje,706998
14_3_IMG_6448WEB.jpg,Bilder Silje,709598
54c_MG_9402WEB.jpg,Bilder Silje,709828
51b_MG_9331WEB.jpg,Bilder Silje,710692
9c_MG_8299WEB.jpg,Bilder Silje,712048
52a_MG_9344WEB.jpg,Bilder Silje,715245
14_2_IMG_6447WEB.jpg,Bilder Silje,721816
7_IMG_2388WEB.jpg,Bilder Silje,725778
57f_IMG_5842WEB.jpg,Bilder Silje,727411
22b_MG_8667WEB.jpg,Bilder Silje,731241
38c_MG_8960WEB.jpg,Bilder Silje,732500
6a_IMG_4403WEB.jpg,Bilder Silje,733341
27c_MG_8719WEB.jpg,Bilder Silje,735206
1a_IMG_4020WEB.jpg,Bilder Silje,739258
22a_MG_8664WEB.jpg,Bilder Silje,740544
42a_MG_8991WEB.jpg,Bilder Silje,740618
6f_IMG_4427WEB.jpg,Bilder Silje,740650
03_4_IMG_6352WEB.jpg,Bilder Silje,744135
10b_MG_8309WEB.jpg,Bilder Silje,748297
53d_IMG_5615WEB.jpg,Bilder Silje,753787
10_2_IMG_6418WEB.jpg,Bilder Silje,759072
6c_IMG_4409WEB.jpg,Bilder Silje,759639
2b_IMG_0289WEB.jpg,Bilder Silje,766341
50a_IMG_5757WEB.jpg,Bilder Silje,768564
45b_MG_9020WEB.jpg,Bilder Silje,769129
52a_IMG_5626WEB.jpg,Bilder Silje,769401
27a_IMG_3060WEB.jpg,Bilder Silje,769744
55b_IMG_1603WEB.jpg,Bilder Silje,776409
14_4_IMG_6449WEB.jpg,Bilder Silje,777951
61a_MG_9453WEB.jpg,Bilder Silje,780793
43b_IMG_0368WEB.jpg,Bilder Silje,781506
6e_IMG_4412WEB.jpg,Bilder Silje,787570
2a_IMG_0284WEB.jpg,Bilder Silje,788988
24_IMG_2797WEB.jpg,Bilder Silje,792361
58a_IMG_5851WEB.jpg,Bilder Silje,798231
53b_IMG_5608WEB.jpg,Bilder Silje,803033
54a_IMG_5582WEB.jpg,Bilder Silje,804853
GG0711a_000356_1.jpg,Resten,805354
43a_IMG_0367WEB.jpg,Bilder Silje,805969
52d_MG_9362WEB.jpg,Bilder Silje,811661
14c_MG_8333WEB.jpg,Bilder Silje,813094
10_1_IMG_6415WEB.jpg,Bilder Silje,816970
03_1_IMG_6348WEB.jpg,Bilder Silje,817505
7b_IMG_4105WEB.jpg,Bilder Silje,821327
02_4_IMG_6346WEB.jpg,Bilder Silje,822231
36a_IMG_0308WEB.jpg,Bilder Silje,822975
64b_IMG_6200WEB.jpg,Bilder Silje,823677
30c_MG_8745WEB.jpg,Bilder Silje,824803
17_1_IMG_7366WEB.jpg,Bilder Silje,827693
02_2_IMG_6344WEB.jpg,Bilder Silje,828672
02_3_IMG_6345WEB.jpg,Bilder Silje,831389
03_2_IMG_6349WEB.jpg,Bilder Silje,833530
54b_IMG_5596WEB.jpg,Bilder Silje,839229
61b_MG_9454WEB.jpg,Bilder Silje,840527
54c_IMG_5601WEB.jpg,Bilder Silje,840562
12f_IMG_5728WEB.jpg,Bilder Silje,842241
11a_IMG_7384.jpg,Bilder Silje,842679
05_6_IMG_6388WEB.jpg,Bilder Silje,850249
8a_IMG_4037WEB.jpg,Bilder Silje,851358
37b_IMG_0324WEB.jpg,Bilder Silje,861497
18_1_IMG_7368WEB.jpg,Bilder Silje,866627
17_2_IMG_7365WEB.jpg,Bilder Silje,867118
4a_IMG_1198WEB.jpg,Bilder Silje,867740
7a_IMG_4090WEB.jpg,Bilder Silje,868921
46b_IMG_0401WEB.jpg,Bilder Silje,869891
36b_IMG_0312WEB.jpg,Bilder Silje,875497
1b_IMG_0242WEB.jpg,Bilder Silje,876214
5a_IMG_2838WEB.jpg,Bilder Silje,879927
39b_IMG_0339WEB.jpg,Bilder Silje,881171
10_4_IMG_6420WEB.jpg,Bilder Silje,882827
66a_IMG_6166WEB.jpg,Bilder Silje,882898
13_1_IMG_6432WEB.jpg,Bilder Silje,885276
6a_IMG_2840WEB.jpg,Bilder Silje,890780
47a_IMG_0407WEB.jpg,Bilder Silje,891043
13f_IMG_5702WEB.jpg,Bilder Silje,891749
41b_IMG_0358WEB.jpg,Bilder Silje,891877
12g_IMG_5714WEB.jpg,Bilder Silje,894235
11_2_IMG_6427WEB.jpg,Bilder Silje,894894
1b_IMG_0274WEB.jpg,Bilder Silje,899267
39a_IMG_0334WEB.jpg,Bilder Silje,906374
4c_IMG_4356WEB.jpg,Bilder Silje,908379
6g_IMG_4430WEB.jpg,Bilder Silje,908465
06_2_IMG_6387WEB.jpg,Bilder Silje,908989
26_IMG_2805WEB.jpg,Bilder Silje,909389
13_2_IMG_6435WEB.jpg,Bilder Silje,911179
50b_IMG_5756WEB.jpg,Bilder Silje,912341
46a_IMG_0396WEB.jpg,Bilder Silje,914909
03_5_IMG_6353WEB.jpg,Bilder Silje,919331
4b_IMG_1200WEB.jpg,Bilder Silje,925005
02_1_IMG_6339WEB.jpg,Bilder Silje,926531
13_3_IMG_6436WEB.jpg,Bilder Silje,926546
38a_IMG_0326WEB.jpg,Bilder Silje,927832
06_1_IMG_6382WEB.jpg,Bilder Silje,938532
30a_IMG_2990WEB.jpg,Bilder Silje,939557
37a_IMG_0322WEB.jpg,Bilder Silje,939868
01_44_IMG_6312WEB.jpg,Bilder Silje,942269
20c_MG_8381WEB.jpg,Bilder Silje,943022
4c_IMG_1205WEB.jpg,Bilder Silje,945558
46c_IMG_0406WEB.jpg,Bilder Silje,948013
18_2_IMG_7367WEB.jpg,Bilder Silje,959461
36c_MG_8939WEB.jpg,Bilder Silje,959838
6b_IMG_1627WEB.jpg,Bilder Silje,976011
46c_MG_9039WEB.jpg,Bilder Silje,977250
44a_IMG_0383WEB.jpg,Bilder Silje,977382
01_48_IMG_6322WEB 2.jpg,Bilder Silje,983647
12a_IMG_7374.jpg,Bilder Silje,983886
05_8_IMG_7336WEB.jpg,Bilder Silje,985971
01_48_IMG_6322WEB.jpg,Bilder Silje,989967
01_27_IMG_6272WEB.jpg,Bilder Silje,992256
GA_000356_S2.jpg,Bilder Silje,994328
01_45_IMG_6313WEB.jpg,Bilder Silje,999755
01_45_IMG_6313WEB 2.jpg,Bilder Silje,999759
36a_MG_8931WEB.jpg,Bilder Silje,1000985
01_19_IMG_6264WEB.jpg,Bilder Silje,1002573
38b_IMG_0332WEB.jpg,Bilder Silje,1003192
19_1_IMG_7374WEB.jpg,Bilder Silje,1004933
05_10_IMG_7339WEB.jpg,Bilder Silje,1011332
35c_MG_8926WEB.jpg,Bilder Silje,1012670
13a_MG_8326WEB.jpg,Bilder Silje,1015356
63b_IMG_3872WEB.jpg,Bilder Silje,1015431
12b_IMG_7373.jpg,Bilder Silje,1027512
12c_IMG_5525WEB.jpg,Bilder Silje,1027572
5b_IMG_3946WEB.jpg,Bilder Silje,1029274
GG0711a_000524 2.jpg,Resten,1029335
47b_IMG_0411WEB.jpg,Bilder Silje,1033623
41a_IMG_0350WEB.jpg,Bilder Silje,1035008
12b_IMG_5524WEB.jpg,Bilder Silje,1036090
11b_MG_8314WEB.jpg,Bilder Silje,1040129
62a_IMG_1261WEB.jpg,Bilder Silje,1045593
5a_MG_8267WEB.jpg,Bilder Silje,1047727
3b_IMG_1187WEB.jpg,Bilder Silje,1049057
11_1_IMG_6425WEB.jpg,Bilder Silje,1051137
05_9_IMG_7338WEB.jpg,Bilder Silje,1053291
19_2__IMG_7373WEB.jpg,Bilder Silje,1056943
gg0802_000159.jpg,Resten,1058253
40a_MG_8971WEB.jpg,Bilder Silje,1063223
6b_MG_8277WEB.jpg,Bilder Silje,1064407
13b_MG_8330WEB.jpg,Bilder Silje,1065695
01_17_IMG_6262WEB.jpg,Bilder Silje,1069124
17a_MG_8361WEB.jpg,Bilder Silje,1071687
10_3_IMG_6419WEB.jpg,Bilder Silje,1071900
3b_MG_8252WEB.jpg,Bilder Silje,1072534
01_29_IMG_6275WEB.jpg,Bilder Silje,1077656
3a_IMG_1176WEB.jpg,Bilder Silje,1079016
54d_MG_9406WEB.jpg,Bilder Silje,1079123
54a_MG_9395WEB.jpg,Bilder Silje,1086578
01_18_IMG_6263WEB.jpg,Bilder Silje,1088665
20a__MG_8377WEB.jpg,Bilder Silje,1088892
25_IMG_2801WEB.jpg,Bilder Silje,1091409
1c__MG_8236WEB.jpg,Bilder Silje,1099728
17c_MG_8353WEB.jpg,Bilder Silje,1101567
01_13_IMG_6256WEB.jpg,Bilder Silje,1103623
11c_IMG_2896WEB.jpg,Bilder Silje,1107762
2a_IMG_1643WEB.jpg,Bilder Silje,1114691
01_6_IMG_6247WEB.jpg,Bilder Silje,1116156
45a_IMG_0389WEB.jpg,Bilder Silje,1122717
12b_MG_8321WEB.jpg,Bilder Silje,1125524
01_20_IMG_6265WEB.jpg,Bilder Silje,1125807
9_IMG_2393WEB.jpg,Bilder Silje,1126293
41c_MG_8987WEB.jpg,Bilder Silje,1127939
38a_MG_8953WEB.jpg,Bilder Silje,1131457
19c_IMG_0434Web.jpg,Bilder Silje,1135141
19a_MG_8369WEB.jpg,Bilder Silje,1135226
5a_IMG_3936WEB.jpg,Bilder Silje,1136445
33a_MG_8897WEB.jpg,Bilder Silje,1136747
72c_IMG_5993WEB.jpg,Bilder Silje,1140194
45c_MG_9024WEB.jpg,Bilder Silje,1143124
32a_MG_8889WEB.jpg,Bilder Silje,1143532
26c_IMG_0488Web.jpg,Bilder Silje,1145357
19d_MG_8370WEB.jpg,Bilder Silje,1147848
05_11_IMG_7341WEB.jpg,Bilder Silje,1149976
01_14_IMG_6258WEB.jpg,Bilder Silje,1154258
01_16_IMG_6260WEB.jpg,Bilder Silje,1155028
24c_IMG_0474Web.jpg,Bilder Silje,1157374
42c_MG_8995WEB.jpg,Bilder Silje,1163127
9b_IMG_0235WEB.jpg,Bilder Silje,1164377
37a_MG_8942WEB.jpg,Bilder Silje,1168637
58b_MG_9438WEB.jpg,Bilder Silje,1172150
01_47_IMG_6319WEB.jpg,Bilder Silje,1176468
01_47_IMG_6319WEB 2.jpg,Bilder Silje,1176472
01_1_IMG_6241WEB.jpg,Bilder Silje,1176644
8a_IMG_4374WEB.jpg,Bilder Silje,1179630
01_10_IMG_6253WEB.jpg,Bilder Silje,1180371
26b__MG_8708WEB.jpg,Bilder Silje,1182681
01_15_IMG_6259WEB.jpg,Bilder Silje,1183483
01_23_IMG_6268WEB.jpg,Bilder Silje,1186485
72a_IMG_5979WEB.jpg,Bilder Silje,1187235
49a_MG_9064WEB.jpg,Bilder Silje,1187701
01_26_IMG_6271WEB.jpg,Bilder Silje,1191639
DSC_0402.jpg,Resten,1192951
01_11_IMG_6254WEB.jpg,Bilder Silje,1196887
11b_IMG_2888WEB.jpg,Bilder Silje,1197527
48b_MG_9060WEB.jpg,Bilder Silje,1199884
40c_MG_8976WEB.jpg,Bilder Silje,1201158
35a_MG_8922WEB.jpg,Bilder Silje,1202548
44c_MG_9016WEB.jpg,Bilder Silje,1203804
18c_IMG_0416Web.jpg,Bilder Silje,1205946
4c_MG_8259WEB.jpg,Bilder Silje,1206998
01_12_IMG_6255WEB.jpg,Bilder Silje,1207637
01_28_IMG_6273WEB.jpg,Bilder Silje,1209406
01_4_IMG_6245WEB.jpg,Bilder Silje,1210504
43c_MG_9008WEB.jpg,Bilder Silje,1211003
1c_IMG_4014WEB.jpg,Bilder Silje,1211138
29c_IMG_0500Web.jpg,Bilder Silje,1213351
48c_MG_9061WEB.jpg,Bilder Silje,1213678
01_5_IMG_6246WEB.jpg,Bilder Silje,1213884
34c_IMG_0551Web.jpg,Bilder Silje,1214449
GA_000347_S3.jpg,Bilder Silje,1215299
47c_IMG_0680Web.jpg,Bilder Silje,1215523
30c_IMG_0511Web.jpg,Bilder Silje,1215945
56c_IMG_0719Web.jpg,Bilder Silje,1216071
10c_IMG_0312Web.jpg,Bilder Silje,1216253
01_35_IMG_6282WEB.jpg,Bilder Silje,1217478
01_22_IMG_6267WEB.jpg,Bilder Silje,1218747
34c_MG_8917WEB.jpg,Bilder Silje,1224189
65c_IMG_0768Web.jpg,Bilder Silje,1227497
2a_IMG_1561WEB.jpg,Bilder Silje,1227905
22c_IMG_0451Web.jpg,Bilder Silje,1229928
4c_IMG_3962WEB.jpg,Bilder Silje,1231740
14a_MG_8337WEB.jpg,Bilder Silje,1233080
42d_MG_8996WEB.jpg,Bilder Silje,1233240
2b_IMG_3922WEB.jpg,Bilder Silje,1233628
66c_IMG_0778Web.jpg,Bilder Silje,1234216
46a_MG_9032WEB.jpg,Bilder Silje,1235104
8a_IMG_2845WEB.jpg,Bilder Silje,1236024
23c_IMG_0463Web.jpg,Bilder Silje,1236100
3a_IMG_1577WEB.jpg,Bilder Silje,1236898
59b_IMG_5871WEB.jpg,Bilder Silje,1237099
34a_MG_8910WEB.jpg,Bilder Silje,1238376
49c_MG_9068WEB.jpg,Bilder Silje,1242576
01_21_IMG_6266WEB.jpg,Bilder Silje,1244885
11a_IMG_2879WEB.jpg,Bilder Silje,1245200
10c_MG_8304WEB.jpg,Bilder Silje,1245535
40d_MG_8979WEB.jpg,Bilder Silje,1245949
01_24_IMG_6269WEB.jpg,Bilder Silje,1247273
01_7_IMG_6249WEB.jpg,Bilder Silje,1248197
36b_IMG_0567Web.jpg,Bilder Silje,1250148
72b_IMG_5982WEB.jpg,Bilder Silje,1252720
45a_MG_9019WEB.jpg,Bilder Silje,1253062
24a_IMG_1479WEB.jpg,Bilder Silje,1253324
01_3_IMG_6244WEB.jpg,Bilder Silje,1254518
45b_IMG_0665Web.jpg,Bilder Silje,1255313
2c_IMG_0801Web.jpg,Bilder Silje,1255564
2c_IMG_3916WEB.jpg,Bilder Silje,1257035
53b_IMG_0706Web.jpg,Bilder Silje,1257192
7b_IMG_0212WEB.jpg,Bilder Silje,1257220
2d_IMG_0806Web.jpg,Bilder Silje,1258949
39a_MG_8963WEB.jpg,Bilder Silje,1259238
50a_IMG_0698Web.jpg,Bilder Silje,1260398
47b_MG_9043WEB.jpg,Bilder Silje,1263871
01_46_IMG_6317WEB.jpg,Bilder Silje,1264185
36a_IMG_0565Web.jpg,Bilder Silje,1264762
26b_IMG_0484Web.jpg,Bilder Silje,1264926
GA_LH_000056_W2.jpg,Resten,1265033
9b_IMG_4049WEB.jpg,Bilder Silje,1265714
62a_MG_9464WEB.jpg,Bilder Silje,1266772
28a_MG_8724WEB.jpg,Bilder Silje,1268168
01_46_IMG_6317WEB 2.jpg,Bilder Silje,1270513
1b_IMG_0151WEB.jpg,Bilder Silje,1270660
25a_IMG_0476Web.jpg,Bilder Silje,1273652
43a_MG_8999WEB.jpg,Bilder Silje,1273869
6a_IMG_3975WEB.jpg,Bilder Silje,1274787
16a_MG_8350WEB.jpg,Bilder Silje,1276556
12c_IMG_0872Web.jpg,Bilder Silje,1277129
9a_IMG_0230WEB.jpg,Bilder Silje,1277771
7a_IMG_3887WEB.jpg,Bilder Silje,1278016
4b_IMG_3948WEB.jpg,Bilder Silje,1278235
01_9_IMG_6252WEB.jpg,Bilder Silje,1278390
55b_MG_9418WEB.jpg,Bilder Silje,1278722
11a_IMG_4061WEB.jpg,Bilder Silje,1278866
53a_IMG_0705Web.jpg,Bilder Silje,1280769
2b_IMG_0164WEB.jpg,Bilder Silje,1281304
30_IMG_7535WEB.jpg,Bilder Silje,1281715
5b_IMG_0191WEB.jpg,Bilder Silje,1281756
3a_IMG_7631WEB.jpg,Bilder Silje,1284307
23c_IMG_1463WEB.jpg,Bilder Silje,1284651
18a_IMG_2927WEB.jpg,Bilder Silje,1285126
7b_IMG_3894WEB.jpg,Bilder Silje,1288762
43b_MG_9000WEB.jpg,Bilder Silje,1288776
45a_IMG_0663Web.jpg,Bilder Silje,1288998
24b_IMG_1482WEB.jpg,Bilder Silje,1289045
50b_IMG_0699Web.jpg,Bilder Silje,1290365
24b_IMG_5360WEB.jpg,Bilder Silje,1291291
11b_IMG_0854Web.jpg,Bilder Silje,1291328
17c_IMG_1296WEB.jpg,Bilder Silje,1291365
69b_IMG_0789Web.jpg,Bilder Silje,1291644
4aIMG_3955WEB.jpg,Bilder Silje,1292740
17b_IMG_0401Web.jpg,Bilder Silje,1294477
4d_MG_8256WEB.jpg,Bilder Silje,1296642
34b_IMG_0546Web.jpg,Bilder Silje,1298806
01_31_IMG_6278WEB.jpg,Bilder Silje,1299003
60d_IMG_5892WEB.jpg,Bilder Silje,1301205
8a_MG_8295WEB.jpg,Bilder Silje,1301448
23a_MG_8679WEB.jpg,Bilder Silje,1301567
44a_IMG_0659Web.jpg,Bilder Silje,1302442
27b_MG_8718WEB.jpg,Bilder Silje,1303217
16d_IMG_5185WEB.jpg,Bilder Silje,1303852
52c_MG_9357WEB.jpg,Bilder Silje,1304642
13_4_IMG_6439WEB.jpg,Bilder Silje,1305637
11b_IMG_4064WEB.jpg,Bilder Silje,1307835
17a_IMG_0391Web.jpg,Bilder Silje,1309524
3b_IMG_3998WEB.jpg,Bilder Silje,1309544
29b_IMG_0499Web.jpg,Bilder Silje,1310712
31a_MG_9322WEB.jpg,Bilder Silje,1310735
11a_IMG_0852Web.jpg,Bilder Silje,1311068
01_25_IMG_6270WEB.jpg,Bilder Silje,1311158
5a_IMG_4144WEB.jpg,Bilder Silje,1313701
2c_IMG_1327WEB.jpg,Bilder Silje,1314421
21a__MG_8652WEB.jpg,Bilder Silje,1314642
57e_IMG_5839WEB.jpg,Bilder Silje,1315782
13b_IMG_0338Web.jpg,Bilder Silje,1319501
31b_MG_8882WEB.jpg,Bilder Silje,1319643
35b_IMG_0561Web.jpg,Bilder Silje,1319828
9a_IMG_0849Web.jpg,Bilder Silje,1320363
11d_IMG_7377.jpg,Bilder Silje,1321643
01_8_IMG_6250WEB.jpg,Bilder Silje,1321803
51a_MG_9327WEB.jpg,Bilder Silje,1324463
52b_MG_9348WEB.jpg,Bilder Silje,1324744
33b_IMG_2172WEB.jpg,Bilder Silje,1326248
15b_IMG_0876Web.jpg,Bilder Silje,1326434
24a_MG_8687WEB.jpg,Bilder Silje,1326578
29_IMG_7534WEB.jpg,Bilder Silje,1327931
19a_IMG_0424Web.jpg,Bilder Silje,1330945
14a_IMG_7808.jpg,Bilder Silje,1331401
35a_IMG_0559Web.jpg,Bilder Silje,1331931
71a_IMG_6035WEB.jpg,Bilder Silje,1335088
DSC_0397.jpg,Resten,1335104
60c_IMG_5889WEB.jpg,Bilder Silje,1335224
01_34_IMG_6281WEB.jpg,Bilder Silje,1336198
25c_MG_8700WEB.jpg,Bilder Silje,1336546
9a_IMG_4040WEB.jpg,Bilder Silje,1337023
15a_IMG_0877Web.jpg,Bilder Silje,1337216
27a_IMG_0492Web.jpg,Bilder Silje,1337696
9b_MG_8300WEB.jpg,Bilder Silje,1337755
gg0803_000092.jpg,Resten,1338711
gg0703a_000281.jpg,Resten,1339066
13a_IMG_5538WEB.jpg,Bilder Silje,1341055
18a_MG_8366WEB.jpg,Bilder Silje,1341094
29c_MG_8740WEB.jpg,Bilder Silje,1341386
9b_IMG_0850Web.jpg,Bilder Silje,1341730
25a_IMG_5483WEB.jpg,Bilder Silje,1342250
42b__MG_8992WEB.jpg,Bilder Silje,1343886
21b_IMG_7747WEB.jpg,Bilder Silje,1344004
DSC_0396.jpg,Resten,1344350
33b__MG_8898WEB.jpg,Bilder Silje,1344434
6a_MG_8278WEB.jpg,Bilder Silje,1345724
69a_IMG_0788Web.jpg,Bilder Silje,1345994
DSC_0395.jpg,Resten,1346212
7a_IMG_0206WEB.jpg,Bilder Silje,1347434
8b_IMG_0238Web.jpg,Bilder Silje,1348628
34b_IMG_2184WEB.jpg,Bilder Silje,1349888
28_IMG_7527WEB.jpg,"Bilder Silje,Resten",1349932
01_37_IMG_6286WEB.jpg,Bilder Silje,1351353
52b_IMG_0704Web.jpg,Bilder Silje,1352164
01_33_IMG_6280WEB.jpg,Bilder Silje,1352988
17b_IMG_1291WEB.jpg,Bilder Silje,1353114
10b_IMG_0309Web.jpg,Bilder Silje,1353310
16b_IMG_0879Web.jpg,Bilder Silje,1354756
27a_MG_8715WEB.jpg,Bilder Silje,1355266
48a_IMG_0933Web.jpg,Bilder Silje,1355834
GA_LH_000043_5.jpg,Resten,1356048
19b_IMG_0429Web.jpg,Bilder Silje,1356864
12a_IMG_5512WEB.jpg,Bilder Silje,1360398
34a_IMG_2180WEB.jpg,Bilder Silje,1361879
60a_IMG_5886WEB.jpg,Bilder Silje,1363759
22a_IMG_0447Web.jpg,Bilder Silje,1364443
48b_IMG_0934Web.jpg,Bilder Silje,1365091
4b_IMG_4351WEB.jpg,Bilder Silje,1366727
70a_IMG_6042WEB.jpg,Bilder Silje,1368302
16a_IMG_0880Web.jpg,Bilder Silje,1368748
29a_MG_8736WEB.jpg,Bilder Silje,1370806
16a_IMG_5170WEB.jpg,Bilder Silje,1371337
2a_IMG_1316WEB.jpg,Bilder Silje,1371766
1a_IMG_0147WEB.jpg,Bilder Silje,1372871
GA_LH_000043_2.jpg,Resten,1376035
DSC_0394.jpg,Resten,1377051
57c_IMG_5833WEB.jpg,Bilder Silje,1377076
30b_IMG_2138WEB.jpg,Bilder Silje,1377956
26a_IMG_0482Web.jpg,Bilder Silje,1379205
22c_MG_8670WEB.jpg,Bilder Silje,1379819
29a_IMG_0498Web.jpg,Bilder Silje,1380614
16c_IMG_0389Web.jpg,Bilder Silje,1380701
11d_IMG_4070WEB.jpg,Bilder Silje,1381979
01_2_IMG_6243WEB.jpg,Bilder Silje,1383671
32a_IMG_2160WEB.jpg,Bilder Silje,1385222
51c_MG_9335WEB.jpg,Bilder Silje,1385989
65a_IMG_6190WEB.jpg,Bilder Silje,1386288
6a_IMG_7651WEB.jpg,Bilder Silje,1387369
GA_000347_S4.jpg,Bilder Silje,1389471
59b_IMG_0733Web.jpg,Bilder Silje,1390287
8b_IMG_4028WEB.jpg,Bilder Silje,1390520
32c_MG_8893WEB.jpg,Bilder Silje,1390551
67a_IMG_0781Web.jpg,Bilder Silje,1391958
1a_IMG_0793Web.jpg,Bilder Silje,1392825
57a_IMG_0727Web.jpg,Bilder Silje,1395114
2a_IMG_1422WEB.jpg,Bilder Silje,1397401
21c_IMG_5300WEB.jpg,Bilder Silje,1398061
61d_MG_9458WEB.jpg,Bilder Silje,1399351
52a_IMG_0703Web.jpg,Bilder Silje,1401132
23b_MG_8682WEB.jpg,Bilder Silje,1402890
GA_LH_000036_3.jpg,Resten,1406281
21a_IMG_0442Web.jpg,Bilder Silje,1406489
25b_IMG_0479Web.jpg,Bilder Silje,1406515
28c_MG_8732WEB.jpg,Bilder Silje,1406780
1c_IMG_4363WEB.jpg,Bilder Silje,1407152
2b_IMG_1427WEB.jpg,Bilder Silje,1408697
39c_MG_8967WEB.jpg,Bilder Silje,1411521
2c_MG_8244WEB.jpg,Bilder Silje,1411991
9d_MG_8296WEB.jpg,Bilder Silje,1412179
21b_IMG_5294WEB.jpg,Bilder Silje,1412445
32b_IMG_2164WEB.jpg,Bilder Silje,1412482
51b_IMG_0702Web.jpg,Bilder Silje,1413959
gg0610b_000304.jpg,Resten,1415017
5c_IMG_4126WEB.jpg,Bilder Silje,1415998
4b_MG_8260WEB.jpg,Bilder Silje,1416027
59a_IMG_0732Web.jpg,Bilder Silje,1417156
65a_IMG_0760Web.jpg,Bilder Silje,1418837
57g_IMG_5845WEB.jpg,Bilder Silje,1418854
GA_LH_000038_3.jpg,Resten,1419755
01_30_IMG_6277WEB.jpg,Bilder Silje,1420095
28a_IMG_0891Web.jpg,Bilder Silje,1421052
17a_IMG_1289WEB.jpg,Bilder Silje,1421450
21b_IMG_0444Web.jpg,Bilder Silje,1423373
12a_IMG_2228WEB.jpg,Bilder Silje,1425409
10a_IMG_0308Web.jpg,Bilder Silje,1425417
41b_IMG_0925Web.jpg,Bilder Silje,1425886
12a_IMG_7674WEB.jpg,Bilder Silje,1427431
1a_IMG_1642WEB.jpg,Bilder Silje,1428560
6b_IMG_0202WEB.jpg,Bilder Silje,1428939
GA_LH_000060_W1.jpg,Resten,1429334
52e_MG_9365WEB.jpg,Bilder Silje,1431109
29a_IMG_2976WEB.jpg,Bilder Silje,1431124
43c_IMG_0370WEB.jpg,Bilder Silje,1432107
13d_IMG_5549WEB.jpg,Bilder Silje,1432726
1a_IMG_4357WEB.jpg,Bilder Silje,1433909
39a_IMG_0609Web.jpg,Bilder Silje,1434195
23a_IMG_1460WEB.jpg,Bilder Silje,1434370
28a_IMG_2112WEB.jpg,Bilder Silje,1434451
14b_MG_8334WEB.jpg,Bilder Silje,1434716
4b_IMG_0181WEB.jpg,Bilder Silje,1438474
21d_IMG_5306WEB.jpg,Bilder Silje,1440590
21c_IMG_7748WEB.jpg,Bilder Silje,1441024
8c_MG_8291WEB.jpg,Bilder Silje,1441167
4a_IMG_1591WEB.jpg,Bilder Silje,1441240
58c_IMG_5862WEB.jpg,Bilder Silje,1441397
36c_IMG_0569Web.jpg,Bilder Silje,1442688
5a_IMG_4393WEB.jpg,"Bilder Silje,Resten",1442722
10a_IMG_2985WEB.jpg,Bilder Silje,1443180
GA_LH_000043_8.jpg,Resten,1443213
65b_IMG_0763Web.jpg,Bilder Silje,1443461
18a_IMG_0405Web.jpg,Bilder Silje,1443514
GA_000344_S2.jpg,Bilder Silje,1444286
4b_IMG_0825Web.jpg,Bilder Silje,1447064
13a_IMG_0337Web.jpg,Bilder Silje,1447928
2b_IMG_1324WEB.jpg,Bilder Silje,1449992
15_3_IMG_7346WEB.jpg,Bilder Silje,1450343
25a_IMG_1486WEB.jpg,Bilder Silje,1450703
57b_IMG_0725Web.jpg,Bilder Silje,1452772
33a_IMG_2168WEB.jpg,Bilder Silje,1452901
34a_IMG_0544Web.jpg,Bilder Silje,1455002
27d_MG_8723WEB.jpg,Bilder Silje,1457363
29a_IMG_2123WEB.jpg,Bilder Silje,1457632
68b_IMG_0784Web.jpg,Bilder Silje,1459534
26a_IMG_2094WEB.jpg,Bilder Silje,1461053
54b_MG_9399WEB.jpg,Bilder Silje,1461831
DSC_0398.jpg,Resten,1462636
66a_IMG_0770Web.jpg,Bilder Silje,1465782
60b_IMG_5916WEB.jpg,Bilder Silje,1466892
GA_000307_S1.jpg,Bilder Silje,1466911
24b_IMG_0885Web.jpg,Bilder Silje,1467462
gg0610b_000209 2.jpg,Resten,1469265
66b_IMG_6147WEB.jpg,Bilder Silje,1469293
22b_IMG_0450Web.jpg,Bilder Silje,1470721
01_32_IMG_6279WEB.jpg,Bilder Silje,1474150
31b_IMG_2152WEB.jpg,Bilder Silje,1474687
35a_IMG_2188WEB.jpg,Bilder Silje,1474874
39b_IMG_0920Web.jpg,Bilder Silje,1474893
GA_LH_000044_W1.jpg,Resten,1475325
5a_IMG_0186WEB.jpg,Bilder Silje,1475454
GA_LH_000036_5.jpg,Resten,1476247
10a_IMG_4076WEB.jpg,Bilder Silje,1476461
33b_IMG_0906Web.jpg,Bilder Silje,1476737
15a_IMG_7804.jpg,Bilder Silje,1476765
17b_IMG_4578WEB.jpg,Resten,1477805
6b_IMG_4406WEB.jpg,Bilder Silje,1477919
GA_LH_000043_10.jpg,Resten,1479228
58b_IMG_0729Web.jpg,Bilder Silje,1480383
66b_IMG_0772Web.jpg,Bilder Silje,1483677
9b_IMG_2297WEB.jpg,Bilder Silje,1484244
25b_IMG_1498WEB.jpg,Bilder Silje,1484303
58a_IMG_0728Web.jpg,Bilder Silje,1484341
56b_IMG_0715Web.jpg,Bilder Silje,1485920
51a_IMG_0701Web.jpg,Bilder Silje,1487732
49a_IMG_0688Web.jpg,Bilder Silje,1488534
41a_IMG_0923Web.jpg,Bilder Silje,1489751
gg0803_000107b.jpg,Resten,1489848
54b_IMG_0931Web.jpg,Bilder Silje,1492287
5b_IMG_0816Web.jpg,Bilder Silje,1492832
62b_IMG_0751Web.jpg,Bilder Silje,1493309
57b_IMG_5830WEB.jpg,Bilder Silje,1493530
29d_IMG_0512Web.jpg,Bilder Silje,1494189
6b_IMG_0838Web.jpg,Bilder Silje,1494587
31a_IMG_2147WEB.jpg,Bilder Silje,1495777
40b_IMG_0613Web.jpg,Bilder Silje,1495834
3b_IMG_0810Web.jpg,Bilder Silje,1496281
32b_IMG_0903Web.jpg,Bilder Silje,1497127
46a_IMG_0670Web.jpg,Bilder Silje,1497298
30c_IMG_2143WEB.jpg,Bilder Silje,1497492
30a_IMG_0505Web.jpg,Bilder Silje,1498821
57a_IMG_5826WEB.jpg,Bilder Silje,1499370
68a_IMG_0783Web.jpg,Bilder Silje,1500328
6a_IMG_0196WEB.jpg,Bilder Silje,1501232
55c_IMG_1607WEB.jpg,Bilder Silje,1502908
22h_IMG_7757WEB.jpg,Bilder Silje,1503130
GA_000356_S1.jpg,Bilder Silje,1503366
GA_LH_000036_4.jpg,Resten,1504638
54a_IMG_0930Web.jpg,Bilder Silje,1505115
56b_MG_9425WEB.jpg,Bilder Silje,1505157
26b_IMG_2098WEB.jpg,Bilder Silje,1508272
61c_MG_9457WEB.jpg,Bilder Silje,1508478
GA_000347_S2.jpg,Bilder Silje,1511745
31b_IMG_0899Web.jpg,Bilder Silje,1512072
60a_IMG_0739Web.jpg,Bilder Silje,1512203
33a_IMG_0905Web.jpg,Bilder Silje,1512730
GA_LH_000038_2.jpg,Resten,1514815
41a_MG_8983WEB.jpg,Bilder Silje,1517237
38b_IMG_0918Web.jpg,Bilder Silje,1517554
62a_IMG_0750Web.jpg,Bilder Silje,1517558
GG0711a_000325_1.jpg,Resten,1517831
GA_000344_S6.jpg,Bilder Silje,1518047
11a_MG_8317WEB.jpg,Bilder Silje,1520553
43a_IMG_0649Web.jpg,Bilder Silje,1520663
20a_IMG_0435Web.jpg,Bilder Silje,1521078
4a_MG_8263WEB.jpg,Bilder Silje,1521364
10b_IMG_4080WEB.jpg,Bilder Silje,1523195
gg0803_000192.jpg,Resten,1523478
38a_IMG_0916Web.jpg,Bilder Silje,1523787
5a_IMG_0812Web.jpg,Bilder Silje,1524917
33c_IMG_2176WEB.jpg,Bilder Silje,1526240
gg0803_000050.jpg,Resten,1528650
49b_IMG_5490WEB.jpg,Bilder Silje,1529802
55b_IMG_0940Web.jpg,Bilder Silje,1529845
18b_IMG_0407Web.jpg,Bilder Silje,1531172
63a_IMG_0753Web.jpg,Bilder Silje,1531278
12a_IMG_0864Web.jpg,Bilder Silje,1531528
9c_IMG_4052WEB.jpg,Bilder Silje,1532878
18a_IMG_5225WEB.jpg,Bilder Silje,1532998
63b_IMG_0754Web.jpg,Bilder Silje,1533205
30a_IMG_2134WEB.jpg,Bilder Silje,1533701
GA_LH_000026_W1.jpg,Resten,1533806
2a_IMG_4452WEB.jpg,Bilder Silje,1533976
43b_IMG_0655Web.jpg,Bilder Silje,1534490
3a_IMG_0808Web.jpg,Bilder Silje,1534683
42a_IMG_0642Web.jpg,Bilder Silje,1535723
32a_IMG_0902Web.jpg,Bilder Silje,1535748
28b_IMG_0893Web.jpg,Bilder Silje,1536379
23a_IMG_0452Web.jpg,Bilder Silje,1538376
gg0610b_000022.jpg,Resten,1538425
GG0711a_000495.jpg,Resten,1538506
23b_IMG_0461Web.jpg,Bilder Silje,1539468
60b_IMG_0740Web.jpg,Bilder Silje,1540394
40a_IMG_0342WEB.jpg,Bilder Silje,1540646
62c__MG_9480WEB.jpg,Bilder Silje,1540852
6a_IMG_0836Web.jpg,Bilder Silje,1541753
27b_IMG_0888Web.jpg,Bilder Silje,1541993
37b_IMG_0909Web.jpg,Bilder Silje,1542226
22b_IMG_5315WEB.jpg,Bilder Silje,1542335
GA_000355_S2.jpg,Bilder Silje,1543049
GA_000358_S5.jpg,Bilder Silje,1543452
28b_IMG_2116WEB.jpg,Bilder Silje,1545769
62b_MG_9472WEB.jpg,Bilder Silje,1546878
60b_MG_9450WEB.jpg,Bilder Silje,1547153
15_2_IMG_7347WEB.jpg,Bilder Silje,1549217
GA_000307_S4.jpg,Bilder Silje,1550468
47b_IMG_0928Web.jpg,Bilder Silje,1552621
DSC_0389.jpg,Resten,1552788
GA_000355_S7.jpg,Bilder Silje,1553026
4a_IMG_0822Web.jpg,Bilder Silje,1553118
13b_IMG_5540WEB.jpg,Bilder Silje,1553204
64a_IMG_0755Web.jpg,Bilder Silje,1553929
GA_LH_000043_13.jpg,Resten,1554217
GA_000344_S1.jpg,Bilder Silje,1554872
8a_IMG_0226Web.jpg,Bilder Silje,1555779
64a_IMG_6210WEB.jpg,Bilder Silje,1556154
GA_LH_000043_12.jpg,Resten,1556951
55a_IMG_1600WEB.jpg,Bilder Silje,1557715
29b_IMG_2129WEB.jpg,Bilder Silje,1558027
DSC_0392.jpg,Resten,1560002
23a_IMG_3038WEB.jpg,Bilder Silje,1563099
5b_IMG_4149WEB.jpg,Bilder Silje,1566260
44b_MG_9012WEB.jpg,Bilder Silje,1566652
40a_IMG_0612Web.jpg,Bilder Silje,1566769
24a_IMG_0881Web.jpg,Bilder Silje,1567413
11b_IMG_2253WEB.jpg,Bilder Silje,1567442
21a_IMG_3024WEB.jpg,Bilder Silje,1569420
GA_000358_S1.jpg,Bilder Silje,1570120
55a_IMG_0935Web.jpg,Bilder Silje,1570785
GA_000307_S5.jpg,Bilder Silje,1570844
_DSC1288.jpg,Resten,1570892
12e_IMG_5737WEB.jpg,Bilder Silje,1572464
15b_MG_8342WEB.jpg,Bilder Silje,1572813
24a_IMG_3041WEB.jpg,Bilder Silje,1576910
GA_000361_S2.jpg,Bilder Silje,1577314
12b_IMG_0862Web.jpg,Bilder Silje,1579147
31c_IMG_2156WEB.jpg,Bilder Silje,1579444
GA_000343_S2.jpg,Bilder Silje,1580638
56a_IMG_0714Web.jpg,Bilder Silje,1581482
GA_000358_S4.jpg,Bilder Silje,1581959
1b_IMG_4362WEB.jpg,Bilder Silje,1582036
42b_IMG_0643Web.jpg,Bilder Silje,1582723
9a_IMG_2863WEB.jpg,Bilder Silje,1584178
GA_000358_S2.jpg,Bilder Silje,1584550
10c_IMG_4081WEB.jpg,Bilder Silje,1588353
GA_000361_S1.jpg,Bilder Silje,1588880
3c_MG_8251WEB.jpg,Bilder Silje,1592861
15c_MG_8338WEB.jpg,Bilder Silje,1593055
GA_000358_S3.jpg,Bilder Silje,1594344
GA_LH_000043_4.jpg,Resten,1594860
47a_IMG_0927Web.jpg,Bilder Silje,1594892
4c_IMG_0828Web.jpg,Bilder Silje,1595677
61b_IMG_0746Web.jpg,Bilder Silje,1597182
9a_MG_8303WEB.jpg,Bilder Silje,1597634
49d_IMG_5497WEB.jpg,Bilder Silje,1597854
gg0803_000221.jpg,Resten,1599947
01_36_IMG_6284WEB.jpg,Bilder Silje,1600225
GA_LH_000035_8.jpg,Resten,1603886
37a_IMG_0907Web.jpg,Bilder Silje,1604593
GA_LH_000088_W2b.jpg,Resten,1605740
31a_IMG_0898Web.jpg,Bilder Silje,1605900
11c_IMG_7378.jpg,Bilder Silje,1606465
GA_LH_000035_4.jpg,Resten,1608120
31a_MG_8746WEB.jpg,Bilder Silje,1608296
GA_000346_S2.jpg,Bilder Silje,1613707
GA_000307_S3.jpg,Bilder Silje,1614506
58d_IMG_5865WEB.jpg,Bilder Silje,1615164
2b_IMG_0799Web.jpg,Bilder Silje,1615370
GA_LH_000087_2.jpg,Resten,1617191
30b_IMG_0897Web.jpg,Bilder Silje,1617730
GA_LH_000035_6.jpg,Resten,1617904
48a_MG_9057WEB.jpg,Bilder Silje,1619417
4a_IMG_4347WEB.jpg,Bilder Silje,1620956
DSC_0393.jpg,Resten,1623618
gg0803_000060_1b.jpg,Resten,1623825
35b_IMG_2192WEB.jpg,Bilder Silje,1623920
13a_IMG_2208WEB.jpg,Bilder Silje,1624852
DSC_0386.jpg,Resten,1626498
20b_IMG_0438Web.jpg,Bilder Silje,1626547
61a_IMG_0744Web.jpg,Bilder Silje,1628807
4a_IMG_0176WEB.jpg,Bilder Silje,1628950
23b_IMG_1466WEB.jpg,Bilder Silje,1640108
14b_IMG_0342Web.jpg,Bilder Silje,1644710
GA_LH_000037_3b.jpg,Resten,1645473
67b_IMG_6116WEB.jpg,Bilder Silje,1646692
1b__MG_8231WEB.jpg,Bilder Silje,1650260
GA_000355_S1.jpg,Bilder Silje,1652880
16c_IMG_4569WEB.jpg,Resten,1657589
08_1_IMG_6403WEB.jpg,Bilder Silje,1659044
30_MG_8741WEB.jpg,Bilder Silje,1659494
3b_IMG_0171WEB.jpg,Bilder Silje,1660157
14a_IMG_0340Web.jpg,Bilder Silje,1660333
17a_IMG_4572WEB.jpg,Resten,1662768
1a__MG_8230WEB.jpg,Bilder Silje,1666816
20d_IMG_5285WEB.jpg,Bilder Silje,1667877
GA_LH_000058_W2.jpg,Resten,1670155
4d_IMG_0832Web.jpg,Bilder Silje,1671817
11c_IMG_0856Web.jpg,Bilder Silje,1671925
27a_IMG_2102WEB.jpg,Bilder Silje,1672359
GA_LH_000035_10.jpg,Resten,1678702
30b_MG_8744WEB.jpg,Bilder Silje,1681797
GA_LH_000072_1b.jpg,Resten,1682182
6b_IMG_7645WEB.jpg,Bilder Silje,1682702
16c_IMG_5179WEB.jpg,Bilder Silje,1684046
2c_IMG_1435WEB.jpg,Bilder Silje,1685117
GA_000356_S3.jpg,Bilder Silje,1689570
18d_IMG_5243WEB.jpg,Bilder Silje,1690560
63c_IMG_3873WEB.jpg,Bilder Silje,1691709
11c_IMG_4066WEB.jpg,Bilder Silje,1693110
51a_IMG_5652WEB.jpg,Bilder Silje,1695840
1b_IMG_1514WEB.jpg,Bilder Silje,1697814
40b_IMG_0347WEB.jpg,Bilder Silje,1699109
GA_000345_S1.jpg,Bilder Silje,1699114
19a_IMG_5249WEB.jpg,Bilder Silje,1699207
24a_IMG_5357WEB.jpg,Bilder Silje,1699358
4_IMG_2351WEB.jpg,Bilder Silje,1699380
9a_IMG_2288WEB.jpg,Bilder Silje,1699688
42a_IMG_0363WEB.jpg,Bilder Silje,1701087
23_IMG_2794WEB.jpg,Bilder Silje,1703477
1e_IMG_1533WEB.jpg,Bilder Silje,1703657
3a_MG_8255WEB.jpg,Bilder Silje,1704573
04_1_IMG_6357WEB.jpg,Bilder Silje,1705047
16a_IMG_4557WEB.jpg,Resten,1705191
GA_000359_S2.jpg,Bilder Silje,1708567
dsc_0009.jpg,Resten,1709420
5b_MG_8264WEB.jpg,Bilder Silje,1710878
22a_IMG_1448WEB.jpg,Bilder Silje,1712134
13b_IMG_2199WEB.jpg,Bilder Silje,1712327
16b_IMG_5173WEB.jpg,Bilder Silje,1712409
2a_IMG_0797Web.jpg,Bilder Silje,1714371
05_7_IMG_7323WEB.jpg,Bilder Silje,1717333
15_1_IMG_7352WEB.jpg,Bilder Silje,1717668
11a_IMG_4500WEB.jpg,Bilder Silje,1719257
8b_IMG_2258WEB.jpg,Bilder Silje,1722880
11a_IMG_2243WEB.jpg,Bilder Silje,1723606
gg0610b_000246c.jpg,Resten,1726575
44a_MG_9011WEB.jpg,Bilder Silje,1727516
1a_IMG_2830WEB.jpg,Bilder Silje,1727856
67a_IMG_6139WEB.jpg,Bilder Silje,1729053
dsc_0004.jpg,Resten,1731639
22c_IMG_5318WEB.jpg,Bilder Silje,1732790
9c_IMG_2301WEB.jpg,Bilder Silje,1734890
_DSC1279.jpg,Resten,1737537
DSC_0016.jpg,Resten,1740021
63a_IMG_3868WEB.jpg,Bilder Silje,1741168
13c_IMG_2222WEB.jpg,Bilder Silje,1741272
48a_IMG_0416WEB.jpg,Bilder Silje,1744932
GA_000343_S1.jpg,Bilder Silje,1745113
23d_IMG_0466Web.jpg,Bilder Silje,1746603
dsc_0001.jpg,Resten,1747668
GA_LH_000005_W1.jpg,Resten,1748254
DSC_0391.jpg,Resten,1748360
20c_IMG_5279WEB.jpg,Bilder Silje,1750211
10d_IMG_2858WEB.jpg,Bilder Silje,1750715
GA_LH_000099_W1.jpg,Resten,1753455
gg0610b_000312b.jpg,Resten,1754359
13e_IMG_5708WEB.jpg,Bilder Silje,1755965
GA_000355_S4.jpg,Bilder Silje,1757039
DSC_0399.jpg,Resten,1759591
_DSC1275.jpg,Resten,1759829
GA_000344_S3.jpg,Bilder Silje,1762640
GA_LH_000058_W1.jpg,Resten,1763054
GA_LH_000092_W2.jpg,Resten,1766163
16b_IMG_4563WEB.jpg,Resten,1768301
05_2_IMG_6372WEB.jpg,Bilder Silje,1768501
16_1_IMG_7357WEB.jpg,Bilder Silje,1769011
22_IMG_2791WEB.jpg,Bilder Silje,1769475
GA_000360_S2.jpg,Bilder Silje,1771889
GA_LH_000004_WEB2.jpg,Resten,1771905
27b_IMG_2106WEB.jpg,Bilder Silje,1775582
7a_IMG_0841Web.jpg,Bilder Silje,1780346
24m_IMG_7781WEB.jpg,Bilder Silje,1783392
GA_000355_S3.jpg,Bilder Silje,1785197
GA_LH_000065_2.jpg,Resten,1785388
GA_000346_S1.jpg,Bilder Silje,1787381
42c_IMG_0646Web.jpg,Bilder Silje,1787551
3a_IMG_0166WEB.jpg,Bilder Silje,1791448
7b_IMG_0842Web.jpg,Bilder Silje,1793289
GA_000357_S2.jpg,Bilder Silje,1793687
GA_000355_S5.jpg,Bilder Silje,1795221
1a_IMG_1556WEB.jpg,Bilder Silje,1799097
15d_IMG_5164WEB.jpg,Bilder Silje,1799272
61c_IMG_5812WEB.jpg,Bilder Silje,1800175
GA_000344_S5.jpg,Bilder Silje,1802739
dsc_0006.jpg,Resten,1803057
1d_IMG_1547WEB.jpg,Bilder Silje,1804086
GA_LH_000013_WEB5.jpg,Resten,1805315
57d_IMG_5836WEB.jpg,Bilder Silje,1805791
05_3_IMG_6376WEB.jpg,Bilder Silje,1806046
69a_IMG_6079WEB.jpg,Bilder Silje,1807190
19b_IMG_5252WEB.jpg,Bilder Silje,1807878
GA_LH_000082_W1.jpg,Resten,1808015
GA_000354_S3.jpg,Bilder Silje,1808141
24c_IMG_5367WEB.jpg,Bilder Silje,1808761
GA_LH_000030_7a.jpg,Resten,1809032
13g_IMG_5696WEB.jpg,Bilder Silje,1811999
8a_IMG_2263WEB.jpg,Bilder Silje,1812501
10b_IMG_2281WEB.jpg,Bilder Silje,1813114
04_2_IMG_6358WEB.jpg,Bilder Silje,1813603
02_5_IMG_6341WEB.jpg,Bilder Silje,1814961
gg0610b_000311.jpg,Resten,1815890
23a_IMG_7762WEB.jpg,Bilder Silje,1820824
18b_IMG_5231WEB.jpg,Bilder Silje,1822439
GA_LH_000006_WEB1.jpg,Resten,1825878
2a_IMG_0155WEB.jpg,Bilder Silje,1828166
59c_IMG_0734Web.jpg,Bilder Silje,1828270
07_1_IMG_7362WEB.jpg,Bilder Silje,1833966
49a_IMG_5488WEB.jpg,Bilder Silje,1835641
GA_LH_000033_1.jpg,Resten,1837884
gg0610b_000007.jpg,Resten,1838139
20b_IMG_5273WEB.jpg,Bilder Silje,1839115
GA_LH_000037_2.jpg,Resten,1841984
GA_LH_000078_B_W1.jpg,Resten,1842142
GA_000354_S1.jpg,Bilder Silje,1842286
05_1_IMG_6366WEB.jpg,Bilder Silje,1842331
21a_IMG_7746WEB.jpg,Bilder Silje,1843103
7d_IMG_0847Web.jpg,Bilder Silje,1844827
19a_IMG_2937WEB.jpg,Bilder Silje,1845472
7a_IMG_7652WEB.jpg,Bilder Silje,1846993
GA_LH_000038_1.jpg,Resten,1847586
2d_MG_8242WEB.jpg,Bilder Silje,1847935
49c_IMG_5493WEB.jpg,Bilder Silje,1849826
58b_IMG_5857WEB.jpg,Bilder Silje,1850081
44b_IMG_0388WEB.jpg,Bilder Silje,1850224
GA_000307_S2.jpg,Bilder Silje,1850338
24f_WEB.jpg,Bilder Silje,1855005
GA_LH_000043_11.jpg,Resten,1855353
15a_MG_8345WEB.jpg,Bilder Silje,1856259
GA_LH_000035_11b_1.jpg,Resten,1857707
GA_LH_000013_WEB7.jpg,Resten,1858925
22d_IMG_5324WEB.jpg,Bilder Silje,1860822
GA_000344_S4.jpg,Bilder Silje,1862069
8_IMG_2391WEB.jpg,Bilder Silje,1865615
GA_LH_000065_W1.jpg,Resten,1865844
GA_000357_S3.jpg,Bilder Silje,1867149
14_2_IMG_7344WEB.jpg,Bilder Silje,1868331
GA_LH_000065_1.jpg,Resten,1868666
gg0610b_000495b.jpg,Resten,1868771
GA_LH_000024_WEB1.jpg,Resten,1870301
gg0711a_000513.jpg,Resten,1871383
1_IMG_2341WEB.jpg,Bilder Silje,1873009
GA_000343_S3.jpg,Bilder Silje,1875418
22b_IMG_1454WEB.jpg,Bilder Silje,1877632
GA_LH_000013_WEB6.jpg,Resten,1879205
6a_IMG_4476WEB.jpg,Bilder Silje,1892673
GA_LH_000085_W2.jpg,Resten,1895603
GA_000355_S6.jpg,Bilder Silje,1897187
gg0803_000125.jpg,Resten,1900943
GA_000359_S1.jpg,Bilder Silje,1902631
GA_000347_S1.jpg,Bilder Silje,1906802
14_1_IMG_7343WEB.jpg,Bilder Silje,1911112
01_43_IMG_6307WEB.jpg,Bilder Silje,1912251
GA_LH_000043_6.jpg,Resten,1912490
01_42_IMG_6303WEB.jpg,Bilder Silje,1912525
GA_LH_000013_WEB4.jpg,Resten,1913323
GA_LH_000013_WEB3.jpg,Resten,1913679
arkiv_rygg.jpg,Resten,1916274
09_1_IMG_6407WEB.jpg,Bilder Silje,1919478
GA_000346_S3.jpg,Bilder Silje,1922115
53b_MG_9374WEB.jpg,Bilder Silje,1925571
GA_000009_A_WEB11.jpg,Resten,1925734
GA_LH_000086_3.jpg,Resten,1928264
GA_000354_S2.jpg,Bilder Silje,1928339
GA_LH_000067_W3b.jpg,Resten,1928685
19_IMG_2434WEB.jpg,Bilder Silje,1928871
GA_LH_000004_WEB.jpg,Resten,1933630
GA_LH_000059_W4b.jpg,Resten,1938765
gg0610b_000338c.jpg,Resten,1956747
01_41_IMG_6299WEB.jpg,Bilder Silje,1957045
GA_LH_000086_1.jpg,Resten,1961514
2_IMG_2345WEB.jpg,Bilder Silje,1965875
20_IMG_2437WEB.jpg,Bilder Silje,1966150
gg0711a_000468.jpg,Resten,1967459
10e_IMG_2859WEB.jpg,Bilder Silje,1967637
4a_IMG_4468WEB.jpg,Bilder Silje,1968698
GA_LH_000007_WEB3.jpg,Resten,1971810
10_IMG_2397WEB.jpg,Bilder Silje,1972918
DSC_0400.jpg,Resten,1976155
GA_LH_000100_W5.jpg,Resten,1976639
08a_IMG_7417.jpg,Bilder Silje,1978506
dsc_0101.jpg,Resten,1983043
GA_LH_000043_7.jpg,Resten,1983705
GA_000357_S1.jpg,Bilder Silje,1985388
GA_LH_000046_W1.jpg,Resten,1987919
GA_000009_A_WEB6.jpg,Resten,1988961
18c_IMG_5237WEB.jpg,Bilder Silje,1993644
7b_IMG_2269WEB.jpg,Bilder Silje,1993735
DSC_0364.jpg,Resten,1993858
gg0610b_000194_1.jpg,Resten,1994827
GA_LH_000135_W2.jpg,Resten,1997059
7a_IMG_2273WEB.jpg,Bilder Silje,2003037
14_IMG_2414WEB.jpg,Bilder Silje,2004633
GA_LH_000040_W2b.jpg,Resten,2007014
10a_IMG_7409.jpg,Bilder Silje,2008584
6_IMG_2384WEB.jpg,Bilder Silje,2011768
21_IMG_2786WEB.jpg,Bilder Silje,2012483
21a_IMG_5291WEB.jpg,Bilder Silje,2016044
09a_IMG_7414.jpg,Bilder Silje,2017565
GA_LH_000072_W1.jpg,Resten,2018092
GA_000346_S5.jpg,Bilder Silje,2020296
61a_IMG_5795WEB.jpg,Bilder Silje,2022675
68b_IMG_6092WEB.jpg,Bilder Silje,2023728
GA_LH_000011_WEB1.jpg,Resten,2028957
GA_LH_000080_2b.jpg,Resten,2032510
7c_IMG_0845Web.jpg,Bilder Silje,2035335
GA_LH_000062_W1.jpg,Resten,2037422
GA_000009_A_17.jpg,Resten,2038940
5b_IMG_4399WEB.jpg,"Bilder Silje,Resten",2041806
25a_IMG_7783WEB.jpg,Bilder Silje,2043606
45b_IMG_0394WEB.jpg,Bilder Silje,2043953
3a_IMG_4460WEB.jpg,Bilder Silje,2046292
15_IMG_2418WEB.jpg,Bilder Silje,2046474
GA_LH_000029_W1.jpg,Resten,2048220
14a_IMG_3007WEB.jpg,Bilder Silje,2049645
5a_IMG_7644WEB.jpg,Bilder Silje,2050716
10a_IMG_2277WEB.jpg,Bilder Silje,2053471
GA_LH_000028_W1.jpg,Resten,2054917
gg0610a_000426.jpg,Resten,2058527
10a_IMG_7668WEB.jpg,Bilder Silje,2066005
24l_IMG_7780WEB.jpg,Bilder Silje,2067680
61d_IMG_5910WEB.jpg,Bilder Silje,2069027
7b_IMG_4484WEB.jpg,Bilder Silje,2069539
2b_MG_8247WEB.jpg,Bilder Silje,2070626
GA_LH_000041_2.jpg,Resten,2076817
13a_IMG_7810.jpg,Bilder Silje,2079520
DSC_0366.jpg,Resten,2084055
17a_IMG_5197WEB.jpg,Bilder Silje,2085626
gg0803_000099_utsnitt.jpg,Resten,2089262
GA_LH_000095_W1.jpg,Resten,2102985
GA_LH_000032_W1.jpg,Resten,2106504
gg0701x_000106.jpg,Resten,2106886
10b_IMG_2855WEB.jpg,Bilder Silje,2107576
GA_LH_000059_W3b.jpg,Resten,2107886
01_39_IMG_6289WEB.jpg,Bilder Silje,2108853
gg0610b_000488.jpg,Resten,2110953
23c_IMG_5345WEB.jpg,Bilder Silje,2111815
GA_LH_000010_WEB1.jpg,Resten,2111902
gg0610b_000306.jpg,Resten,2112235
24d_IMG_5374WEB.jpg,Bilder Silje,2113607
GA_LH_000054_W1.jpg,Resten,2113750
7a_IMG_4479WEB.jpg,Bilder Silje,2116108
11_IMG_2401WEB.jpg,Bilder Silje,2118014
gg0610b_000119.jpg,Resten,2119982
DSC_0368.jpg,Resten,2127294
15a_IMG_5154WEB.jpg,Bilder Silje,2127420
GA_000345_S2.jpg,Bilder Silje,2129479
GA_LH_000041_G2.jpg,Resten,2129905
gg0703a_000354.jpg,Resten,2131405
10c_IMG_2857WEB.jpg,Bilder Silje,2132424
GA_LH_000043_3.jpg,Resten,2137301
GG0711a_000509.jpg,Resten,2142780
19d_IMG_5264WEB.jpg,Bilder Silje,2143994
5a_IMG_4471WEB.jpg,Bilder Silje,2146250
DSC_0362.jpg,Resten,2146888
DSC_0373.jpg,Resten,2148148
GA_000346_S4.jpg,Bilder Silje,2153543
gg0802_000139_1.jpg,Resten,2154930
2b_IMG_4455WEB.jpg,Bilder Silje,2155090
GA_LH_000089_W1.jpg,Resten,2157497
GA_LH_000056_W1.jpg,Resten,2158608
09_1_IMG_6411WEB.jpg,Bilder Silje,2159384
19c_IMG_5258WEB.jpg,Bilder Silje,2161009
dsc_0030.jpg,Resten,2162951
3_IMG_2348WEB.jpg,Bilder Silje,2163118
GA_LH_000041_3b.jpg,Resten,2163323
05_5_IMG_6378WEB.jpg,Bilder Silje,2163953
GA_LH_000067_W4.jpg,Resten,2165074
17b_IMG_5203WEB.jpg,Bilder Silje,2165885
GA_LH_000107_W2.jpg,Resten,2166883
GA_LH_000040_W1b.jpg,Resten,2167712
DSC_0359.jpg,Resten,2169673
GA_LH_000084_W2b.jpg,Resten,2173791
3a_IMG_1650WEB.jpg,Bilder Silje,2173818
GA_LH_000100_W6.jpg,Resten,2174058
69c_IMG_6075WEB.jpg,Bilder Silje,2175978
DSC_0371.jpg,Resten,2177033
24h_IMG_7776WEB.jpg,Bilder Silje,2178215
DSC_0363.jpg,Resten,2178317
14_5_IMG_6451WEB.jpg,Bilder Silje,2178964
GA_000360_S3.jpg,Bilder Silje,2180255
23d_IMG_5354WEB.jpg,Bilder Silje,2192026
GA_LH_000036_1.jpg,Resten,2192252
GA_LH_000058_W3.jpg,Resten,2198127
DSC_0372.jpg,Resten,2200127
47c_MG_9052WEB.jpg,Bilder Silje,2201976
24c_IMG_7771WEB.jpg,Bilder Silje,2202705
53c_MG_9390WEB.jpg,Bilder Silje,2210806
GA_000359_S3.jpg,Bilder Silje,2211903
GA_000009_A_9WEB.jpg,Resten,2213792
GA_LH_000070_W1.jpg,Resten,2214878
GG0711a_000311_1.jpg,Resten,2215755
24g_IMG_7775WEB.jpg,Bilder Silje,2216975
15c_IMG_5160WEB.jpg,Bilder Silje,2220238
gg0703a_000283b.jpg,Resten,2222553
18_IMG_2430WEB.jpg,Bilder Silje,2222896
61b_IMG_5808WEB.jpg,Bilder Silje,2224028
gg0803_000063_1b.jpg,Resten,2226578
9a_IMG_7665WEB.jpg,Bilder Silje,2228168
DSC_0406.jpg,Resten,2229831
GA_LH_000039_A_1b.jpg,Resten,2235637
GA_LH_000086_4.jpg,Resten,2236447
43d_IMG_0371WEB.jpg,Bilder Silje,2243441
gg0610b_000120.jpg,Resten,2246412
15b_IMG_5157WEB.jpg,Bilder Silje,2247406
01_40_IMG_6294WEB.jpg,Bilder Silje,2263345
53a_MG_9369WEB.jpg,Bilder Silje,2266778
GA_LH_000096_W1.jpg,Resten,2267794
GA_LH_000019_WEB2.jpg,Resten,2268759
DSC_0384.jpg,Resten,2274455
GG0711a_000099.jpg,Resten,2277925
DSC_0370.jpg,Resten,2286650
GA_LH_000097_W1.jpg,Resten,2292049
22b_IMG_5333WEB.jpg,Bilder Silje,2293210
14_1_IMG_6445WEB.jpg,Bilder Silje,2295871
17_IMG_2426WEB.jpg,Bilder Silje,2296763
GA_LH_000003_WEB2.jpg,Resten,2297127
24b_IMG_7769WEB.jpg,Bilder Silje,2306176
16a_IMG_2905WEB.jpg,Bilder Silje,2307218
GA_000360_S4.jpg,Bilder Silje,2309181
DSC_0356.jpg,Resten,2309441
DSC_0357.jpg,Resten,2314746
GA_LH_000033_7.jpg,Resten,2316226
GA_LH_000019_WEB1.jpg,Resten,2317145
gg070724_002149.jpg,Resten,2317747
GA_LH_000098_W3b.jpg,Resten,2319520
GA_LH_000093_W4b.jpg,Resten,2319755
gg0610b_000487.jpg,Resten,2320439
29a_MG_9317WEB.jpg,Bilder Silje,2326443
24i_IMG_7777WEB.jpg,Bilder Silje,2327543
DSC_0369.jpg,Resten,2328804
GA_LH_000033_W1.jpg,Resten,2332438
23b_IMG_5339WEB.jpg,Bilder Silje,2332530
GA_LH_000019_WEB3.jpg,Resten,2332887
GA_LH_000042_W2.jpg,Resten,2333232
dsc_0139.jpg,Resten,2345754
GA_LH_000012_WEB1.jpg,Resten,2349449
DSC_0374.jpg,Resten,2358511
gg0801_000633.jpg,Resten,2359803
gg0803_000034.jpg,Resten,2360432
50c_MG_9080WEB.jpg,Bilder Silje,2363251
GA_LH_000027_W1.jpg,Resten,2363722
17e_IMG_5219WEB.jpg,Bilder Silje,2365114
DSC_0360.jpg,Resten,2366016
27a_IMG_7801WEB.jpg,Bilder Silje,2375254
DSC_0404.jpg,Resten,2375418
22k_IMG_7761WEB.jpg,Bilder Silje,2376182
_D3X5589.jpg,Resten,2379374
gg0701x_000030.jpg,Resten,2381464
7b_MG_8284WEB.jpg,Bilder Silje,2384304
GA_LH_000030_9b.jpg,Resten,2389486
GA_LH_000034_4b.jpg,Resten,2390347
16d_IMG_7724WEB.jpg,Bilder Silje,2390772
05_4_IMG_6377WEB.jpg,Bilder Silje,2393957
GA_LH_000084_W1b.jpg,Resten,2395732
gg0803_000255a.jpg,Resten,2399706
GA_LH_000064_W2.jpg,Resten,2401019
10a_IMG_2854WEB.jpg,Bilder Silje,2405685
GA_LH_000126_3.jpg,Resten,2405694
24a_IMG_7767WEB.jpg,Bilder Silje,2410499
47a_MG_9040WEB.jpg,Bilder Silje,2415940
GA_LH_000052_W1b.jpg,Resten,2418217
GA_000009_A_WEB5.jpg,Resten,2422380
GG0711a_000101.jpg,Resten,2422670
17cd_IMG_5213WEB.jpg,Bilder Silje,2423149
GA_000009_A_WEB1.jpg,Resten,2423943
GA_LH_000086_2.jpg,Resten,2424036
24e_IMG_7773WEB.jpg,Bilder Silje,2425158
GA_LH_000081_W1.jpg,Resten,2426789
26h_IMG_7795WEB.jpg,Bilder Silje,2429176
26e_IMG_7791WEB.jpg,Bilder Silje,2436681
måling.jpg,Resten,2440629
17c_IMG_5210WEB.jpg,Bilder Silje,2444791
GA_LH_000051_1.jpg,Resten,2445864
_DSC1347b.jpg,Resten,2450898
DSC_1130c.jpg,Resten,2453734
DSC_0405.jpg,Resten,2455822
gg0801_000619.jpg,Resten,2459518
GA_LH_000069_W1b.jpg,Resten,2459869
gg0610b_000163.jpg,Resten,2465701
17c_IMG_7727WEB.jpg,Bilder Silje,2469211
22j_IMG_7759WEB.jpg,Bilder Silje,2480314
16a_IMG_7721WEB.jpg,Bilder Silje,2480435
18c_IMG_7733WEB.jpg,Bilder Silje,2482604
DSC_0358.jpg,Resten,2484750
GA_LH_000011_WEB2.jpg,Resten,2492669
DSC_0025.jpg,Resten,2497962
24d_IMG_7772WEB.jpg,Bilder Silje,2498415
15e_IMG_5167WEB.jpg,Bilder Silje,2500216
dsc_0311b.jpg,Resten,2517636
22a_IMG_5312WEB.jpg,Bilder Silje,2518114
1a_IMG_7594WEB.jpg,Bilder Silje,2523776
12a_IMG_2995WEB.jpg,Bilder Silje,2539603
18e_IMG_7735WEB.jpg,Bilder Silje,2546545
13a_IMG_2918WEB.jpg,Bilder Silje,2549665
_DSC1194.jpg,Resten,2550811
25a_IMG_3063WEB.jpg,Bilder Silje,2551318
dsc_0087.jpg,Resten,2551482
GA_LH_000076_W2.jpg,Resten,2552298
GA_LH_000088_W1b.jpg,Resten,2553455
18b_IMG_7732WEB.jpg,Bilder Silje,2556115
17b_IMG_7726WEB.jpg,Bilder Silje,2568391
19c_IMG_7739WEB.jpg,Bilder Silje,2569928
16b_IMG_7722WEB.jpg,Bilder Silje,2573939
gg0610b_000297b.jpg,Resten,2576823
GA_LH_000031_W1.jpg,Resten,2578289
14a_IMG_7705WEB.jpg,Bilder Silje,2587053
17d_IMG_7728WEB.jpg,Bilder Silje,2589552
gg0610a_000172b.jpg,Resten,2600178
_DSC1195.jpg,Resten,2607491
i1653599-1.jpg,Resten,2608428
15a_IMG_7715WEB.jpg,Bilder Silje,2611501
DSC_0361.jpg,Resten,2613456
dsc_0142.jpg,Resten,2614733
16c_IMG_7723WEB.jpg,Bilder Silje,2620529
18d_IMG_7734WEB.jpg,Bilder Silje,2633963
GA_LH_000030_W1.jpg,Resten,2634591
gg0610b_000148_kopi.jpg,Resten,2653705
GA_LH_000015_WEB1.jpg,Resten,2656217
GA_LH_000034_3.jpg,Resten,2657806
18a_IMG_7731WEB.jpg,Bilder Silje,2659010
7a_MG_8288WEB.jpg,Bilder Silje,2660843
22e_IMG_7754WEB.jpg,Bilder Silje,2663772
GA_LH_000011_WEB3.jpg,Resten,2664514
23a_IMG_5330WEB.jpg,Bilder Silje,2670061
gg0610b_000141.jpg,Resten,2677033
gg0610b_000139.jpg,Resten,2681745
GA_LH_000039_B_W1c.jpg,Resten,2683295
GA_000007_3.jpg,Resten,2690529
17a_IMG_2909WEB.jpg,Bilder Silje,2692895
19d_IMG_7740WEB.jpg,Bilder Silje,2696677
22f_IMG_7755WEB.jpg,Bilder Silje,2699135
GA_LH_000106_2.jpg,Resten,2704530
4a_IMG_7633WEB.jpg,Bilder Silje,2714923
GA_LH_000020_WEB1.jpg,Resten,2720843
22a_IMG_3033WEB.jpg,Bilder Silje,2721133
26f_IMG_7792WEB.jpg,Bilder Silje,2732009
22g_IMG_7756WEB.jpg,Bilder Silje,2740671
26d_IMG_7790WEB.jpg,Bilder Silje,2748733
GA_LH_000055_W2.jpg,Resten,2753136
GA_LH_000055_W3.jpg,Resten,2759607
2a__MG_8248WEB.jpg,Bilder Silje,2760170
GA_LH_000094_W1b.jpg,Resten,2773851
10b_IMG_7413.jpg,Bilder Silje,2776582
50a_MG_9072WEB.jpg,Bilder Silje,2781619
GA_LH_000083_W1b.jpg,Resten,2788338
gg0610a_000364b.jpg,Resten,2790712
GA_LH_000047_W2.jpg,Resten,2798056
GG0711a_000105.jpg,Resten,2803339
gg0610b_000191.jpg,Resten,2812560
17e_IMG_7730WEB.jpg,Bilder Silje,2812918
GA_LH_000071_W2c.jpg,Resten,2813596
GA_LH_000053_W1.jpg,Resten,2825349
dsc_0069b.jpg,Resten,2826193
GA_LH_000039_B_W1b.jpg,Resten,2830141
GA_LH_000050_W5.jpg,Resten,2831314
gg0610a_000283_kopi.jpg,Resten,2831420
GA_LH_000074_W1.jpg,Resten,2833733
gg0610b_000313_1_dyp.jpg,Resten,2841790
gg070724_002129.jpg,Resten,2850810
DSC_0376.jpg,Resten,2865051
26c_IMG_7789WEB.jpg,Bilder Silje,2872351
gg0802_000120.jpg,Resten,2874561
30a_MG_9318WEB.jpg,Bilder Silje,2878986
gg0610a_000052_1b copy.jpg,Resten,2884921
DSC_0408.jpg,Resten,2885478
16_IMG_2422WEB.jpg,Bilder Silje,2886475
19b_IMG_7738WEB.jpg,Bilder Silje,2894509
002.jpg,Resten,2901274
25c_IMG_7785WEB.jpg,Bilder Silje,2902410
22d_IMG_7753WEB.jpg,Bilder Silje,2903804
IMG_0596_kopi2.jpg,Resten,2906973
gg0610b_000334.jpg,Resten,2913862
dsc_0308b.jpg,Resten,2914551
GA_000007_2.jpg,Resten,2918531
dsc_0041.jpg,Resten,2919606
gg070724_002128_1.jpg,Resten,2921526
gg0610a_000415.jpg,Resten,2923869
GA_LH_000063_W1.jpg,Resten,2932583
01a_IMG_7436.jpg,Bilder Silje,2936036
DSC_0382.jpg,Resten,2942251
15a_IMG_1632WEB.jpg,Bilder Silje,2945130
DSC_0367.jpg,Resten,2946145
01_38_IMG_6287WEB.jpg,Bilder Silje,2972906
23d_IMG_7766WEB.jpg,Bilder Silje,2978715
24j_IMG_7778WEB.jpg,Bilder Silje,2983579
gg0701x_000249.jpg,Resten,2986452
24k_IMG_7779WEB.jpg,Bilder Silje,2989853
26b_IMG_7788WEB.jpg,Bilder Silje,3001003
GA_LH_000091_W1.jpg,Resten,3007770
20a_IMG_3014WEB.jpg,Bilder Silje,3024785
50c_MG_9073WEB.jpg,Bilder Silje,3025554
dsc_0091.jpg,Resten,3030637
GA_LH_000014_A_WEB4.jpg,Resten,3032212
gg0610a_000336.jpg,Resten,3056824
GA_LH_000028_W2a.jpg,Resten,3062325
6a_IMG_1613WEB.jpg,Bilder Silje,3067362
06a_IMG_7429.jpg,Bilder Silje,3072635
22a_IMG_7749WEB.jpg,Bilder Silje,3077668
GA_LH_000117_W1b.jpg,Resten,3079101
25b_IMG_7784WEB.jpg,Bilder Silje,3079212
22c_IMG_7752WEB.jpg,Bilder Silje,3079488
gg070724_002127.jpg,Resten,3080113
GA_LH_000068_W1b.jpg,Resten,3084314
23c_IMG_7765WEB.jpg,Bilder Silje,3085381
gg0610a_000189b.jpg,Resten,3093466
07a_IMG_7428.jpg,Bilder Silje,3107858
GA_LH_000093_W3b.jpg,Resten,3110542
GA_LH_000014_E_WEB1.jpg,Resten,3116025
26g_IMG_7793WEB.jpg,Bilder Silje,3125456
17a_IMG_7725WEB.jpg,Bilder Silje,3132049
22b_IMG_7751WEB.jpg,Bilder Silje,3133077
26a_IMG_7787WEB.jpg,Bilder Silje,3136177
gg0802_000225.jpg,Resten,3144479
_DSC1203.jpg,Resten,3147602
20a_IMG_5270WEB.jpg,Bilder Silje,3149081
DSC_0021_3.jpg,Resten,3149517
69b_IMG_6078WEB.jpg,Bilder Silje,3158376
26a_IMG_3051WEB.jpg,Bilder Silje,3164870
13_IMG_2410WEB.jpg,Bilder Silje,3168227
20d_IMG_7745WEB.jpg,Bilder Silje,3170676
_DSC1190.jpg,Resten,3178044
GA_LH_000087_1b.jpg,Resten,3183569
8a_IMG_7655WEB.jpg,Bilder Silje,3192850
22i_IMG_7758WEB.jpg,Bilder Silje,3195115
GA_LH_000050_W4c.jpg,Resten,3202339
DSC_0352.jpg,Resten,3206488
19a_IMG_7736WEB.jpg,Bilder Silje,3208876
GA_LH_000104_W1.jpg,Resten,3217457
GA_LH_000025_W3.jpg,Resten,3221920
GA_LH_000077_W2b.jpg,Resten,3227206
28a_IMG_2970WEB.jpg,Bilder Silje,3238490
1c_IMG_1526WEB.jpg,Bilder Silje,3240272
GA_LH_000027_W2a.jpg,Resten,3250503
gg0801_000647.jpg,Resten,3258473
GG0711a_000103.jpg,Resten,3274593
GA_LH_000045_W1b.jpg,Resten,3280957
GA_LH_000028_W2c.jpg,Resten,3292025
GA_LH_000075_W2b.jpg,Resten,3299723
23b_IMG_7764WEB.jpg,Bilder Silje,3308757
GA_LH_000025_W1.jpg,Resten,3311706
_DSC1264b.jpg,Resten,3326933
002_032171.jpg,Resten,3336845
GA_LH_000028_W2b.jpg,Resten,3349325
GA_LH_000127_W1b.jpg,Resten,3353545
68a_IMG_6098WEB.jpg,Bilder Silje,3403063
05a_IMG_7430.jpg,Bilder Silje,3403916
gg0802_000128b.jpg,Resten,3405627
alminnelig1.jpg,Resten,3408005
GG0711a_000031.jpg,Resten,3438279
GA_LH_000103_W2b.jpg,Resten,3445073
gg0703a_000196.jpg,Resten,3456765
GA_LH_000049_B_W1.jpg,Resten,3457309
gg0703a_000213v.jpg,Resten,3480655
02a_IMG_7434.jpg,Bilder Silje,3492926
GA_LH_000111_W1b.jpg,Resten,3504113
gg070724_002151.jpg,Resten,3504214
GA_LH_000049_A_W1.jpg,Resten,3512633
GA_LH_000014_D_WEB1.jpg,Resten,3527284
20c_IMG_7744WEB.jpg,Bilder Silje,3527514
GA_LH_000014_A_WEB6.jpg,Resten,3531117
GA_LH_000110_W1.jpg,Resten,3539201
GA_LH_000102_W1b.jpg,Resten,3550045
20b_IMG_7743-2WEB.jpg,Bilder Silje,3573164
GA_LH_000106_W1b.jpg,Resten,3587734
gg0610a_000342b.jpg,Resten,3607479
GA_LH_000090_W1.jpg,Resten,3626779
2a_IMG_7603WEB.jpg,Bilder Silje,3642929
03a_IMG_7433.jpg,Bilder Silje,3646016
fjelloverganger9_b.jpg,Resten,3653279
001.jpg,Resten,3667543
DSC_0015b.jpg,Resten,3690530
GA_LH_000124_W3b.jpg,Resten,3695247
gg0610b_000039.jpg,Resten,3722172
GG0711a_000030.jpg,Resten,3730466
GA_LH_000135_W1.jpg,Resten,3748063
GA_LH_000079_W1b.jpg,Resten,3809069
20a_IMG_7741WEB.jpg,Bilder Silje,3815844
gg0803_000040.jpg,Resten,3841569
12_IMG_2406WEB.jpg,Bilder Silje,3863943
GA_LH_000117_W3b.jpg,Resten,3889008
5_IMG_2357WEB.jpg,Bilder Silje,3898472
GA_LH_000117_W2.jpg,Resten,3900826
GA_000360_S1.jpg,Bilder Silje,3913128
GA_LH_000127_3b.jpg,Resten,3922506
28a__IMG_7573WEB.jpg,Bilder Silje,3929295
GG0711a_000027.jpg,Resten,3984651
DSC_0353.jpg,Resten,3992695
GA_LH_000101_W1.jpg,Resten,3999872
071_032171.jpg,Resten,4019513
Matak3.jpg,Resten,4025682
GA_LH_000108_B_1b.jpg,Resten,4035519
GA_LH_000119_W1.jpg,Resten,4055216
GG0711a_000025.jpg,Resten,4085817
004.jpg,Resten,4113857
GG0711a_000058.jpg,Resten,4123976
gg0610a_000442.jpg,Resten,4166944
082_032171.jpg,Resten,4182937
Matak.jpg,Resten,4194589
189_032171.jpg,Resten,4194761
GA_LH_000118_W1b.jpg,Resten,4211191
GA_LH_000014_C_WEB1.jpg,Resten,4211737
GG0711a_000083.jpg,Resten,4232731
081_032171.jpg,Resten,4235853
GA_LH_000130_W1.jpg,Resten,4298606
1a_IMG_2864WEB.jpg,Bilder Silje,4311488
085_032171.jpg,Resten,4316241
084_032171.jpg,Resten,4322321
GA_LH_000117_W5b.jpg,Resten,4331646
083_032171.jpg,Resten,4333738
gg0610a_000024_2.jpg,Resten,4345668
GA_LH_000122_W1b.jpg,Resten,4346827
GA_LH_000114_W3.jpg,Resten,4355767
003_032171.jpg,Resten,4356909
dsc_0301_kopib.jpg,Resten,4374649
GA_LH_000066_W1b.jpg,Resten,4379678
13a_IMG_7693WEB.jpg,Bilder Silje,4394032
gg0610a_000257.jpg,Resten,4422381
gg0610b_000502.jpg,Resten,4462241
GA_LH_000028_W2d.jpg,Resten,4470241
GA_LH_000124_W2.jpg,Resten,4472373
GA_LH_000022_WEB1.jpg,Resten,4511689
GA_LH_000118_W2b.jpg,Resten,4552085
GA_LH_000116_W3b.jpg,Resten,4561608
gg0610a_000314b.jpg,Resten,4570767
GA_LH_000109_W1.jpg,Resten,4577418
GA_LH_000073_W3b.jpg,Resten,4599049
GA_LH_000114_W1.jpg,Resten,4615629
DSC_0440_kopi.jpg,Resten,4667229
GA_000010_WEB2.jpg,Resten,4672449
04a_IMG_7431.jpg,Bilder Silje,4681191
GA_LH_000123_W1.jpg,Resten,4727011
GA_LH_000112_W1b.jpg,Resten,4736185
GA_LH_000014_B_W1.jpg,Resten,4744663
GA_LH_000107_W1.jpg,Resten,4801473
031.jpg,Resten,4807417
fjelloverganger9.jpg,Resten,4876508
003.jpg,Resten,4891004
11a_IMG_7671WEB.jpg,Bilder Silje,4929335
GA_LH_000114_W2.jpg,Resten,4930750
gg0610b_000507.jpg,Resten,4965409
gg0803_000207.jpg,Resten,4991541
080_032171.jpg,Resten,4995776
GA_LH_000136_W1.jpg,Resten,5017496
GA_LH_000115_W2b.jpg,Resten,5019219
Untitled-1.jpg,Resten,5108573
GA_LH_000129_W3b.jpg,Resten,5156129
GA_LH_000116_W2b.jpg,Resten,5226045
GA_LH_000113_W1.jpg,Resten,5342275
GA_LH_000121_W1b.jpg,Resten,5435252
GA_LH_000133_W1.jpg,Resten,5475368
GA_LH_000008_W2.jpg,Resten,5500660
GA_LH_000107_W3.jpg,Resten,5600782
GA_LH_000120_W2.jpg,Resten,5615630
GA_LH_000129_W4b.jpg,Resten,5657523
GA_LH_000124_W1.jpg,Resten,5796343
GA_LH_000116_W1.jpg,Resten,5817693
187_032171.jpg,Resten,5857397
GA_LH_000132_W1.jpg,Resten,5876866
190_032171.jpg,Resten,5922307
GA_LH_000105_W1.jpg,Resten,5986209
GG0711a_000080.jpg,Resten,6139799
GA_LH_000108_B_4b.jpg,Resten,6220950
191_032171.jpg,Resten,6238873
gg0610b_000034.jpg,Resten,6308357
gg0610a_000325.jpg,Resten,6330062
GA_LH_000128_W1b.jpg,Resten,6362475
188_032171.jpg,Resten,6468467
GA_LH_000131_1b.jpg,Resten,6591744
GA_LH_000108_B_5b.jpg,Resten,6691158
GA_LH_000134_1b.jpg,Resten,6822530
gg0610a_000175.jpg,Resten,7048490
092_032171.jpg,Resten,7240144
GA_LH_000125_W2c.jpg,Resten,7258513
091_032171.jpg,Resten,7353147
GA_LH_000108_B_6.jpg,Resten,8528895
