File.name (ascending),File.size,Exif.Photo.DateTimeOriginal
_D3X5589.jpg,gg0803_000255a_2.jpg,DSC_0440_kopi.jpg
_DSC1190.jpg,4a_IMG_2837WEB.jpg,IMG_0596_kopi2.jpg
_DSC1194.jpg,40b_MG_8972WEB.jpg,DSC_1130c.jpg
_DSC1195.jpg,11b_IMG_7382.jpg,GA_LH_000051_1.jpg
_DSC1203.jpg,57b_MG_9433WEB.jpg,alminnelig1.jpg
_DSC1264b.jpg,26c_MG_8709WEB.jpg,gg0610a_000024_2.jpg
_DSC1275.jpg,58a_MG_9434WEB.jpg,gg0610a_000052_1b copy.jpg
_DSC1279.jpg,26d_MG_8712WEB.jpg,gg0610a_000172b.jpg
_DSC1288.jpg,36b_MG_8934WEB.jpg,gg0610a_000175.jpg
_DSC1347b.jpg,8b_IMG_4381WEB.jpg,gg0610a_000189b.jpg
001.jpg,17b_MG_8358WEB.jpg,gg0610a_000257.jpg
002_032171.jpg,strikk.jpg,gg0610a_000283_kopi.jpg
002.jpg,59a_MG_9442WEB.jpg,gg0610a_000314b.jpg
003_032171.jpg,7a_IMG_2843WEB.jpg,gg0610a_000325.jpg
003.jpg,33c_MG_8904WEB.jpg,gg0610a_000336.jpg
004.jpg,3a_IMG_0298WEB.jpg,gg0610a_000342b.jpg
01_1_IMG_6241WEB.jpg,56a_IMG_5776WEB.jpg,gg0610a_000364b.jpg
01_10_IMG_6253WEB.jpg,24c_MG_8694WEB.jpg,gg0610a_000415.jpg
01_11_IMG_6254WEB.jpg,55a_MG_9414WEB.jpg,gg0610a_000426.jpg
01_12_IMG_6255WEB.jpg,39b_MG_8964WEB.jpg,gg0610a_000442.jpg
